timestamp;x;y;z
0;-41,69;1,962155;-54,946
0,1;-41,69;1,950702;-54,946
0,2;-41,69;1,950701;-54,946
0,3;-41,69;1,950701;-54,946
0,4;-41,69;1,950701;-54,946
0,5;-41,69;1,950701;-54,946
0,6;-41,69;1,950701;-54,946
0,7;-41,69;1,950701;-54,946
0,8;-41,69;1,950701;-54,946
0,9;-41,69;1,950701;-54,946
1;-41,69;1,950701;-54,946
1,1;-41,69;1,950701;-54,946
1,2;-41,69;1,950701;-54,946
1,3;-41,69;1,950701;-54,946
1,4;-41,69;1,950701;-54,946
1,5;-41,69;1,950701;-54,946
1,6;-41,69;1,950701;-54,946
1,7;-41,69;1,950701;-54,946
1,8;-41,69;1,950701;-54,946
1,9;-41,69;1,950701;-54,946
2;-41,69;1,950701;-54,946
2,1;-41,69;1,950701;-54,946
2,2;-41,69;1,950701;-54,946
2,3;-41,69;1,950701;-54,946
2,4;-41,69;1,950701;-54,946
2,5;-41,69;1,950701;-54,946
2,6;-41,69;1,950701;-54,946
2,7;-41,69;1,950701;-54,946
2,8;-41,69;1,950701;-54,946
2,9;-41,69;1,950701;-54,946
3;-41,69;1,950701;-54,946
3,1;-41,69;1,950701;-54,946
3,2;-41,69;1,950701;-54,946
3,3;-41,69;1,950701;-54,946
3,4;-41,69;1,950701;-54,946
3,5;-41,69;1,950701;-54,946
3,6;-41,69;1,950701;-54,946
3,7;-41,69;1,950701;-54,946
3,8;-41,69;1,950701;-54,946
3,9;-41,69;1,950701;-54,946
4;-41,69;1,950701;-54,946
4,1;-41,69;1,950701;-54,946
4,2;-41,69;1,950701;-54,946
4,3;-41,69;1,950701;-54,946
4,4;-41,69;1,950701;-54,946
4,5;-41,69;1,950701;-54,946
4,6;-41,69;1,950701;-54,946
4,7;-41,69;1,950701;-54,946
4,8;-41,69;1,950701;-54,946
4,9;-41,69;1,950701;-54,946
5;-41,69;1,950701;-54,946
5,1;-41,69;1,950701;-54,946
5,2;-41,69;1,950701;-54,946
5,3;-41,69;1,950701;-54,946
5,4;-41,69;1,950701;-54,946
5,5;-41,69;1,950701;-54,946
5,6;-41,69;1,950701;-54,946
5,7;-41,69;1,950701;-54,946
5,8;-41,69;1,950701;-54,946
5,9;-41,69;1,950701;-54,946
6;-41,69;1,950701;-54,946
6,1;-41,69;1,950701;-54,946
6,2;-41,69;1,950701;-54,946
6,3;-41,69;1,950701;-54,946
6,4;-41,69;1,950701;-54,946
6,5;-41,69;1,950701;-54,946
6,6;-41,69;1,950701;-54,946
6,7;-41,69;1,950701;-54,946
6,8;-41,69;1,950701;-54,946
6,9;-41,69;1,950701;-54,946
7;-41,69;1,950701;-54,946
7,1;-41,69;1,950701;-54,946
7,2;-41,69;1,950701;-54,946
7,3;-41,69;1,950701;-54,946
7,4;-41,69;1,950701;-54,946
7,5;-41,69;1,950701;-54,946
7,6;-41,69;1,950701;-54,946
7,7;-41,69;1,950701;-54,946
7,8;-41,69;1,950701;-54,946
7,9;-41,69;1,950701;-54,946
8;-41,69;1,950701;-54,946
8,1;-41,69;1,950701;-54,946
8,2;-41,69;1,950701;-54,946
8,3;-41,69;1,950701;-54,946
8,4;-41,69;1,950701;-54,946
8,5;-41,69;1,950701;-54,946
8,6;-41,69;1,950701;-54,946
8,7;-41,69;1,950701;-54,946
8,8;-41,69;1,950701;-54,946
8,9;-41,69;1,950701;-54,946
9;-41,69;1,950701;-54,946
9,1;-41,69;1,950701;-54,946
9,2;-41,69;1,950701;-54,946
9,3;-41,69;1,950701;-54,946
9,4;-41,69;1,950701;-54,946
9,5;-41,69;1,950701;-54,946
9,6;-41,69;1,950701;-54,946
9,7;-41,69;1,950701;-54,946
9,8;-41,69;1,950701;-54,946
9,9;-41,69;1,950701;-54,946
10;-41,69;1,950701;-54,946
10,1;-41,69;1,950701;-54,946
10,2;-41,69;1,950701;-54,946
10,3;-41,69;1,950701;-54,946
10,4;-41,69;1,950701;-54,946
10,5;-41,69;1,950701;-54,946
10,6;-41,69;1,950701;-54,946
10,7;-41,69;1,950701;-54,946
10,8;-41,69;1,950701;-54,946
10,9;-41,69;1,950701;-54,946
11;-41,69;1,950701;-54,946
11,1;-41,69;1,950701;-54,946
11,2;-41,69;1,950701;-54,946
11,3;-41,69;1,950701;-54,946
11,4;-41,69;1,950701;-54,946
11,5;-41,69;1,950701;-54,946
11,6;-41,69;1,950701;-54,946
11,7;-41,69;1,950701;-54,946
11,8;-41,69;1,950701;-54,946
11,9;-41,69;1,950701;-54,946
12;-41,69;1,950701;-54,946
12,1;-41,69;1,950701;-54,946
12,2;-41,69;1,950701;-54,946
12,3;-41,69;1,950701;-54,946
12,4;-41,69;1,950701;-54,946
12,5;-41,69;1,950701;-54,946
12,6;-41,69;1,950701;-54,946
12,7;-41,69;1,950701;-54,946
12,8;-41,69;1,950701;-54,946
12,9;-41,69;1,950701;-54,946
13;-41,69;1,950701;-54,946
13,1;-41,69;1,950701;-54,946
13,2;-41,69;1,950701;-54,946
13,3;-41,69;1,950701;-54,946
13,4;-41,69;1,950701;-54,946
13,5;-41,69;1,950701;-54,946
13,6;-41,69;1,950701;-54,946
13,7;-41,69;1,950701;-54,946
13,8;-41,69;1,950701;-54,946
13,9;-41,69;1,950701;-54,946
14;-41,69;1,950701;-54,946
14,1;-41,69;1,950701;-54,946
14,2;-41,69;1,950701;-54,946
14,3;-41,69;1,950701;-54,946
14,4;-41,69;1,950701;-54,946
14,5;-41,69;1,950701;-54,946
14,6;-41,69;1,950701;-54,946
14,7;-41,69;1,950701;-54,946
14,8;-41,69;1,950701;-54,946
14,9;-41,69;1,950701;-54,946
15;-41,69;1,950701;-54,946
15,1;-41,69;1,950701;-54,946
15,2;-41,69;1,950701;-54,946
15,3;-41,69;1,950701;-54,946
15,4;-41,69;1,950701;-54,946
15,5;-41,69;1,950701;-54,946
15,6;-41,69;1,950701;-54,946
15,7;-41,69;1,950701;-54,946
15,8;-41,69;1,950701;-54,946
15,9;-41,69;1,950701;-54,946
16;-41,69;1,950701;-54,946
16,1;-41,69;1,950701;-54,946
16,2;-41,69;1,950701;-54,946
16,3;-41,69;1,950701;-54,946
16,4;-41,69;1,950701;-54,946
16,5;-41,69;1,950701;-54,946
16,6;-41,69;1,950701;-54,946
16,7;-41,69;1,950701;-54,946
16,8;-41,69;1,950701;-54,946
16,9;-41,69;1,950701;-54,946
17;-41,69;1,950701;-54,946
17,1;-41,69;1,950701;-54,946
17,2;-41,69;1,950701;-54,946
17,3;-41,69;1,950701;-54,946
17,4;-41,69;1,950701;-54,946
17,5;-41,69;1,950701;-54,946
17,6;-41,69;1,950701;-54,946
17,7;-41,69;1,950701;-54,946
17,8;-41,69;1,950701;-54,946
17,9;-41,69;1,950701;-54,946
18;-41,69;1,950701;-54,946
18,1;-41,69;1,950701;-54,946
18,2;-41,69;1,950701;-54,946
18,3;-41,69;1,950701;-54,946
18,4;-41,69;1,950701;-54,946
18,5;-41,69;1,950701;-54,946
18,6;-41,69;1,950701;-54,946
18,7;-41,69;1,950701;-54,946
18,8;-41,69;1,950701;-54,946
18,9;-41,69;1,950701;-54,946
19;-41,6898;1,950701;-54,94225
19,1;-41,68941;1,950701;-54,91325
19,2;-41,68946;1,950701;-54,86033
19,3;-41,69116;1,950701;-54,78791
19,4;-41,69502;1,950701;-54,6996
19,5;-41,70065;1,950701;-54,59832
19,6;-41,70736;1,950701;-54,4864
19,7;-41,71639;1,950701;-54,36591
19,8;-41,72859;1,950701;-54,23856
19,9;-41,74268;1,950701;-54,1055
20;-41,7578;1,950701;-53,96771
20,1;-41,77393;1,950701;-53,82607
20,2;-41,79248;1,950701;-53,68146
20,3;-41,81565;1,950701;-53,53486
20,4;-41,84346;1,950701;-53,3868
20,5;-41,87416;1,950701;-53,23739
20,6;-41,90755;1,950701;-53,08694
20,7;-41,9423;1,950701;-52,9354
20,8;-41,97797;1,950701;-52,78289
20,9;-42,0158;1,950701;-52,62996
21;-42,05837;1,950701;-52,47749
21,1;-42,1062;1,950701;-52,32576
21,2;-42,15723;1,950701;-52,17421
21,3;-42,2096;1,950701;-52,02234
21,4;-42,26125;1,950701;-51,86955
21,5;-42,31297;1,950701;-51,71627
21,6;-42,36678;1,950701;-51,56327
21,7;-42,42304;1,950701;-51,41072
21,8;-42,48095;1,950701;-51,25835
21,9;-42,53975;1,950701;-51,10592
22;-42,59816;1,952087;-50,95528
22,1;-42,65599;1,953721;-50,80519
22,2;-42,71084;1,955346;-50,65527
22,3;-42,76057;1,956841;-50,50497
22,4;-42,80532;1,958336;-50,35456
22,5;-42,84647;1,959828;-50,20439
22,6;-42,88562;1,961313;-50,05475
22,7;-42,92371;1,962793;-49,90575
22,8;-42,96093;1,964265;-49,75729
22,9;-42,99672;1,965731;-49,60913
23;-43,03006;1,967192;-49,46098
23,1;-43,05935;1,968641;-49,31255
23,2;-43,08264;1,970097;-49,1637
23,3;-43,10037;1,971561;-49,01469
23,4;-43,11485;1,973027;-48,8658
23,5;-43,12793;1,974488;-48,71716
23,6;-43,1404;1,975947;-48,5688
23,7;-43,15263;1,977403;-48,4207
23,8;-43,16442;1,978849;-48,27277
23,9;-43,17492;1,980297;-48,12495
24;-43,18501;1,981754;-47,97728
24,1;-43,19346;1,983213;-47,82967
24,2;-43,19736;1,984666;-47,68203
24,3;-43,19806;1,986109;-47,53442
24,4;-43,19737;1,987547;-47,38689
24,5;-43,196;1,988965;-47,23938
24,6;-43,19476;1,99037;-47,0919
24,7;-43,19701;1,991761;-46,94457
24,8;-43,20699;1,993192;-46,79795
24,9;-43,22642;1,994636;-46,65266
25;-43,25432;1,996073;-46,50883
25,1;-43,28977;1,997502;-46,36652
25,2;-43,33239;1,998922;-46,22584
25,3;-43,38166;2,00033;-46,0868
25,4;-43,43627;2,001732;-45,94901
25,5;-43,49511;2,003128;-45,81207
25,6;-43,55769;2,004524;-45,67583
25,7;-43,62401;2,005919;-45,54036
25,8;-43,69268;2,007283;-45,40503
25,9;-43,76244;2,00865;-45,26932
26;-43,83127;2,01003;-45,13237
26,1;-43,8994;2,011421;-44,99449
26,2;-43,96573;2,012824;-44,85534
26,3;-44,02851;2,014242;-44,71444
26,4;-44,08647;2,015666;-44,57178
26,5;-44,13752;2,017119;-44,42713
26,6;-44,18039;2,018603;-44,28061
26,7;-44,21552;2,020085;-44,13278
26,8;-44,24359;2,021575;-43,9842
26,9;-44,26529;2,023075;-43,83525
27;-44,28221;2,024567;-43,68627
27,1;-44,29535;2,026046;-43,53738
27,2;-44,30627;2,027511;-43,38869
27,3;-44,31615;2,028955;-43,24024
27,4;-44,32546;2,030391;-43,09201
27,5;-44,33452;2,031828;-42,94397
27,6;-44,34346;2,033263;-42,7961
27,7;-44,35234;2,034697;-42,64836
27,8;-44,36119;2,036129;-42,50073
27,9;-44,37015;2,037559;-42,3532
28;-44,37966;2,038986;-42,20578
28,1;-44,39019;2,040415;-42,05851
28,2;-44,40177;2,041844;-41,91137
28,3;-44,41429;2,043275;-41,76434
28,4;-44,42897;2,044708;-41,61751
28,5;-44,44331;2,046141;-41,47064
28,6;-44,45709;2,047574;-41,3237
28,7;-44,47047;2,049008;-41,17673
28,8;-44,48349;2,050433;-41,02972
28,9;-44,49641;2,051857;-40,8827
29;-44,50954;2,053276;-40,7357
29,1;-44,51363;2,052649;-40,68156
29,2;-44,51957;2,052658;-40,6438
29,3;-44,53139;2,052978;-40,58484
29,4;-44,54922;2,053531;-40,50908
29,5;-44,57293;2,053663;-40,41898
29,6;-44,60233;2,053736;-40,31687
29,7;-44,63474;2,053693;-40,20485
29,8;-44,66888;2,053671;-40,08456
29,9;-44,70511;2,053734;-39,95813
30;-44,74271;2,053716;-39,82624
30,1;-44,78158;2,053709;-39,69017
30,2;-44,82361;2,053785;-39,55095
30,3;-44,86609;2,053887;-39,40846
30,4;-44,9087;2,053778;-39,26282
30,5;-44,95162;2,053753;-39,11509
30,6;-44,99553;2,053707;-38,96581
30,7;-45,04013;2,053719;-38,81536
30,8;-45,0855;2,053745;-38,66402
30,9;-45,12999;2,053827;-38,51133
31;-45,17242;2,053735;-38,35707
31,1;-45,21255;2,053711;-38,20152
31,2;-45,25253;2,053704;-38,04555
31,3;-45,2921;2,053735;-37,88913
31,4;-45,33177;2,053718;-37,73231
31,5;-45,37165;2,053692;-37,57522
31,6;-45,41109;2,053693;-37,41791
31,7;-45,44927;2,053695;-37,26023
31,8;-45,4852;2,053696;-37,10203
31,9;-45,51785;2,053698;-36,9432
32;-45,54621;2,0537;-36,78373
32,1;-45,56926;2,053699;-36,62365
32,2;-45,58751;2,053697;-36,46319
32,3;-45,60279;2,053694;-36,30262
32,4;-45,61661;2,053692;-36,14207
32,5;-45,62977;2,053692;-35,98161
32,6;-45,6426;2,053694;-35,82124
32,7;-45,65525;2,053702;-35,66099
32,8;-45,66919;2,053766;-35,50097
32,9;-45,6825;2,053857;-35,34109
33;-45,69755;2,053761;-35,18127
33,1;-45,71528;2,053695;-35,02187
33,2;-45,73454;2,053845;-34,8628
33,3;-45,75495;2,053684;-34,70347
33,4;-45,77632;2,053691;-34,54421
33,5;-45,79834;2,053688;-34,38502
33,6;-45,8225;2,053688;-34,22612
33,7;-45,8488;2,05369;-34,06753
33,8;-45,87748;2,053746;-33,90915
33,9;-45,90626;2,053705;-33,75037
34;-45,93261;2,053712;-33,59127
34,1;-45,95488;2,053693;-33,43141
34,2;-45,97602;2,053692;-33,27152
34,3;-45,99675;2,053692;-33,11166
34,4;-46,01742;2,054813;-32,95292
34,5;-46,03811;2,056125;-32,79544
34,6;-46,05986;2,058041;-32,63909
34,7;-46,0866;2,060545;-32,48512
34,8;-46,11977;2,063042;-32,33308
34,9;-46,15833;2,065538;-32,1827
35;-46,20116;2,067935;-32,03323
35,1;-46,24611;2,070266;-31,88421
35,2;-46,2918;2,072518;-31,73521
35,3;-46,33661;2,074729;-31,5857
35,4;-46,38146;2,076981;-31,43621
35,5;-46,42661;2,079232;-31,28673
35,6;-46,47189;2,081482;-31,13721
35,7;-46,51725;2,083734;-30,98765
35,8;-46,56265;2,085985;-30,83805
35,9;-46,60817;2,088237;-30,68843
36;-46,65391;2,090486;-30,53885
36,1;-46,7004;2,09273;-30,38945
36,2;-46,74751;2,095009;-30,24051
36,3;-46,79478;2,097215;-30,09151
36,4;-46,84205;2,099488;-29,94277
36,5;-46,89002;2,101712;-29,794
36,6;-46,93883;2,10397;-29,6454
36,7;-46,98748;2,106188;-29,4965
36,8;-47,03627;2,1084;-29,34751
36,9;-47,0852;2,110634;-29,19855
37;-47,13367;2,112846;-29,04937
37,1;-47,18125;2,115088;-28,89995
37,2;-47,22899;2,117332;-28,75055
37,3;-47,27632;2,119543;-28,60114
37,4;-47,32148;2,121105;-28,45049
37,5;-47,3614;2,12187;-28,29747
37,6;-47,39795;2,123098;-28,14382
37,7;-47,43368;2,124352;-27,98987
37,8;-47,46888;2,125598;-27,83574
37,9;-47,50359;2,126851;-27,68146
38;-47,53674;2,128119;-27,52684
38,1;-47,56647;2,129413;-27,37164
38,2;-47,59133;2,130835;-27,21566
38,3;-47,6125;2,132075;-27,05935
38,4;-47,62938;2,133485;-26,90271
38,5;-47,64404;2,134882;-26,74592
38,6;-47,65859;2,136283;-26,58936
38,7;-47,6731;2,137683;-26,43298
38,8;-47,68757;2,139081;-26,27677
38,9;-47,70224;2,140476;-26,1207
39;-47,71777;2,141864;-25,96482
39,1;-47,73438;2,143242;-25,80912
39,2;-47,75237;2,144594;-25,65356
39,3;-47,77159;2,145644;-25,49741
39,4;-47,7899;2,146549;-25,34079
39,5;-47,80909;2,146847;-25,18335
39,6;-47,82851;2,147226;-25,02576
39,7;-47,84759;2,147521;-24,86776
39,8;-47,8656;2,147835;-24,70965
39,9;-47,88496;2,147988;-24,55147
40;-47,90615;2,148143;-24,39352
40,1;-47,92817;2,148313;-24,23565
40,2;-47,95066;2,148535;-24,07777
40,3;-47,97476;2,148733;-23,91992
40,4;-48,00117;2,148912;-23,76218
40,5;-48,02809;2,149096;-23,60436
40,6;-48,05521;2,149278;-23,44646
40,7;-48,08243;2,14946;-23,28848
40,8;-48,10965;2,149642;-23,13041
40,9;-48,13679;2,149824;-22,97226
41;-48,16463;2,150004;-22,81401
41,1;-48,19283;2,150249;-22,65554
41,2;-48,21967;2,150141;-22,49669
41,3;-48,24686;2,150247;-22,3381
41,4;-48,27408;2,150413;-22,17963
41,5;-48,3005;2,150582;-22,021
41,6;-48,32636;2,150694;-21,86224
41,7;-48,35035;2,150853;-21,70332
41,8;-48,37437;2,151029;-21,54446
41,9;-48,39874;2,151203;-21,38568
42;-48,42389;2,151373;-21,22705
42,1;-48,45067;2,151536;-21,06868
42,2;-48,481;2,151687;-20,91098
42,3;-48,51549;2,151827;-20,75408
42,4;-48,55348;2,151953;-20,59782
42,5;-48,59413;2,152069;-20,44201
42,6;-48,6366;2,15218;-20,28641
42,7;-48,68009;2,152286;-20,13082
42,8;-48,72414;2,15239;-19,97515
42,9;-48,76845;2,152493;-19,81934
43;-48,8129;2,152596;-19,6634
43,1;-48,85748;2,152699;-19,50734
43,2;-48,90209;2,152801;-19,35117
43,3;-48,94699;2,152962;-19,19526
43,4;-48,99347;2,153045;-19,03969
43,5;-49,03918;2,153229;-18,88396
43,6;-49,0843;2,153191;-18,72757
43,7;-49,12783;2,153363;-18,57087
43,8;-49,17285;2,153453;-18,41439
43,9;-49,21817;2,153577;-18,25798
44;-49,26355;2,153635;-18,1014
44,1;-49,30912;2,15373;-17,94492
44,2;-49,35476;2,153839;-17,78849
44,3;-49,39941;2,15392;-17,63177
44,4;-49,44242;2,154126;-17,4751
44,5;-49,4866;2,154234;-17,31867
44,6;-49,52896;2,154494;-17,16225
44,7;-49,56911;2,154647;-17,0053
44,8;-49,60363;2,154751;-16,84667
44,9;-49,62992;2,154907;-16,68719
45;-49,64742;2,155065;-16,52701
45,1;-49,65998;2,155231;-16,36667
45,2;-49,67036;2,155402;-16,20638
45,3;-49,68218;2,155629;-16,04652
45,4;-49,69468;2,155766;-15,88659
45,5;-49,70294;2,15631;-17,76821
45,6;-49,70613;2,153115;-17,69234
45,7;-49,71088;2,15326;-17,60494
45,8;-49,71869;2,153479;-17,50503
45,9;-49,73168;2,15372;-17,39487
46;-49,75035;2,154151;-17,27722
46,1;-49,77342;2,15436;-17,15257
46,2;-49,79967;2,154326;-17,02265
46,3;-49,82755;2,154437;-16,88802
46,4;-49,8564;2,154565;-16,74921
46,5;-49,88545;2,154701;-16,60682
46,6;-49,91954;2,154926;-16,43255
46,7;-49,939;2,155053;-16,31404
46,8;-49,95868;2,155364;-16,16441
46,9;-49,9708;2,155803;-16,01295
47;-49,97797;2,155853;-15,85988
47,1;-49,98203;2,155693;-15,70547
47,2;-49,98305;2,155858;-15,55062
47,3;-49,98261;2,155815;-15,39444
47,4;-49,98372;2,155909;-15,23805
47,5;-49,98252;2,155727;-15,08076
47,6;-49,98263;2,155683;-14,92313
47,7;-49,988;2,15568;-14,76538
47,8;-50,00159;2,15571;-14,608
47,9;-50,02218;2,155776;-14,45107
48;-50,04582;2,155808;-14,29411
48,1;-50,07103;2,155819;-14,13693
48,2;-50,09695;2,155823;-13,97946
48,3;-50,1231;2,155824;-13,82169
48,4;-50,14915;2,155825;-13,66368
48,5;-50,16437;2,161;-13,56876
48,6;-50,17527;2,155776;-13,48347
48,7;-50,18408;2,155852;-13,39126
48,8;-50,19121;2,156085;-13,2872
48,9;-50,19774;2,156472;-13,17309
49;-50,20642;2,156662;-13,05085
49,1;-50,21603;2,156948;-12,92188
49,2;-50,22798;2,156871;-12,78717
49,3;-50,24154;2,157062;-12,64792
49,4;-50,25723;2,15715;-12,5052
49,5;-50,27393;2,157592;-12,35982
49,6;-50,2918;2,157914;-12,21202
49,7;-50,31137;2,158341;-12,06302
49,8;-50,33475;2,158883;-11,91359
49,9;-50,36306;2,159321;-11,76344
50;-50,3982;2,159811;-11,6139
50,1;-50,43985;2,160301;-11,46483
50,2;-50,48658;2,160789;-11,31604
50,3;-50,53648;2,161276;-11,16708
50,4;-50,58801;2,161764;-11,01757
50,5;-50,64001;2,162254;-10,86729
50,6;-50,69083;2,162898;-10,7164
50,7;-50,73949;2,163286;-10,56347
50,8;-50,78539;2,163667;-10,40971
50,9;-50,82914;2,164224;-10,25514
51;-50,86962;2,164696;-10,09939
51,1;-50,90769;2,165219;-9,94314
51,2;-50,94356;2,165742;-9,786465
51,3;-50,97696;2,16627;-9,629395
51,4;-51,008;2,166785;-9,472004
51,5;-51,03752;2,167285;-9,314472
51,6;-51,06633;2,167794;-9,156969
51,7;-51,09484;2,168305;-8,999528
51,8;-51,12323;2,168772;-8,842088
51,9;-51,15236;2,168944;-8,683841
52;-51,18479;2,168082;-8,525129
52,1;-51,21827;2,167186;-8,366102
52,2;-51,25234;2,166404;-8,206639
52,3;-51,2892;2,16578;-8,047317
52,4;-51,32572;2,165862;-7,889053
52,5;-51,36113;2,165815;-7,730772
52,6;-51,39699;2,165913;-7,573393
52,7;-51,43148;2,166718;-7,417149
52,8;-51,46472;2,167508;-7,260777
52,9;-51,49721;2,168291;-7,104398
53;-51,5293;2,169076;-6,948089
53,1;-51,56115;2,169867;-6,791879
53,2;-51,59289;2,170644;-6,635764
53,3;-51,62462;2,171422;-6,479758
53,4;-51,6566;2,172209;-6,323895
53,5;-51,68982;2,173014;-6,168376
53,6;-51,7252;2,173805;-6,013253
53,7;-51,76356;2,174658;-5,858768
53,8;-51,80208;2,17623;-5,705224
53,9;-51,84011;2,178337;-5,55266
54;-51,88005;2,181156;-5,401676
54,1;-51,92106;2,184528;-5,252169
54,2;-51,96044;2,187772;-5,102224
54,3;-52,00144;2,190496;-4,952209
54,4;-52,04166;2,193385;-4,802117
54,5;-52,08152;2,196307;-4,652272
54,6;-52,12146;2,199226;-4,502713
54,7;-52,16158;2,202144;-4,353416
54,8;-52,20175;2,20506;-4,204313
54,9;-52,24113;2,207968;-4,05515
55;-52,25779;2,209446;-3,982912
55,1;-52,25703;2,209504;-3,983917
55,2;-52,25636;2,209528;-3,984186
55,3;-52,25578;2,209486;-3,984118
55,4;-52,25525;2,209434;-3,984054
55,5;-52,25483;2,209392;-3,98394
55,6;-52,25455;2,209354;-3,983765
55,7;-52,25428;2,209316;-3,983729
55,8;-52,25407;2,20929;-3,9837
55,9;-52,2539;2,209272;-3,983676
56;-52,25365;2,209255;-3,983881
56,1;-52,25317;2,209222;-3,984548
56,2;-52,25265;2,209232;-3,985035
56,3;-52,25234;2,209221;-3,985043
56,4;-52,25207;2,209199;-3,984995
56,5;-52,25182;2,209193;-3,984939
56,6;-52,25157;2,209188;-3,984885
56,7;-52,25129;2,20918;-3,984883
56,8;-52,25099;2,209178;-3,984924
56,9;-52,25073;2,209172;-3,984874
57;-52,25055;2,209174;-3,984721
57,1;-52,25032;2,209169;-3,984662
57,2;-52,25016;2,209162;-3,984469
57,3;-52,25041;2,209127;-3,983655
57,4;-52,2509;2,20916;-3,982562
57,5;-52,25115;2,209231;-3,981888
57,6;-52,25106;2,209209;-3,981861
57,7;-52,251;2,209207;-3,981846
57,8;-52,25093;2,209204;-3,981902
57,9;-52,25089;2,209205;-3,981963
58;-52,25077;2,2092;-3,982346
58,1;-52,25041;2,209162;-3,983134
58,2;-52,24964;2,209114;-3,984592
58,3;-52,24895;2,209205;-3,985217
58,4;-52,24846;2,209165;-3,985247
58,5;-52,24796;2,209167;-3,985314
58,6;-52,24696;2,209113;-3,986191
58,7;-52,24585;2,209097;-3,986631
58,8;-52,24505;2,209104;-3,986427
58,9;-52,24427;2,209111;-3,986227
59;-52,24351;2,209116;-3,986038
59,1;-52,24277;2,209116;-3,985858
59,2;-52,24204;2,209114;-3,985682
59,3;-52,24132;2,209111;-3,98551
59,4;-52,2406;2,209107;-3,985342
59,5;-52,24002;2,209063;-3,984885
59,6;-52,23994;2,209112;-3,983641
59,7;-52,2401;2,209146;-3,982257
59,8;-52,24024;2,209183;-3,981228
59,9;-52,2401;2,209164;-3,980912
60;-52,24011;2,209128;-3,980474
60,1;-52,24034;2,209131;-3,979806
60,2;-52,24042;2,209115;-3,979289
60,3;-52,24029;2,209121;-3,97906
60,4;-52,24012;2,209104;-3,979024
60,5;-52,23996;2,209099;-3,979069
60,6;-52,23985;2,2091;-3,979043
60,7;-52,23973;2,209099;-3,979014
60,8;-52,23959;2,2091;-3,979037
60,9;-52,23947;2,209098;-3,979233
61;-52,23939;2,209097;-3,979504
61,1;-52,23941;2,209116;-3,979542
61,2;-52,23939;2,209112;-3,979611
61,3;-52,23939;2,209109;-3,979608
61,4;-52,23938;2,209112;-3,979616
61,5;-52,23938;2,20911;-3,979617
61,6;-52,23938;2,209108;-3,97962
61,7;-52,23938;2,209106;-3,979621
61,8;-52,23938;2,209105;-3,979622
61,9;-52,23938;2,209105;-3,979623
62;-52,23938;2,209105;-3,979624
62,1;-52,23939;2,209103;-3,979625
62,2;-52,2394;2,209104;-3,979625
62,3;-52,2394;2,209104;-3,979626
62,4;-52,2394;2,209104;-3,979625
62,5;-52,2394;2,209104;-3,979626
62,6;-52,2394;2,209104;-3,979625
62,7;-52,2394;2,209104;-3,979626
62,8;-52,2394;2,209104;-3,979625
62,9;-52,2394;2,209104;-3,979626
63;-52,2394;2,209104;-3,979625
63,1;-52,2394;2,209104;-3,979626
63,2;-52,2394;2,209104;-3,979625
63,3;-52,2394;2,209104;-3,979626
63,4;-52,2394;2,209104;-3,979625
63,5;-52,2394;2,209104;-3,979626
63,6;-52,2394;2,209104;-3,979625
63,7;-52,2394;2,209104;-3,979626
63,8;-52,2394;2,209104;-3,979625
63,9;-52,2394;2,209104;-3,979626
64;-52,2394;2,209104;-3,979625
64,1;-52,2394;2,209104;-3,979626
64,2;-52,2394;2,209104;-3,979625
64,3;-52,23941;2,209104;-3,979628
64,4;-52,23945;2,209092;-3,979581
64,5;-52,23944;2,209105;-3,979632
64,6;-52,23948;2,209094;-3,979587
64,7;-52,23946;2,209105;-3,979635
64,8;-52,23948;2,209108;-3,979619
64,9;-52,23949;2,209109;-3,979626
65;-52,2395;2,209106;-3,979642
65,1;-52,23949;2,209109;-3,979645
65,2;-52,23949;2,209107;-3,979646
65,3;-52,23949;2,209106;-3,979647
65,4;-52,23953;2,20911;-3,979586
65,5;-52,23951;2,209106;-3,97965
65,6;-52,23951;2,209106;-3,979652
65,7;-52,23951;2,209105;-3,979652
65,8;-52,23951;2,209105;-3,979653
65,9;-52,2395;2,209104;-3,979701
66;-52,23951;2,209103;-3,979724
66,1;-52,23951;2,209104;-3,979724
66,2;-52,23954;2,20911;-3,979661
66,3;-52,23954;2,209091;-3,97968
66,4;-52,23954;2,209106;-3,979714
66,5;-52,23954;2,209102;-3,979724
66,6;-52,23957;2,20909;-3,979678
66,7;-52,23957;2,209108;-3,979714
66,8;-52,23958;2,209112;-3,979673
66,9;-52,23959;2,209111;-3,979668
67;-52,23956;2,209102;-3,979729
67,1;-52,2396;2,209109;-3,97967
67,2;-52,2396;2,209108;-3,979671
67,3;-52,2396;2,209087;-3,979684
67,4;-52,23962;2,20911;-3,979675
67,5;-52,23962;2,209108;-3,979675
67,6;-52,23961;2,209107;-3,979675
67,7;-52,23961;2,209106;-3,979677
67,8;-52,23962;2,209106;-3,979676
67,9;-52,23962;2,209105;-3,979676
68;-52,23962;2,209106;-3,979677
68,1;-52,23962;2,209106;-3,979679
68,2;-52,23963;2,209105;-3,97968
68,3;-52,23964;2,209105;-3,979682
68,4;-52,23964;2,209105;-3,979683
68,5;-52,23963;2,209104;-3,979733
68,6;-52,23962;2,209105;-3,979755
68,7;-52,23962;2,209105;-3,979755
68,8;-52,23962;2,209105;-3,979754
68,9;-52,23962;2,209104;-3,979754
69;-52,23962;2,209104;-3,979754
69,1;-52,23962;2,209104;-3,979753
69,2;-52,23962;2,209104;-3,979753
69,3;-52,23962;2,209104;-3,979754
69,4;-52,23962;2,209104;-3,979754
69,5;-52,23962;2,209104;-3,979755
69,6;-52,23962;2,209104;-3,979754
69,7;-52,23956;2,209097;-3,979887
69,8;-52,23944;2,2091;-3,980063
69,9;-52,2394;2,209096;-3,980076
70;-52,23936;2,209099;-3,98007
70,1;-52,23932;2,209097;-3,980062
70,2;-52,23928;2,209096;-3,980053
70,3;-52,23924;2,209095;-3,980046
70,4;-52,2392;2,209094;-3,980042
70,5;-52,23917;2,209094;-3,980029
70,6;-52,23913;2,209093;-3,980021
70,7;-52,23909;2,209092;-3,980012
70,8;-52,23905;2,209092;-3,980003
70,9;-52,23901;2,209091;-3,979995
71;-52,23898;2,209091;-3,979986
71,1;-52,23894;2,20909;-3,979977
71,2;-52,2389;2,20909;-3,979969
71,3;-52,23886;2,209089;-3,97996
71,4;-52,23882;2,209089;-3,979952
71,5;-52,23878;2,209089;-3,979943
71,6;-52,23875;2,209088;-3,979934
71,7;-52,23871;2,209088;-3,979925
71,8;-52,23867;2,209087;-3,979917
71,9;-52,23863;2,209087;-3,979908
72;-52,23859;2,209087;-3,979898
72,1;-52,23856;2,209086;-3,97989
72,2;-52,23852;2,209085;-3,979881
72,3;-52,23848;2,209086;-3,979873
72,4;-52,23844;2,209085;-3,979864
72,5;-52,2384;2,209084;-3,979855
72,6;-52,23837;2,209084;-3,979846
72,7;-52,23833;2,209084;-3,979837
72,8;-52,23829;2,209083;-3,979829
72,9;-52,23825;2,209083;-3,97982
73;-52,23821;2,209083;-3,979812
73,1;-52,23817;2,209082;-3,979803
73,2;-52,23814;2,209082;-3,979794
73,3;-52,2381;2,209082;-3,979785
73,4;-52,23806;2,209081;-3,979775
73,5;-52,23802;2,209081;-3,979768
73,6;-52,23798;2,20908;-3,979759
73,7;-52,23795;2,20908;-3,97975
73,8;-52,23791;2,20908;-3,979741
73,9;-52,2379;2,209067;-3,979685
74;-52,23775;2,209079;-3,979897
74,1;-52,23767;2,209083;-3,979953
74,2;-52,2376;2,209074;-3,979958
74,3;-52,23754;2,209073;-3,979945
74,4;-52,23748;2,209072;-3,979932
74,5;-52,23743;2,209071;-3,979919
74,6;-52,23737;2,20907;-3,979907
74,7;-52,23728;2,209064;-3,979952
74,8;-52,23667;2,208937;-3,981176
74,9;-52,23571;2,208985;-3,98271
75;-52,23498;2,209012;-3,983093
75,1;-52,23454;2,208982;-3,982972
75,2;-52,23409;2,208984;-3,982898
75,3;-52,23367;2,208972;-3,982767
75,4;-52,23323;2,20898;-3,982661
75,5;-52,23295;2,208965;-3,982329
75,6;-52,23296;2,209016;-3,981524
75,7;-52,23271;2,209011;-3,981266
75,8;-52,23238;2,209008;-3,981145
75,9;-52,23204;2,208997;-3,981065
76;-52,2317;2,208991;-3,980991
76,1;-52,23138;2,208984;-3,980918
76,2;-52,23106;2,208978;-3,980846
76,3;-52,23073;2,208973;-3,980774
76,4;-52,23042;2,208969;-3,980703
76,5;-52,23011;2,208965;-3,980634
76,6;-52,22982;2,208961;-3,980565
76,7;-52,22951;2,208958;-3,980495
76,8;-52,22921;2,208954;-3,980426
76,9;-52,2289;2,208951;-3,980356
77;-52,2286;2,208948;-3,980286
77,1;-52,22829;2,208945;-3,980216
77,2;-52,22799;2,208941;-3,980145
77,3;-52,22768;2,208938;-3,980076
77,4;-52,22738;2,208935;-3,980005
77,5;-52,22707;2,208932;-3,979936
77,6;-52,22676;2,208929;-3,979865
77,7;-52,22646;2,208926;-3,979795
77,8;-52,22615;2,208923;-3,979725
77,9;-52,22585;2,20892;-3,979654
78;-52,22554;2,208917;-3,979585
78,1;-52,22524;2,208914;-3,979514
78,2;-52,22493;2,208911;-3,979445
78,3;-52,22463;2,208908;-3,979374
78,4;-52,22432;2,208905;-3,979304
78,5;-52,22402;2,208902;-3,979233
78,6;-52,22371;2,208899;-3,979163
78,7;-52,22341;2,208896;-3,979093
78,8;-52,2231;2,208893;-3,979022
78,9;-52,2228;2,20889;-3,978952
79;-52,22249;2,208887;-3,978882
79,1;-52,22219;2,208884;-3,978812
79,2;-52,22188;2,208881;-3,978741
79,3;-52,22158;2,208878;-3,978671
79,4;-52,22127;2,208875;-3,978603
79,5;-52,22097;2,208872;-3,978533
79,6;-52,22067;2,208869;-3,978464
79,7;-52,22036;2,208866;-3,978394
79,8;-52,22006;2,208864;-3,978323
79,9;-52,21975;2,20886;-3,978253
80;-52,21945;2,208858;-3,978183
80,1;-52,21914;2,208854;-3,978113
80,2;-52,21884;2,208851;-3,978042
80,3;-52,21846;2,208864;-3,978089
80,4;-52,2178;2,208853;-3,978533
80,5;-52,21702;2,208845;-3,979022
80,6;-52,21587;2,208819;-3,979729
80,7;-52,21495;2,208978;-3,979595
80,8;-52,21396;2,208993;-3,979386
80,9;-52,21296;2,208997;-3,979141
81;-52,21198;2,208994;-3,978894
81,1;-52,21099;2,208985;-3,978652
81,2;-52,21002;2,208945;-3,978423
81,3;-52,20903;2,208942;-3,978179
81,4;-52,20807;2,208936;-3,977939
81,5;-52,20714;2,208926;-3,977708
81,6;-52,20623;2,208915;-3,977485
81,7;-52,20535;2,208903;-3,977271
81,8;-52,20447;2,208889;-3,977062
81,9;-52,20361;2,208875;-3,976856
82;-52,20276;2,20886;-3,976657
82,1;-52,20192;2,208846;-3,976462
82,2;-52,20109;2,208832;-3,976268
82,3;-52,20026;2,208816;-3,976075
82,4;-52,19945;2,208802;-3,975884
82,5;-52,19864;2,208787;-3,975696
82,6;-52,19783;2,208773;-3,97551
82,7;-52,19704;2,208758;-3,975325
82,8;-52,19625;2,208744;-3,975143
82,9;-52,19546;2,20873;-3,97496
83;-52,19467;2,208716;-3,974779
83,1;-52,19389;2,208702;-3,974597
83,2;-52,19312;2,208688;-3,974419
83,3;-52,19234;2,208675;-3,97424
83,4;-52,19157;2,208662;-3,974062
83,5;-52,19089;2,208656;-3,973897
83,6;-52,1902;2,208642;-3,973741
83,7;-52,18953;2,20863;-3,973587
83,8;-52,18885;2,208618;-3,973433
83,9;-52,18816;2,208607;-3,973277
84;-52,18748;2,208596;-3,973123
84,1;-52,18679;2,208586;-3,972966
84,2;-52,18612;2,208574;-3,972813
84,3;-52,18544;2,208562;-3,972656
84,4;-52,18475;2,208551;-3,972499
84,5;-52,18407;2,20854;-3,972342
84,6;-52,1834;2,208531;-3,972184
84,7;-52,18272;2,208522;-3,972027
84,8;-52,18204;2,208513;-3,97187
84,9;-52,18138;2,208505;-3,971714
85;-52,18072;2,208498;-3,97156
85,1;-52,18006;2,208492;-3,971407
85,2;-52,17939;2,208485;-3,971252
85,3;-52,17872;2,208479;-3,971098
85,4;-52,17805;2,208475;-3,970943
85,5;-52,17739;2,20847;-3,97079
85,6;-52,17672;2,208464;-3,970635
85,7;-52,17605;2,208459;-3,970483
85,8;-52,17538;2,208454;-3,97033
85,9;-52,17472;2,208448;-3,970176
86;-52,17405;2,208444;-3,970023
86,1;-52,17338;2,208447;-3,969872
86,2;-52,17271;2,208447;-3,969722
86,3;-52,17204;2,208444;-3,969568
86,4;-52,17137;2,208441;-3,969415
86,5;-52,1707;2,208439;-3,969263
86,6;-52,17002;2,208434;-3,969109
86,7;-52,16936;2,20843;-3,968957
86,8;-52,16869;2,208427;-3,968804
86,9;-52,16801;2,208424;-3,968651
87;-52,16734;2,20842;-3,968497
87,1;-52,16666;2,208417;-3,968342
87,2;-52,16598;2,208414;-3,968188
87,3;-52,16531;2,20841;-3,968032
87,4;-52,16462;2,208407;-3,967879
87,5;-52,16395;2,208404;-3,967726
87,6;-52,16327;2,208402;-3,967568
87,7;-52,16259;2,2084;-3,967414
87,8;-52,1619;2,2084;-3,96726
87,9;-52,16122;2,208401;-3,967105
88;-52,16053;2,208402;-3,96695
88,1;-52,15984;2,208404;-3,966795
88,2;-52,15915;2,208405;-3,966637
88,3;-52,15845;2,208407;-3,96648
88,4;-52,15776;2,208409;-3,966323
88,5;-52,15706;2,208411;-3,966165
88,6;-52,15637;2,208412;-3,966008
88,7;-52,15567;2,208418;-3,965852
88,8;-52,155;2,20832;-3,965651
88,9;-52,15431;2,208307;-3,965493
89;-52,15362;2,208297;-3,965343
89,1;-52,15291;2,208289;-3,965191
89,2;-52,15219;2,208282;-3,965032
89,3;-52,15147;2,208276;-3,964874
89,4;-52,15074;2,208271;-3,96471
89,5;-52,15001;2,208267;-3,964547
89,6;-52,14927;2,208263;-3,964382
89,7;-52,14852;2,20826;-3,964214
89,8;-52,14776;2,208256;-3,964045
89,9;-52,14701;2,208253;-3,963876
90;-52,14627;2,20825;-3,963706
90,1;-52,1455;2,208248;-3,963537
90,2;-52,14473;2,208245;-3,963364
90,3;-52,14396;2,208242;-3,963189
90,4;-52,14319;2,20824;-3,963014
90,5;-52,14242;2,208236;-3,962841
90,6;-52,14164;2,208235;-3,962665
90,7;-52,14085;2,208233;-3,962487
90,8;-52,14005;2,208231;-3,962308
90,9;-52,13926;2,208229;-3,96213
91;-52,13847;2,208226;-3,96195
91,1;-52,13767;2,208225;-3,961771
91,2;-52,13686;2,208223;-3,961589
91,3;-52,13605;2,208221;-3,961405
91,4;-52,13524;2,208219;-3,961223
91,5;-52,13443;2,208217;-3,961039
91,6;-52,13362;2,208216;-3,960856
91,7;-52,1328;2,208214;-3,960672
91,8;-52,13198;2,208212;-3,960486
91,9;-52,13116;2,208211;-3,960301
92;-52,13034;2,208209;-3,960114
92,1;-52,12951;2,208208;-3,959926
92,2;-52,12868;2,208206;-3,959738
92,3;-52,12785;2,208204;-3,95955
92,4;-52,127;2,208203;-3,959361
92,5;-52,12615;2,208201;-3,959168
92,6;-52,12531;2,2082;-3,958976
92,7;-52,12445;2,208198;-3,958783
92,8;-52,12361;2,208197;-3,958591
92,9;-52,12276;2,208195;-3,958398
93;-52,12191;2,208193;-3,958206
93,1;-52,12106;2,208192;-3,958014
93,2;-52,12019;2,208222;-3,957825
93,3;-52,11907;2,208213;-3,957573
93,4;-52,11798;2,208209;-3,957318
93,5;-52,11691;2,208206;-3,957068
93,6;-52,11586;2,208204;-3,956822
93,7;-52,11482;2,208202;-3,956579
93,8;-52,11379;2,208199;-3,95634
93,9;-52,11278;2,208197;-3,956106
94;-52,11177;2,208194;-3,95587
94,1;-52,11077;2,208192;-3,955639
94,2;-52,10979;2,20819;-3,95541
94,3;-52,10882;2,208188;-3,955183
94,4;-52,10786;2,208186;-3,954959
94,5;-52,1069;2,208186;-3,954736
94,6;-52,10596;2,208185;-3,954518
94,7;-52,10503;2,208184;-3,954298
94,8;-52,10412;2,208184;-3,954086
94,9;-52,10321;2,208185;-3,953872
95;-52,10231;2,208185;-3,953661
95,1;-52,10143;2,208185;-3,953454
95,2;-52,10055;2,208186;-3,953248
95,3;-52,09969;2,208188;-3,953044
95,4;-52,09883;2,208189;-3,952844
95,5;-52,09797;2,208192;-3,952643
95,6;-52,09713;2,208194;-3,952445
95,7;-52,0963;2,208197;-3,95225
95,8;-52,09546;2,2082;-3,952055
95,9;-52,09464;2,208203;-3,951861
96;-52,09382;2,208206;-3,951669
96,1;-52,093;2,20821;-3,951477
96,2;-52,09218;2,208214;-3,951285
96,3;-52,09137;2,208217;-3,951097
96,4;-52,09055;2,208221;-3,950905
96,5;-52,08973;2,208226;-3,950713
96,6;-52,08891;2,208231;-3,950523
96,7;-52,08809;2,208236;-3,950331
96,8;-52,08727;2,208242;-3,950141
96,9;-52,08644;2,208249;-3,949951
97;-52,0856;2,208256;-3,949759
97,1;-52,08475;2,208262;-3,949566
97,2;-52,08389;2,208268;-3,94937
97,3;-52,083;2,208272;-3,949171
97,4;-52,08211;2,208277;-3,948969
97,5;-52,0812;2,208281;-3,948763
97,6;-52,08028;2,208285;-3,948554
97,7;-52,07935;2,208289;-3,94834
97,8;-52,07839;2,208293;-3,948125
97,9;-52,07743;2,208296;-3,947906
98;-52,07645;2,2083;-3,947683
98,1;-52,07546;2,208304;-3,947458
98,2;-52,07446;2,208307;-3,947229
98,3;-52,07344;2,20831;-3,946998
98,4;-52,0724;2,208313;-3,946762
98,5;-52,07135;2,208316;-3,946523
98,6;-52,0703;2,208317;-3,946282
98,7;-52,06923;2,20832;-3,946038
98,8;-52,06815;2,208321;-3,945793
98,9;-52,06706;2,208323;-3,945544
99;-52,06595;2,208325;-3,945293
99,1;-52,06484;2,208326;-3,94504
99,2;-52,06371;2,208327;-3,944783
99,3;-52,06257;2,208328;-3,944525
99,4;-52,06142;2,208328;-3,944264
99,5;-52,06027;2,208328;-3,944002
99,6;-52,05941;2,208163;-3,943718
99,7;-52,05856;2,208168;-3,943511
99,8;-52,05774;2,208171;-3,943314
99,9;-52,05693;2,208174;-3,943124
100;-52,05611;2,208176;-3,942934
100,1;-52,0553;2,208178;-3,942745
100,2;-52,05448;2,208179;-3,942557
100,3;-52,05368;2,208181;-3,942372
100,4;-52,05288;2,208181;-3,942186
100,5;-52,05208;2,208183;-3,942002
100,6;-52,05128;2,208184;-3,941816
100,7;-52,05048;2,208185;-3,941633
100,8;-52,04968;2,208186;-3,941448
100,9;-52,04888;2,208187;-3,941263
101;-52,04808;2,208187;-3,94108
101,1;-52,04728;2,208188;-3,940894
101,2;-52,04647;2,208189;-3,940711
101,3;-52,04567;2,20819;-3,940527
101,4;-52,04487;2,20819;-3,940342
101,5;-52,04407;2,208191;-3,940158
101,6;-52,04327;2,208192;-3,939974
101,7;-52,04247;2,208193;-3,93979
101,8;-52,04167;2,208194;-3,939605
101,9;-52,04087;2,208194;-3,939421
102;-52,04008;2,208195;-3,939238
102,1;-52,0393;2,208196;-3,939059
102,2;-52,03852;2,208197;-3,938879
102,3;-52,03773;2,208197;-3,938699
102,4;-52,03695;2,208198;-3,938518
102,5;-52,03617;2,208199;-3,938339
102,6;-52,03539;2,2082;-3,938159
102,7;-52,03461;2,2082;-3,937979
102,8;-52,03382;2,208201;-3,937799
102,9;-52,03304;2,208202;-3,937619
103;-52,03226;2,208203;-3,937439
103,1;-52,03148;2,208203;-3,937259
103,2;-52,0307;2,208204;-3,937079
103,3;-52,02991;2,208205;-3,936899
103,4;-52,02913;2,208206;-3,936719
103,5;-52,02835;2,208206;-3,936539
103,6;-52,02757;2,208207;-3,936358
103,7;-52,02679;2,208208;-3,936179
103,8;-52,026;2,208209;-3,935998
103,9;-52,02522;2,20821;-3,935819
104;-52,02444;2,20821;-3,935639
104,1;-52,02366;2,208211;-3,935459
104,2;-52,02288;2,208212;-3,93528
104,3;-52,02209;2,208212;-3,935097
104,4;-52,02129;2,208213;-3,934913
104,5;-52,02048;2,208214;-3,934728
104,6;-52,01968;2,208215;-3,934544
104,7;-52,01888;2,208215;-3,93436
104,8;-52,01808;2,208216;-3,934176
104,9;-52,01728;2,208217;-3,933991
105;-52,01648;2,208217;-3,933807
105,1;-52,01568;2,208219;-3,933622
105,2;-52,01488;2,208219;-3,933438
105,3;-52,01408;2,20822;-3,933254
105,4;-52,01328;2,20822;-3,933069
105,5;-52,01247;2,208221;-3,932884
105,6;-52,01167;2,208222;-3,9327
105,7;-52,01087;2,208222;-3,932516
105,8;-52,01007;2,208223;-3,932332
105,9;-52,00927;2,208224;-3,932147
106;-52,00847;2,208225;-3,931963
106,1;-52,00767;2,208225;-3,931779
106,2;-52,00687;2,208226;-3,931595
106,3;-52,00607;2,208227;-3,93141
106,4;-52,00526;2,208228;-3,931226
106,5;-52,00446;2,208229;-3,931041
106,6;-52,00366;2,208229;-3,930857
106,7;-52,00286;2,20823;-3,930673
106,8;-52,00206;2,208231;-3,930488
106,9;-52,00126;2,208231;-3,930304
107;-52,00046;2,208232;-3,930119
107,1;-51,99966;2,208233;-3,929935
107,2;-51,99886;2,208234;-3,929751
107,3;-51,99805;2,208235;-3,929567
107,4;-51,99725;2,208236;-3,929382
107,5;-51,99645;2,208236;-3,929198
107,6;-51,99565;2,208237;-3,929013
107,7;-51,99485;2,208238;-3,928829
107,8;-51,99405;2,208238;-3,928645
107,9;-51,99325;2,208239;-3,92846
108;-51,99245;2,20824;-3,928276
108,1;-51,99165;2,20824;-3,928092
108,2;-51,99084;2,208241;-3,927907
108,3;-51,99004;2,208241;-3,927722
108,4;-51,98924;2,208243;-3,927539
108,5;-51,98844;2,208244;-3,927354
108,6;-51,98764;2,208244;-3,92717
108,7;-51,98684;2,208245;-3,926986
108,8;-51,98604;2,208246;-3,926801
108,9;-51,98524;2,208247;-3,926617
109;-51,98444;2,208247;-3,926432
109,1;-51,98363;2,208248;-3,926248
109,2;-51,98283;2,208249;-3,926064
109,3;-51,98203;2,20825;-3,925879
109,4;-51,98123;2,20825;-3,925694
109,5;-51,98043;2,208251;-3,925511
109,6;-51,97963;2,208252;-3,925326
109,7;-51,97883;2,208253;-3,925142
109,8;-51,97803;2,208253;-3,924958
109,9;-51,97723;2,208254;-3,924773
110;-51,97643;2,208255;-3,924589
110,1;-51,97562;2,208256;-3,924405
110,2;-51,97482;2,208256;-3,92422
110,3;-51,97402;2,208257;-3,924036
110,4;-51,97322;2,208258;-3,923851
110,5;-51,97242;2,208259;-3,923667
110,6;-51,97162;2,20826;-3,923483
110,7;-51,97082;2,20826;-3,923298
110,8;-51,97002;2,208261;-3,923114
110,9;-51,96922;2,208262;-3,92293
111;-51,96841;2,208262;-3,922745
111,1;-51,96761;2,208263;-3,922561
111,2;-51,96681;2,208264;-3,922377
111,3;-51,96601;2,208265;-3,922192
111,4;-51,96521;2,208266;-3,922008
111,5;-51,96441;2,208266;-3,921824
111,6;-51,96361;2,208267;-3,921639
111,7;-51,96281;2,208268;-3,921455
111,8;-51,96201;2,208268;-3,92127
111,9;-51,9612;2,208269;-3,921086
112;-51,9604;2,20827;-3,920902
112,1;-51,9596;2,208271;-3,920717
112,2;-51,9588;2,208271;-3,920532
112,3;-51,958;2,208272;-3,920349
112,4;-51,9572;2,208274;-3,920164
112,5;-51,9564;2,208274;-3,91998
112,6;-51,9556;2,208275;-3,919796
112,7;-51,9548;2,208276;-3,919611
112,8;-51,95399;2,208276;-3,919427
112,9;-51,95319;2,208277;-3,919243
113;-51,95239;2,208278;-3,919058
113,1;-51,95159;2,208279;-3,918875
113,2;-51,95079;2,208279;-3,918689
113,3;-51,94999;2,20828;-3,918505
113,4;-51,94919;2,208281;-3,918322
113,5;-51,94839;2,208282;-3,918137
113,6;-51,94759;2,208282;-3,917953
113,7;-51,94678;2,208283;-3,917768
113,8;-51,94598;2,208284;-3,917584
113,9;-51,94518;2,208285;-3,9174
114;-51,94439;2,208286;-3,917215
114,1;-51,9436;2,208286;-3,917034
114,2;-51,94282;2,208287;-3,916854
114,3;-51,94204;2,208287;-3,916674
114,4;-51,94125;2,208288;-3,916493
114,5;-51,94046;2,208289;-3,916313
114,6;-51,93968;2,20829;-3,916132
114,7;-51,93889;2,20829;-3,915951
114,8;-51,93811;2,208291;-3,91577
114,9;-51,93732;2,208292;-3,91559
