timestamp;x;y;z
0;-41,69;1,962155;-54,946
0,1;-41,69;1,950702;-54,946
0,2;-41,69;1,950701;-54,946
0,3;-41,69;1,950701;-54,946
0,4;-41,69;1,950701;-54,946
0,5;-41,69;1,950701;-54,946
0,6;-41,69;1,950701;-54,946
0,7;-41,69;1,950701;-54,946
0,8;-41,69;1,950701;-54,946
0,9;-41,69;1,950701;-54,946
1;-41,69;1,950701;-54,946
1,1;-41,69;1,950701;-54,946
1,2;-41,69;1,950701;-54,946
1,3;-41,69;1,950701;-54,946
1,4;-41,69;1,950701;-54,946
1,5;-41,69;1,950701;-54,946
1,6;-41,69;1,950701;-54,946
1,7;-41,69;1,950701;-54,946
1,8;-41,69;1,950701;-54,946
1,9;-41,69;1,950701;-54,946
2;-41,69;1,950701;-54,946
2,1;-41,69;1,950701;-54,946
2,2;-41,69;1,950701;-54,946
2,3;-41,69;1,950701;-54,946
2,4;-41,69;1,950701;-54,946
2,5;-41,69;1,950701;-54,946
2,6;-41,69;1,950701;-54,946
2,7;-41,69;1,950701;-54,946
2,8;-41,69;1,950701;-54,946
2,9;-41,69;1,950701;-54,946
3;-41,69;1,950701;-54,946
3,1;-41,69;1,950701;-54,946
3,2;-41,69;1,950701;-54,946
3,3;-41,69;1,950701;-54,946
3,4;-41,69;1,950701;-54,946
3,5;-41,69;1,950701;-54,946
3,6;-41,69;1,950701;-54,946
3,7;-41,69;1,950701;-54,946
3,8;-41,69;1,950701;-54,946
3,9;-41,69;1,950701;-54,946
4;-41,69;1,950701;-54,946
4,1;-41,69;1,950701;-54,946
4,2;-41,69;1,950701;-54,946
4,3;-41,69;1,950701;-54,946
4,4;-41,69;1,950701;-54,946
4,5;-41,69;1,950701;-54,946
4,6;-41,69;1,950701;-54,946
4,7;-41,69;1,950701;-54,946
4,8;-41,69;1,950701;-54,946
4,9;-41,69;1,950701;-54,946
5;-41,69;1,950701;-54,946
5,1;-41,69;1,950701;-54,946
5,2;-41,69;1,950701;-54,946
5,3;-41,69;1,950701;-54,946
5,4;-41,69;1,950701;-54,946
5,5;-41,69;1,950701;-54,946
5,6;-41,69;1,950701;-54,946
5,7;-41,69;1,950701;-54,946
5,8;-41,69;1,950701;-54,946
5,9;-41,69;1,950701;-54,946
6;-41,69;1,950701;-54,946
6,1;-41,69;1,950701;-54,946
6,2;-41,69;1,950701;-54,946
6,3;-41,69;1,950701;-54,946
6,4;-41,69;1,950701;-54,946
6,5;-41,69;1,950701;-54,946
6,6;-41,69;1,950701;-54,946
6,7;-41,69;1,950701;-54,946
6,8;-41,69;1,950701;-54,946
6,9;-41,69;1,950701;-54,946
7;-41,69;1,950701;-54,946
7,1;-41,69;1,950701;-54,946
7,2;-41,69;1,950701;-54,946
7,3;-41,69;1,950701;-54,946
7,4;-41,69;1,950701;-54,946
7,5;-41,69;1,950701;-54,946
7,6;-41,69;1,950701;-54,946
7,7;-41,69;1,950701;-54,946
7,8;-41,69;1,950701;-54,946
7,9;-41,69;1,950701;-54,946
8;-41,69;1,950701;-54,946
8,1;-41,69;1,950701;-54,946
8,2;-41,69;1,950701;-54,946
8,3;-41,69;1,950701;-54,946
8,4;-41,69;1,950701;-54,946
8,5;-41,69;1,950701;-54,946
8,6;-41,69;1,950701;-54,946
8,7;-41,69;1,950701;-54,946
8,8;-41,69;1,950701;-54,946
8,9;-41,69;1,950701;-54,946
9;-41,69;1,950701;-54,946
9,1;-41,69;1,950701;-54,946
9,2;-41,69;1,950701;-54,946
9,3;-41,69;1,950701;-54,946
9,4;-41,69;1,950701;-54,946
9,5;-41,69;1,950701;-54,946
9,6;-41,69;1,950701;-54,946
9,7;-41,69;1,950701;-54,946
9,8;-41,69;1,950701;-54,946
9,9;-41,69;1,950701;-54,946
10;-41,69;1,950701;-54,946
10,1;-41,69;1,950701;-54,946
10,2;-41,69;1,950701;-54,946
10,3;-41,69;1,950701;-54,946
10,4;-41,69;1,950701;-54,946
10,5;-41,69;1,950701;-54,946
10,6;-41,69;1,950701;-54,946
10,7;-41,69;1,950701;-54,946
10,8;-41,69;1,950701;-54,946
10,9;-41,69;1,950701;-54,946
11;-41,69;1,950701;-54,946
11,1;-41,69;1,950701;-54,946
11,2;-41,69;1,950701;-54,946
11,3;-41,69;1,950701;-54,946
11,4;-41,69;1,950701;-54,946
11,5;-41,69;1,950701;-54,946
11,6;-41,69;1,950701;-54,946
11,7;-41,69;1,950701;-54,946
11,8;-41,69;1,950701;-54,946
11,9;-41,69;1,950701;-54,946
12;-41,69;1,950701;-54,946
12,1;-41,69;1,950701;-54,946
12,2;-41,69;1,950701;-54,946
12,3;-41,69;1,950701;-54,946
12,4;-41,69;1,950701;-54,946
12,5;-41,69;1,950701;-54,946
12,6;-41,69;1,950701;-54,946
12,7;-41,69;1,950701;-54,946
12,8;-41,69;1,950701;-54,946
12,9;-41,69;1,950701;-54,946
13;-41,69;1,950701;-54,946
13,1;-41,69;1,950701;-54,946
13,2;-41,69;1,950701;-54,946
13,3;-41,69;1,950701;-54,946
13,4;-41,69;1,950701;-54,946
13,5;-41,69;1,950701;-54,946
13,6;-41,69;1,950701;-54,946
13,7;-41,69;1,950701;-54,946
13,8;-41,69;1,950701;-54,946
13,9;-41,69;1,950701;-54,946
14;-41,69;1,950701;-54,946
14,1;-41,69;1,950701;-54,946
14,2;-41,69;1,950701;-54,946
14,3;-41,69;1,950701;-54,946
14,4;-41,69;1,950701;-54,946
14,5;-41,69;1,950701;-54,946
14,6;-41,69;1,950701;-54,946
14,7;-41,69;1,950701;-54,946
14,8;-41,69;1,950701;-54,946
14,9;-41,69;1,950701;-54,946
15;-41,69;1,950701;-54,946
15,1;-41,69;1,950701;-54,946
15,2;-41,69;1,950701;-54,946
15,3;-41,69;1,950701;-54,946
15,4;-41,69;1,950701;-54,946
15,5;-41,69;1,950701;-54,946
15,6;-41,69;1,950701;-54,946
15,7;-41,69;1,950701;-54,946
15,8;-41,69;1,950701;-54,946
15,9;-41,69;1,950701;-54,946
16;-41,69;1,950701;-54,946
16,1;-41,69;1,950701;-54,946
16,2;-41,69;1,950701;-54,946
16,3;-41,69;1,950701;-54,946
16,4;-41,69;1,950701;-54,946
16,5;-41,69;1,950701;-54,946
16,6;-41,69;1,950701;-54,946
16,7;-41,69;1,950701;-54,946
16,8;-41,69;1,950701;-54,946
16,9;-41,69;1,950701;-54,946
17;-41,69;1,950701;-54,946
17,1;-41,69;1,950701;-54,946
17,2;-41,69;1,950701;-54,946
17,3;-41,69;1,950701;-54,946
17,4;-41,69;1,950701;-54,946
17,5;-41,69;1,950701;-54,946
17,6;-41,69;1,950701;-54,946
17,7;-41,69;1,950701;-54,946
17,8;-41,69;1,950701;-54,946
17,9;-41,69;1,950701;-54,946
18;-41,69;1,950701;-54,946
18,1;-41,69;1,950701;-54,946
18,2;-41,69;1,950701;-54,946
18,3;-41,69;1,950701;-54,946
18,4;-41,69;1,950701;-54,946
18,5;-41,69;1,950701;-54,946
18,6;-41,69;1,950701;-54,946
18,7;-41,69;1,950701;-54,946
18,8;-41,69;1,950701;-54,946
18,9;-41,69;1,950701;-54,946
19;-41,69;1,950701;-54,946
19,1;-41,69;1,950701;-54,946
19,2;-41,69;1,950701;-54,946
19,3;-41,69;1,950701;-54,946
19,4;-41,69;1,950701;-54,946
19,5;-41,69;1,950701;-54,946
19,6;-41,69;1,950701;-54,946
19,7;-41,69;1,950701;-54,946
19,8;-41,69;1,950701;-54,946
19,9;-41,69;1,950701;-54,946
20;-41,69;1,950701;-54,946
20,1;-41,69;1,950701;-54,946
20,2;-41,69;1,950701;-54,946
20,3;-41,69;1,950701;-54,946
20,4;-41,69;1,950701;-54,946
20,5;-41,69;1,950701;-54,946
20,6;-41,69;1,950701;-54,946
20,7;-41,69;1,950701;-54,946
20,8;-41,69;1,950701;-54,946
20,9;-41,69;1,950701;-54,946
21;-41,69;1,950701;-54,946
21,1;-41,69;1,950701;-54,946
21,2;-41,69;1,950701;-54,946
21,3;-41,69;1,950701;-54,946
21,4;-41,69;1,950701;-54,946
21,5;-41,69;1,950701;-54,946
21,6;-41,69;1,950701;-54,946
21,7;-41,69;1,950701;-54,946
21,8;-41,69;1,950701;-54,946
21,9;-41,69;1,950701;-54,946
22;-41,69;1,950701;-54,946
22,1;-41,69;1,950701;-54,946
22,2;-41,69;1,950701;-54,946
22,3;-41,69;1,950701;-54,946
22,4;-41,69;1,950701;-54,946
22,5;-41,69;1,950701;-54,946
22,6;-41,69;1,950701;-54,946
22,7;-41,69;1,950701;-54,946
22,8;-41,69;1,950701;-54,946
22,9;-41,69;1,950701;-54,946
23;-41,69;1,950701;-54,946
23,1;-41,69;1,950701;-54,946
23,2;-41,69;1,950701;-54,946
23,3;-41,69;1,950701;-54,946
23,4;-41,69;1,950701;-54,946
23,5;-41,69;1,950701;-54,946
23,6;-41,69;1,950701;-54,946
23,7;-41,69;1,950701;-54,946
23,8;-41,69;1,950701;-54,946
23,9;-41,69;1,950701;-54,946
24;-41,69;1,950701;-54,946
24,1;-41,69;1,950701;-54,946
24,2;-41,69;1,950701;-54,946
24,3;-41,69;1,950701;-54,946
24,4;-41,69;1,950701;-54,946
24,5;-41,69;1,950701;-54,946
24,6;-41,69;1,950701;-54,946
24,7;-41,69;1,950701;-54,946
24,8;-41,69;1,950701;-54,946
24,9;-41,69;1,950701;-54,946
25;-41,69;1,950701;-54,946
25,1;-41,69;1,950701;-54,946
25,2;-41,68978;1,950701;-54,94225
25,3;-41,68904;1,950701;-54,91325
25,4;-41,68812;1,950701;-54,86032
25,5;-41,68705;1,950701;-54,78786
25,6;-41,68585;1,950701;-54,69944
25,7;-41,68452;1,950701;-54,59797
25,8;-41,68306;1,950701;-54,48584
25,9;-41,6815;1,950701;-54,365
26;-41,68028;1,950701;-54,23705
26,1;-41,68401;1,950701;-54,10352
26,2;-41,69422;1,950701;-53,96571
26,3;-41,70968;1,950701;-53,8245
26,4;-41,72791;1,950701;-53,68029
26,5;-41,74844;1,950701;-53,53362
26,6;-41,77017;1,950701;-53,38483
26,7;-41,79476;1,950701;-53,23462
26,8;-41,8255;1,950701;-53,08417
26,9;-41,86567;1,950701;-52,93487
27;-41,91522;1,950701;-52,78728
27,1;-41,9715;1,950701;-52,64067
27,2;-42,03162;1,950701;-52,49404
27,3;-42,09533;1,950701;-52,34747
27,4;-42,16104;1,950701;-52,20045
27,5;-42,22747;1,950701;-52,05262
27,6;-42,29398;1,950701;-51,90388
27,7;-42,36155;1,950701;-51,75484
27,8;-42,4297;1,950701;-51,60539
27,9;-42,49765;1,950701;-51,45529
28;-42,56438;1,950701;-51,30422
28,1;-42,63029;1,950701;-51,15248
28,2;-42,69547;1,951635;-51,00162
28,3;-42,75799;1,953158;-50,85096
28,4;-42,81692;1,954935;-50,70018
28,5;-42,87303;1,956456;-50,5498
28,6;-42,9275;1,957966;-50,40038
28,7;-42,97908;1,959451;-50,25126
28,8;-43,02392;1,960931;-50,10138
28,9;-43,05982;1,962399;-49,95056
29;-43,08521;1,963879;-49,79916
29,1;-43,10302;1,965365;-49,64789
29,2;-43,11674;1,966842;-49,49708
29,3;-43,12756;1,968316;-49,34679
29,4;-43,13568;1,969804;-49,19699
29,5;-43,13953;1,971276;-49,04755
29,6;-43,14016;1,972734;-48,89851
29,7;-43,13935;1,974188;-48,7498
29,8;-43,13789;1,975639;-48,60138
29,9;-43,13616;1,977088;-48,4532
30;-43,13431;1,978534;-48,30521
30,1;-43,1324;1,979979;-48,15738
30,2;-43,13216;1,981366;-48,00938
30,3;-43,13287;1,982814;-47,8612
30,4;-43,13396;1,98429;-47,71258
30,5;-43,1352;1,985756;-47,564
30,6;-43,13763;1,987175;-47,41561
30,7;-43,14325;1,988598;-47,26753
30,8;-43,15248;1,990021;-47,11981
30,9;-43,16555;1,99144;-46,9725
31;-43,18237;1,992886;-46,8257
31,1;-43,20394;1,994342;-46,67968
31,2;-43,23273;1,995795;-46,53511
31,3;-43,26955;1,997225;-46,39238
31,4;-43,31288;1,99865;-46,25122
31,5;-43,36245;2,000064;-46,11168
31,6;-43,41769;2,00147;-45,97364
31,7;-43,47822;2,002864;-45,83704
31,8;-43,54319;2,004257;-45,70152
31,9;-43,61215;2,005646;-45,56691
32;-43,6835;2,007007;-45,43243
32,1;-43,7562;2,008368;-45,2977
32,2;-43,82814;2,009738;-45,1617
32,3;-43,89954;2,01112;-45,02477
32,4;-43,97081;2,012508;-44,88727
32,5;-44,04184;2,01391;-44,74927
32,6;-44,10891;2,015316;-44,60935
32,7;-44,16729;2,01678;-44,46628
32,8;-44,21272;2,01824;-44,31976
32,9;-44,24371;2,019767;-44,17106
33;-44,26228;2,021279;-44,0215
33,1;-44,27065;2,02276;-43,87194
33,2;-44,27322;2,024225;-43,72272
33,3;-44,27322;2,025683;-43,57387
33,4;-44,27208;2,027137;-43,42533
33,5;-44,27089;2,028563;-43,27701
33,6;-44,26917;2,029987;-43,12889
33,7;-44,26731;2,031404;-42,98092
33,8;-44,26535;2,032825;-42,83307
33,9;-44,26336;2,034243;-42,68532
34;-44,26133;2,035661;-42,53764
34,1;-44,25937;2,037079;-42,39002
34,2;-44,25748;2,038494;-42,24244
34,3;-44,25556;2,039897;-42,09488
34,4;-44,25364;2,041299;-41,94735
34,5;-44,2526;2,04269;-41,79983
34,6;-44,25611;2,044082;-41,65252
34,7;-44,26623;2,045482;-41,50576
34,8;-44,28251;2,046897;-41,3597
34,9;-44,30266;2,048316;-41,21408
35;-44,32547;2,049746;-41,06872
35,1;-44,35151;2,051192;-40,92381
35,2;-44,38298;2,052644;-40,77993
35,3;-44,42121;2,054006;-40,63745
35,4;-44,46511;2,054062;-40,49466
35,5;-44,51271;2,054063;-40,35219
35,6;-44,56333;2,053826;-40,20843
35,7;-44,61467;2,05369;-40,06279
35,8;-44,66693;2,05369;-39,91555
35,9;-44,72046;2,053691;-39,76712
36;-44,77566;2,053773;-39,61816
36,1;-44,83228;2,053828;-39,46823
36,2;-44,88852;2,053744;-39,31702
36,3;-44,94434;2,053727;-39,16483
36,4;-45,0006;2,053722;-39,01219
36,5;-45,05721;2,053706;-38,8592
36,6;-45,11372;2,053772;-38,70646
36,7;-45,17091;2,053791;-38,55353
36,8;-45,22735;2,053743;-38,39986
36,9;-45,28279;2,053691;-38,24538
37;-45,33854;2,053693;-38,09085
37,1;-45,39383;2,053795;-37,9359
37,2;-45,44602;2,053791;-37,77984
37,3;-45,49195;2,053736;-37,62184
37,4;-45,53312;2,053727;-37,46289
37,5;-45,57188;2,053717;-37,30365
37,6;-45,60991;2,053841;-37,14432
37,7;-45,64663;2,0537;-36,98484
37,8;-45,67766;2,05371;-36,82463
37,9;-45,69743;2,053709;-36,66355
38;-45,70685;2,0537;-36,50223
38,1;-45,71095;2,053695;-36,34104
38,2;-45,71255;2,053693;-36,18003
38,3;-45,713;2,053692;-36,01917
38,4;-45,7129;2,053692;-35,85845
38,5;-45,71256;2,053692;-35,69784
38,6;-45,71211;2,053694;-35,53732
38,7;-45,71157;2,05372;-35,37695
38,8;-45,71074;2,0537;-35,21662
38,9;-45,71;2,053717;-35,05647
39;-45,70927;2,053732;-34,89616
39,1;-45,70932;2,053692;-34,7359
39,2;-45,7093;2,05369;-34,57559
39,3;-45,71099;2,053683;-34,41536
39,4;-45,71817;2,053681;-34,25546
39,5;-45,73164;2,053685;-34,09611
39,6;-45,74959;2,053708;-33,93687
39,7;-45,76981;2,053772;-33,77774
39,8;-45,79078;2,053645;-33,61831
39,9;-45,81169;2,053732;-33,45907
40;-45,83203;2,053687;-33,29944
40,1;-45,85489;2,053683;-33,14028
40,2;-45,88249;2,054298;-32,98236
40,3;-45,91546;2,055794;-32,82727
40,4;-45,95201;2,05719;-32,67336
40,5;-45,99243;2,059682;-32,52229
40,6;-46,03603;2,06218;-32,37238
40,7;-46,08119;2,064671;-32,22303
40,8;-46,12711;2,067158;-32,07397
40,9;-46,17414;2,069614;-31,92515
41;-46,22252;2,071943;-31,77639
41,1;-46,27308;2,07434;-31,62826
41,2;-46,32665;2,076408;-31,48066
41,3;-46,3819;2,078593;-31,33358
41,4;-46,43889;2,080775;-31,18689
41,5;-46,49671;2,082952;-31,04022
41,6;-46,55494;2,085131;-30,89344
41,7;-46,61334;2,087311;-30,74651
41,8;-46,67174;2,089522;-30,59965
41,9;-46,73055;2,091694;-30,4527
42;-46,79015;2,093869;-30,30597
42,1;-46,84955;2,09604;-30,15895
42,2;-46,90897;2,09823;-30,01179
42,3;-46,96824;2,100393;-29,86444
42,4;-47,02642;2,102581;-29,71667
42,5;-47,08489;2,104774;-29,56896
42,6;-47,14346;2,106966;-29,42126
42,7;-47,20195;2,10916;-29,27348
42,8;-47,25916;2,111366;-29,12522
42,9;-47,31413;2,113584;-28,9762
43;-47,36787;2,115811;-28,82688
43,1;-47,42044;2,118086;-28,67767
43,2;-47,47288;2,119601;-28,52776
43,3;-47,52571;2,120327;-28,37722
43,4;-47,57722;2,121311;-28,22634
43,5;-47,62464;2,122338;-28,07413
43,6;-47,66387;2,123557;-27,92006
43,7;-47,69222;2,124874;-27,76433
43,8;-47,70892;2,126259;-27,60776
43,9;-47,71686;2,127696;-27,45109
44;-47,72061;2,129267;-27,29458
44,1;-47,72354;2,130636;-27,13798
44,2;-47,72503;2,132177;-26,98132
44,3;-47,72446;2,133617;-26,8247
44,4;-47,72417;2,135112;-26,66828
44,5;-47,72416;2,136603;-26,51203
44,6;-47,7247;2,138086;-26,35592
44,7;-47,727;2,139561;-26,19993
44,8;-47,73059;2,141026;-26,04405
44,9;-47,73578;2,142478;-25,88828
45;-47,74335;2,143957;-25,73266
45,1;-47,75468;2,145185;-25,57689
45,2;-47,76774;2,14623;-25,42058
45,3;-47,78177;2,146741;-25,26369
45,4;-47,79679;2,147241;-25,10628
45,5;-47,81234;2,147488;-24,9486
45,6;-47,82612;2,147785;-24,79059
45,7;-47,84108;2,147984;-24,63252
45,8;-47,85852;2,148271;-24,47453
45,9;-47,87833;2,148456;-24,31663
46;-47,89877;2,148683;-24,15856
46,1;-47,91964;2,148907;-24,0004
46,2;-47,94107;2,149127;-23,84221
46,3;-47,96372;2,149339;-23,68408
46,4;-47,9878;2,149543;-23,52605
46,5;-48,01278;2,149741;-23,36805
46,6;-48,03817;2,149935;-23,21
46,7;-48,06375;2,150128;-23,05189
46,8;-48,08929;2,15048;-22,89359
46,9;-48,11618;2,150422;-22,73522
47;-48,14212;2,150543;-22,57643
47,1;-48,16673;2,150609;-22,41723
47,2;-48,19175;2,150682;-22,25823
47,3;-48,21708;2,15079;-22,09947
47,4;-48,24299;2,150899;-21,9409
47,5;-48,26898;2,151074;-21,78239
47,6;-48,29455;2,151251;-21,6238
47,7;-48,3201;2,151354;-21,46513
47,8;-48,34447;2,15151;-21,30637
47,9;-48,37045;2,151677;-21,14792
48;-48,39954;2,151833;-20,99001
48,1;-48,43259;2,151976;-20,83285
48,2;-48,46975;2,152105;-20,67649
48,3;-48,5103;2,152222;-20,52076
48,4;-48,55304;2,152332;-20,36532
48,5;-48,59684;2,152437;-20,2099
48,6;-48,64119;2,15254;-20,05435
48,7;-48,68581;2,152642;-19,89866
48,8;-48,73059;2,152743;-19,74282
48,9;-48,77545;2,152844;-19,58684
49;-48,82037;2,152946;-19,43075
49,1;-48,86533;2,153048;-19,27456
49,2;-48,90942;2,153591;-19,11914
49,3;-48,95585;2,153321;-18,96344
49,4;-49,00129;2,153165;-18,80767
49,5;-49,04612;2,153316;-18,65222
49,6;-49,09007;2,153417;-18,49614
49,7;-49,13416;2,15357;-18,34051
49,8;-49,17823;2,153686;-18,18472
49,9;-49,22213;2,153814;-18,02906
50;-49,26634;2,153992;-17,87341
50,1;-49,31257;2,154092;-17,71801
50,2;-49,36116;2,154204;-17,5631
50,3;-49,41082;2,154322;-17,40826
50,4;-49,46176;2,154463;-17,25353
50,5;-49,51217;2,154656;-17,09842
50,6;-49,56159;2,154693;-16,94272
50,7;-49,60996;2,154798;-16,78658
50,8;-49,65903;2,154923;-16,6307
50,9;-49,70852;2,155048;-16,47493
51;-49,75819;2,155171;-16,31919
51,1;-49,80894;2,155374;-16,16429
51,2;-49,85887;2,155636;-16,0093
51,3;-49,90519;2,155799;-15,85313
51,4;-49,94407;2,155793;-15,69476
51,5;-49,97466;2,155828;-15,53539
51,6;-49,99807;2,155817;-15,37508
51,7;-50,01447;2,155817;-15,21485
51,8;-50,02173;2,155721;-15,05421
51,9;-50,02488;2,155694;-14,89373
52;-50,02602;2,155692;-14,73335
52,1;-50,02626;2,155695;-14,57303
52,2;-50,026;2,155774;-14,4129
52,3;-50,02528;2,155702;-14,25264
52,4;-50,02455;2,155712;-14,09259
52,5;-50,02406;2,155727;-13,93239
52,6;-50,0263;2,155746;-13,77236
52,7;-50,03156;2,155754;-13,61241
52,8;-50,03325;2,165144;-13,58966
52,9;-50,03752;2,155787;-13,54512
53;-50,04215;2,155849;-13,4916
53,1;-50,04969;2,155827;-13,41878
53,2;-50,0602;2,155933;-13,33052
53,3;-50,0733;2,156232;-13,22956
53,4;-50,08805;2,156593;-13,11869
53,5;-50,10596;2,156773;-12,99926
53,6;-50,12408;2,157027;-12,8725
53,7;-50,14222;2,157132;-12,73949
53,8;-50,16167;2,157152;-12,60151
53,9;-50,18196;2,157498;-12,45981
54;-50,20245;2,157725;-12,31483
54,1;-50,22695;2,158198;-12,1686
54,2;-50,25388;2,158535;-12,02076
54,3;-50,28214;2,158985;-11,87187
54,4;-50,31039;2,159485;-11,72171
54,5;-50,33934;2,159979;-11,57072
54,6;-50,36912;2,160479;-11,41874
54,7;-50,39938;2,16098;-11,2659
54,8;-50,43042;2,161483;-11,11242
54,9;-50,46329;2,161987;-10,95867
55;-50,49817;2,162493;-10,80478
55,1;-50,5339;2,163156;-10,65116
55,2;-50,57021;2,163474;-10,49667
55,3;-50,60715;2,163814;-10,34242
55,4;-50,64734;2,164248;-10,18924
55,5;-50,69558;2,16476;-10,00506
55,6;-50,72705;2,165211;-9,882304
55,7;-50,76559;2,165686;-9,727949
55,8;-50,80438;2,166201;-9,573608
55,9;-50,84347;2,166718;-9,419
56;-50,88263;2,167235;-9,264124
56,1;-50,92188;2,167753;-9,109035
56,2;-50,96115;2,168272;-8,953761
56,3;-51,00047;2,168792;-8,798338
56,4;-51,03991;2,170179;-8,644447
56,5;-51,08096;2,168388;-8,486783
56,6;-51,1217;2,167541;-8,33013
56,7;-51,162;2,16659;-8,172185
56,8;-51,20331;2,165911;-8,014259
56,9;-51,2455;2,164886;-7,85558
57;-51,28377;2,165238;-7,697379
57,1;-51,3221;2,165114;-7,539001
57,2;-51,35608;2,165895;-7,381377
57,3;-51,38645;2,166649;-7,223678
57,4;-51,41478;2,167379;-7,065844
57,5;-51,44196;2,168096;-6,908028
57,6;-51,46825;2,168802;-6,750246
57,7;-51,49405;2,169502;-6,592546
57,8;-51,51959;2,1702;-6,434947
57,9;-51,54502;2,170895;-6,277442
58;-51,5704;2,17159;-6,120024
58,1;-51,59573;2,172284;-5,962681
58,2;-51,62105;2,172977;-5,805399
58,3;-51,64567;2,174459;-5,649452
58,4;-51,66905;2,176335;-5,494626
58,5;-51,69227;2,179409;-5,342184
58,6;-51,71584;2,182482;-5,190673
58,7;-51,73987;2,185418;-5,039416
58,8;-51,76448;2,188388;-4,88812
58,9;-51,78806;2,191598;-4,737051
59;-51,81292;2,194912;-4,587078
59,1;-51,83909;2,198066;-4,437375
59,2;-51,86611;2,201792;-4,289126
59,3;-51,8926;2,204103;-4,139115
59,4;-51,91697;2,206901;-3,989638
59,5;-51,92785;2,20812;-3,907117
59,6;-51,92733;2,208689;-3,908015
59,7;-51,92675;2,208667;-3,907935
59,8;-51,92609;2,208611;-3,907855
59,9;-51,92548;2,208554;-3,907786
60;-51,92497;2,208504;-3,90773
60,1;-51,92455;2,208463;-3,907683
60,2;-51,92434;2,208194;-3,907438
60,3;-51,92467;2,208153;-3,906107
60,4;-51,92533;2,208167;-3,906287
60,5;-51,92534;2,208256;-3,908183
60,6;-51,92531;2,208301;-3,908847
60,7;-51,92528;2,208276;-3,90905
60,8;-51,9253;2,208265;-3,909379
60,9;-51,92533;2,208246;-3,90947
61;-51,92535;2,208251;-3,909475
61,1;-51,92539;2,208253;-3,909482
61,2;-51,92543;2,208254;-3,90949
61,3;-51,92546;2,208256;-3,909497
61,4;-51,9255;2,208256;-3,909504
61,5;-51,92554;2,208256;-3,909513
61,6;-51,92556;2,208256;-3,909519
61,7;-51,92558;2,208255;-3,909525
61,8;-51,92561;2,208255;-3,90953
61,9;-51,92562;2,208256;-3,909534
62;-51,92565;2,208256;-3,909541
62,1;-51,92567;2,208256;-3,909544
62,2;-51,92569;2,208256;-3,909551
62,3;-51,92582;2,208213;-3,910414
62,4;-51,92658;2,208273;-3,913367
62,5;-51,92735;2,20822;-3,913535
62,6;-51,92863;2,208352;-3,910782
62,7;-51,93062;2,208389;-3,907901
62,8;-51,93284;2,208237;-3,906382
62,9;-51,93509;2,208243;-3,905643
63;-51,93662;2,208399;-3,905614
63,1;-51,93764;2,208403;-3,905856
63,2;-51,93864;2,208399;-3,906093
63,3;-51,93937;2,208337;-3,90709
63,4;-51,93972;2,208294;-3,908748
63,5;-51,94006;2,208285;-3,910088
63,6;-51,94072;2,208304;-3,910381
63,7;-51,94134;2,208299;-3,910724
63,8;-51,94198;2,208306;-3,910968
63,9;-51,94266;2,208309;-3,911122
64;-51,9433;2,208308;-3,911343
64,1;-51,94397;2,20831;-3,911488
64,2;-51,94464;2,208312;-3,91164
64,3;-51,9453;2,208315;-3,911785
64,4;-51,94596;2,208318;-3,911935
64,5;-51,94647;2,208295;-3,912671
64,6;-51,94683;2,20823;-3,915184
64,7;-51,94747;2,208216;-3,918158
64,8;-51,94795;2,208186;-3,917626
64,9;-51,94798;2,208388;-3,912601
65;-51,94668;2,20806;-3,913901
65,1;-51,945;2,208223;-3,917173
65,2;-51,94419;2,208294;-3,917149
65,3;-51,94342;2,208292;-3,91698
65,4;-51,94263;2,208291;-3,916805
65,5;-51,94184;2,20829;-3,916626
65,6;-51,94104;2,20829;-3,916443
65,7;-51,94025;2,20829;-3,916262
65,8;-51,93945;2,208291;-3,916077
65,9;-51,93864;2,208291;-3,915893
66;-51,93784;2,208292;-3,915709
66,1;-51,93704;2,208293;-3,915524
66,2;-51,93624;2,208293;-3,91534
66,3;-51,93544;2,208293;-3,915155
66,4;-51,93465;2,208294;-3,914973
66,5;-51,93386;2,208295;-3,914794
66,6;-51,93308;2,208295;-3,914614
66,7;-51,9323;2,208296;-3,914434
66,8;-51,93152;2,208297;-3,914254
66,9;-51,93074;2,208297;-3,914074
67;-51,92995;2,208299;-3,913894
67,1;-51,92917;2,208299;-3,913714
67,2;-51,92839;2,2083;-3,913534
67,3;-51,9276;2,208301;-3,913353
67,4;-51,92681;2,208302;-3,91317
67,5;-51,92601;2,208302;-3,912987
67,6;-51,92521;2,208303;-3,912802
67,7;-51,92441;2,208304;-3,912618
67,8;-51,92361;2,208305;-3,912433
67,9;-51,92281;2,208305;-3,912249
68;-51,92201;2,208306;-3,912065
68,1;-51,92121;2,208307;-3,91188
68,2;-51,92041;2,208308;-3,911695
68,3;-51,91961;2,208308;-3,911511
68,4;-51,9188;2,208309;-3,911327
68,5;-51,918;2,20831;-3,911143
68,6;-51,9172;2,208311;-3,910959
68,7;-51,9164;2,208312;-3,910774
68,8;-51,9156;2,208312;-3,910589
68,9;-51,9148;2,208313;-3,910406
69;-51,914;2,208314;-3,910221
69,1;-51,9132;2,208314;-3,910036
69,2;-51,9124;2,208315;-3,909853
69,3;-51,91159;2,208316;-3,909668
69,4;-51,91079;2,208317;-3,909484
69,5;-51,90999;2,208317;-3,9093
69,6;-51,90919;2,208318;-3,909115
69,7;-51,90839;2,208319;-3,908931
69,8;-51,90759;2,208319;-3,908746
69,9;-51,90679;2,20832;-3,908561
70;-51,90599;2,208321;-3,908378
70,1;-51,90519;2,208322;-3,908193
70,2;-51,90438;2,208323;-3,908009
70,3;-51,90358;2,208323;-3,907825
70,4;-51,90278;2,208324;-3,907641
70,5;-51,90198;2,208325;-3,907456
70,6;-51,90118;2,208326;-3,907272
70,7;-51,90038;2,208327;-3,907087
70,8;-51,89958;2,208327;-3,906903
70,9;-51,89904;2,208088;-3,906646
71;-51,89854;2,208143;-3,906492
71,1;-51,89809;2,208185;-3,906362
71,2;-51,89766;2,208217;-3,906247
71,3;-51,89724;2,208241;-3,906141
71,4;-51,89685;2,20826;-3,906043
71,5;-51,89646;2,208276;-3,90595
71,6;-51,89608;2,208289;-3,905862
71,7;-51,8957;2,208308;-3,905778
71,8;-51,89531;2,208319;-3,905696
71,9;-51,8949;2,20833;-3,905612
72;-51,89448;2,208341;-3,90553
72,1;-51,89403;2,208349;-3,905443
72,2;-51,89355;2,208356;-3,905351
72,3;-51,89305;2,208362;-3,905256
72,4;-51,89254;2,208366;-3,905156
72,5;-51,89199;2,208367;-3,905049
72,6;-51,89143;2,208366;-3,904936
72,7;-51,89085;2,208362;-3,904816
72,8;-51,89026;2,208355;-3,90469
72,9;-51,88967;2,208346;-3,904559
73;-51,88906;2,208335;-3,904421
73,1;-51,88846;2,208325;-3,904283
73,2;-51,88786;2,208315;-3,90414
73,3;-51,88726;2,208306;-3,903996
73,4;-51,88668;2,208297;-3,903853
73,5;-51,88607;2,208336;-3,903722
73,6;-51,88545;2,208328;-3,903584
73,7;-51,88482;2,208324;-3,90344
73,8;-51,88418;2,208322;-3,903297
73,9;-51,88354;2,20832;-3,903151
