timestamp;x;y;z
0;-41,69;1,962155;-54,946
0,1;-41,69;1,950702;-54,946
0,2;-41,69;1,950701;-54,946
0,3;-41,69;1,950701;-54,946
0,4;-41,69;1,950701;-54,946
0,5;-41,69;1,950701;-54,946
0,6;-41,69;1,950701;-54,946
0,7;-41,69;1,950701;-54,946
0,8;-41,69;1,950701;-54,946
0,9;-41,69;1,950701;-54,946
1;-41,69;1,950701;-54,946
1,1;-41,69;1,950701;-54,946
1,2;-41,69;1,950701;-54,946
1,3;-41,69;1,950701;-54,946
1,4;-41,69;1,950701;-54,946
1,5;-41,69;1,950701;-54,946
1,6;-41,69;1,950701;-54,946
1,7;-41,69;1,950701;-54,946
1,8;-41,69;1,950701;-54,946
1,9;-41,69;1,950701;-54,946
2;-41,69;1,950701;-54,946
2,1;-41,69;1,950701;-54,946
2,2;-41,69;1,950701;-54,946
2,3;-41,69;1,950701;-54,946
2,4;-41,69;1,950701;-54,946
2,5;-41,69;1,950701;-54,946
2,6;-41,69;1,950701;-54,946
2,7;-41,69;1,950701;-54,946
2,8;-41,69;1,950701;-54,946
2,9;-41,69;1,950701;-54,946
3;-41,69;1,950701;-54,946
3,1;-41,69;1,950701;-54,946
3,2;-41,69;1,950701;-54,946
3,3;-41,69;1,950701;-54,946
3,4;-41,69;1,950701;-54,946
3,5;-41,69;1,950701;-54,946
3,6;-41,69;1,950701;-54,946
3,7;-41,69;1,950701;-54,946
3,8;-41,69;1,950701;-54,946
3,9;-41,69;1,950701;-54,946
4;-41,69;1,950701;-54,946
4,1;-41,69;1,950701;-54,946
4,2;-41,69;1,950701;-54,946
4,3;-41,69;1,950701;-54,946
4,4;-41,69;1,950701;-54,946
4,5;-41,69;1,950701;-54,946
4,6;-41,69;1,950701;-54,946
4,7;-41,69;1,950701;-54,946
4,8;-41,69;1,950701;-54,946
4,9;-41,69;1,950701;-54,946
5;-41,69;1,950701;-54,946
5,1;-41,69;1,950701;-54,946
5,2;-41,69;1,950701;-54,946
5,3;-41,69;1,950701;-54,946
5,4;-41,69;1,950701;-54,946
5,5;-41,69;1,950701;-54,946
5,6;-41,69;1,950701;-54,946
5,7;-41,69;1,950701;-54,946
5,8;-41,69;1,950701;-54,946
5,9;-41,69;1,950701;-54,946
6;-41,69;1,950701;-54,946
6,1;-41,69;1,950701;-54,946
6,2;-41,69;1,950701;-54,946
6,3;-41,69;1,950701;-54,946
6,4;-41,69;1,950701;-54,946
6,5;-41,69;1,950701;-54,946
6,6;-41,69;1,950701;-54,946
6,7;-41,69;1,950701;-54,946
6,8;-41,69;1,950701;-54,946
6,9;-41,69;1,950701;-54,946
7;-41,69;1,950701;-54,946
7,1;-41,69;1,950701;-54,946
7,2;-41,69;1,950701;-54,946
7,3;-41,69;1,950701;-54,946
7,4;-41,69;1,950701;-54,946
7,5;-41,69;1,950701;-54,946
7,6;-41,69;1,950701;-54,946
7,7;-41,69;1,950701;-54,946
7,8;-41,69;1,950701;-54,946
7,9;-41,69;1,950701;-54,946
8;-41,69;1,950701;-54,946
8,1;-41,69;1,950701;-54,946
8,2;-41,69;1,950701;-54,946
8,3;-41,69;1,950701;-54,946
8,4;-41,69;1,950701;-54,946
8,5;-41,69;1,950701;-54,946
8,6;-41,69;1,950701;-54,946
8,7;-41,69;1,950701;-54,946
8,8;-41,69;1,950701;-54,946
8,9;-41,69;1,950701;-54,946
9;-41,69;1,950701;-54,946
9,1;-41,69;1,950701;-54,946
9,2;-41,69;1,950701;-54,946
9,3;-41,69;1,950701;-54,946
9,4;-41,69;1,950701;-54,946
9,5;-41,69;1,950701;-54,946
9,6;-41,69;1,950701;-54,946
9,7;-41,69;1,950701;-54,946
9,8;-41,69;1,950701;-54,946
9,9;-41,69;1,950701;-54,946
10;-41,69;1,950701;-54,946
10,1;-41,69;1,950701;-54,946
10,2;-41,69;1,950701;-54,946
10,3;-41,69;1,950701;-54,946
10,4;-41,69;1,950701;-54,946
10,5;-41,69;1,950701;-54,946
10,6;-41,69;1,950701;-54,946
10,7;-41,69;1,950701;-54,946
10,8;-41,69;1,950701;-54,946
10,9;-41,69;1,950701;-54,946
11;-41,69;1,950701;-54,946
11,1;-41,69;1,950701;-54,946
11,2;-41,69;1,950701;-54,946
11,3;-41,69;1,950701;-54,946
11,4;-41,69;1,950701;-54,946
11,5;-41,69;1,950701;-54,946
11,6;-41,69;1,950701;-54,946
11,7;-41,69;1,950701;-54,946
11,8;-41,69;1,950701;-54,946
11,9;-41,69;1,950701;-54,946
12;-41,69;1,950701;-54,946
12,1;-41,69;1,950701;-54,946
12,2;-41,69;1,950701;-54,946
12,3;-41,69;1,950701;-54,946
12,4;-41,69;1,950701;-54,946
12,5;-41,69;1,950701;-54,946
12,6;-41,69;1,950701;-54,946
12,7;-41,69;1,950701;-54,946
12,8;-41,69;1,950701;-54,946
12,9;-41,69;1,950701;-54,946
13;-41,69;1,950701;-54,946
13,1;-41,69;1,950701;-54,946
13,2;-41,69;1,950701;-54,946
13,3;-41,69;1,950701;-54,946
13,4;-41,69;1,950701;-54,946
13,5;-41,69;1,950701;-54,946
13,6;-41,69;1,950701;-54,946
13,7;-41,69;1,950701;-54,946
13,8;-41,69;1,950701;-54,946
13,9;-41,69;1,950701;-54,946
14;-41,69;1,950701;-54,946
14,1;-41,69;1,950701;-54,946
14,2;-41,69;1,950701;-54,946
14,3;-41,69;1,950701;-54,946
14,4;-41,69;1,950701;-54,946
14,5;-41,69;1,950701;-54,946
14,6;-41,69;1,950701;-54,946
14,7;-41,69;1,950701;-54,946
14,8;-41,69;1,950701;-54,946
14,9;-41,69;1,950701;-54,946
15;-41,69;1,950701;-54,946
15,1;-41,69;1,950701;-54,946
15,2;-41,69;1,950701;-54,946
15,3;-41,69;1,950701;-54,946
15,4;-41,69;1,950701;-54,946
15,5;-41,69;1,950701;-54,946
15,6;-41,69;1,950701;-54,946
15,7;-41,69;1,950701;-54,946
15,8;-41,69;1,950701;-54,946
15,9;-41,69;1,950701;-54,946
16;-41,69;1,950701;-54,946
16,1;-41,69;1,950701;-54,946
16,2;-41,69;1,950701;-54,946
16,3;-41,69;1,950701;-54,946
16,4;-41,69;1,950701;-54,946
16,5;-41,69;1,950701;-54,946
16,6;-41,69;1,950701;-54,946
16,7;-41,69;1,950701;-54,946
16,8;-41,69;1,950701;-54,946
16,9;-41,69;1,950701;-54,946
17;-41,69;1,950701;-54,946
17,1;-41,69;1,950701;-54,946
17,2;-41,69;1,950701;-54,946
17,3;-41,69;1,950701;-54,946
17,4;-41,69;1,950701;-54,946
17,5;-41,69;1,950701;-54,946
17,6;-41,69;1,950701;-54,946
17,7;-41,69;1,950701;-54,946
17,8;-41,69;1,950701;-54,946
17,9;-41,69;1,950701;-54,946
18;-41,69;1,950701;-54,946
18,1;-41,69;1,950701;-54,946
18,2;-41,69;1,950701;-54,946
18,3;-41,69;1,950701;-54,946
18,4;-41,69;1,950701;-54,946
18,5;-41,69;1,950701;-54,946
18,6;-41,69;1,950701;-54,946
18,7;-41,69;1,950701;-54,946
18,8;-41,69;1,950701;-54,946
18,9;-41,69;1,950701;-54,946
19;-41,69;1,950701;-54,946
19,1;-41,69;1,950701;-54,946
19,2;-41,69;1,950701;-54,946
19,3;-41,69;1,950701;-54,946
19,4;-41,69;1,950701;-54,946
19,5;-41,69;1,950701;-54,946
19,6;-41,69;1,950701;-54,946
19,7;-41,69;1,950701;-54,946
19,8;-41,69;1,950701;-54,946
19,9;-41,69;1,950701;-54,946
20;-41,69;1,950701;-54,946
20,1;-41,69;1,950701;-54,946
20,2;-41,69;1,950701;-54,946
20,3;-41,69;1,950701;-54,946
20,4;-41,69;1,950701;-54,946
20,5;-41,69;1,950701;-54,946
20,6;-41,69;1,950701;-54,946
20,7;-41,69;1,950701;-54,946
20,8;-41,69;1,950701;-54,946
20,9;-41,69;1,950701;-54,946
21;-41,69;1,950701;-54,946
21,1;-41,69;1,950701;-54,946
21,2;-41,69;1,950701;-54,946
21,3;-41,69;1,950701;-54,946
21,4;-41,69;1,950701;-54,946
21,5;-41,69;1,950701;-54,946
21,6;-41,69;1,950701;-54,946
21,7;-41,69;1,950701;-54,946
21,8;-41,69;1,950701;-54,946
21,9;-41,69;1,950701;-54,946
22;-41,69;1,950701;-54,946
22,1;-41,69;1,950701;-54,946
22,2;-41,69;1,950701;-54,946
22,3;-41,69;1,950701;-54,946
22,4;-41,69;1,950701;-54,946
22,5;-41,69;1,950701;-54,946
22,6;-41,69;1,950701;-54,946
22,7;-41,69;1,950701;-54,946
22,8;-41,69;1,950701;-54,946
22,9;-41,69;1,950701;-54,946
23;-41,69;1,950701;-54,946
23,1;-41,69;1,950701;-54,946
23,2;-41,69;1,950701;-54,946
23,3;-41,69;1,950701;-54,946
23,4;-41,69;1,950701;-54,946
23,5;-41,69;1,950701;-54,946
23,6;-41,69;1,950701;-54,946
23,7;-41,69;1,950701;-54,946
23,8;-41,69;1,950701;-54,946
23,9;-41,69;1,950701;-54,946
