timestamp;x;y;z
0;-41,69;1,962155;-54,946
0,1;-41,69;1,950702;-54,946
0,2;-41,69;1,950701;-54,946
0,3;-41,69;1,950701;-54,946
0,4;-41,69;1,950701;-54,946
0,5;-41,69;1,950701;-54,946
0,6;-41,69;1,950701;-54,946
0,7;-41,69;1,950701;-54,946
0,8;-41,69;1,950701;-54,946
0,9;-41,69;1,950701;-54,946
1;-41,69;1,950701;-54,946
1,1;-41,69;1,950701;-54,946
1,2;-41,69;1,950701;-54,946
1,3;-41,69;1,950701;-54,946
1,4;-41,69;1,950701;-54,946
1,5;-41,69;1,950701;-54,946
1,6;-41,69;1,950701;-54,946
1,7;-41,69;1,950701;-54,946
1,8;-41,69;1,950701;-54,946
1,9;-41,69;1,950701;-54,946
2;-41,69;1,950701;-54,946
2,1;-41,69;1,950701;-54,946
2,2;-41,69;1,950701;-54,946
2,3;-41,69;1,950701;-54,946
2,4;-41,69;1,950701;-54,946
2,5;-41,69;1,950701;-54,946
2,6;-41,69;1,950701;-54,946
2,7;-41,69;1,950701;-54,946
2,8;-41,69;1,950701;-54,946
2,9;-41,69;1,950701;-54,946
3;-41,69;1,950701;-54,946
3,1;-41,69;1,950701;-54,946
3,2;-41,69;1,950701;-54,946
3,3;-41,69;1,950701;-54,946
3,4;-41,69;1,950701;-54,946
3,5;-41,69;1,950701;-54,946
3,6;-41,69;1,950701;-54,946
3,7;-41,69;1,950701;-54,946
3,8;-41,69;1,950701;-54,946
3,9;-41,69;1,950701;-54,946
4;-41,69;1,950701;-54,946
4,1;-41,69;1,950701;-54,946
4,2;-41,69;1,950701;-54,946
4,3;-41,69;1,950701;-54,946
4,4;-41,69;1,950701;-54,946
4,5;-41,69;1,950701;-54,946
4,6;-41,69;1,950701;-54,946
4,7;-41,69;1,950701;-54,946
4,8;-41,69;1,950701;-54,946
4,9;-41,69;1,950701;-54,946
5;-41,69;1,950701;-54,946
5,1;-41,69;1,950701;-54,946
5,2;-41,69;1,950701;-54,946
5,3;-41,69;1,950701;-54,946
5,4;-41,69;1,950701;-54,946
5,5;-41,69;1,950701;-54,946
5,6;-41,69;1,950701;-54,946
5,7;-41,69;1,950701;-54,946
5,8;-41,69;1,950701;-54,946
5,9;-41,69;1,950701;-54,946
