timestamp;x;y;z
0;-41,69;1,962155;-54,946
0,1;-41,69;1,950702;-54,946
0,2;-41,69;1,950701;-54,946
0,3;-41,69;1,950701;-54,946
0,4;-41,69;1,950701;-54,946
0,5;-41,69;1,950701;-54,946
0,6;-41,69;1,950701;-54,946
0,7;-41,69;1,950701;-54,946
0,8;-41,69;1,950701;-54,946
0,9;-41,69;1,950701;-54,946
1;-41,69;1,950701;-54,946
1,1;-41,69;1,950701;-54,946
1,2;-41,69;1,950701;-54,946
1,3;-41,69;1,950701;-54,946
1,4;-41,69;1,950701;-54,946
1,5;-41,69;1,950701;-54,946
1,6;-41,69;1,950701;-54,946
1,7;-41,69;1,950701;-54,946
1,8;-41,69;1,950701;-54,946
1,9;-41,69;1,950701;-54,946
2;-41,69;1,950701;-54,946
2,1;-41,69;1,950701;-54,946
2,2;-41,69;1,950701;-54,946
2,3;-41,69;1,950701;-54,946
2,4;-41,69;1,950701;-54,946
2,5;-41,69;1,950701;-54,946
2,6;-41,69;1,950701;-54,946
2,7;-41,69;1,950701;-54,946
2,8;-41,69;1,950701;-54,946
2,9;-41,69;1,950701;-54,946
3;-41,69;1,950701;-54,946
3,1;-41,69;1,950701;-54,946
3,2;-41,69;1,950701;-54,946
3,3;-41,69;1,950701;-54,946
3,4;-41,69;1,950701;-54,946
3,5;-41,69;1,950701;-54,946
3,6;-41,69;1,950701;-54,946
3,7;-41,69;1,950701;-54,946
3,8;-41,69;1,950701;-54,946
3,9;-41,69;1,950701;-54,946
4;-41,69;1,950701;-54,946
4,1;-41,69;1,950701;-54,946
4,2;-41,69;1,950701;-54,946
4,3;-41,69;1,950701;-54,946
4,4;-41,69;1,950701;-54,946
4,5;-41,69;1,950701;-54,946
4,6;-41,69;1,950701;-54,946
4,7;-41,69;1,950701;-54,946
4,8;-41,69;1,950701;-54,946
4,9;-41,69;1,950701;-54,946
5;-41,69;1,950701;-54,946
5,1;-41,69;1,950701;-54,946
5,2;-41,69;1,950701;-54,946
5,3;-41,69;1,950701;-54,946
5,4;-41,69;1,950701;-54,946
5,5;-41,69;1,950701;-54,946
5,6;-41,69;1,950701;-54,946
5,7;-41,69;1,950701;-54,946
5,8;-41,69;1,950701;-54,946
5,9;-41,69;1,950701;-54,946
6;-41,69;1,950701;-54,946
6,1;-41,69;1,950701;-54,946
6,2;-41,69;1,950701;-54,946
6,3;-41,69;1,950701;-54,946
6,4;-41,69;1,950701;-54,946
6,5;-41,69;1,950701;-54,946
6,6;-41,69;1,950701;-54,946
6,7;-41,69;1,950701;-54,946
6,8;-41,69;1,950701;-54,946
6,9;-41,69;1,950701;-54,946
7;-41,69;1,950701;-54,946
7,1;-41,69;1,950701;-54,946
7,2;-41,69;1,950701;-54,946
7,3;-41,69;1,950701;-54,946
7,4;-41,69;1,950701;-54,946
7,5;-41,69;1,950701;-54,946
7,6;-41,69;1,950701;-54,946
7,7;-41,69;1,950701;-54,946
7,8;-41,69;1,950701;-54,946
7,9;-41,69;1,950701;-54,946
8;-41,69;1,950701;-54,946
8,1;-41,69;1,950701;-54,946
8,2;-41,69;1,950701;-54,946
8,3;-41,69;1,950701;-54,946
8,4;-41,69;1,950701;-54,946
8,5;-41,69;1,950701;-54,946
8,6;-41,69;1,950701;-54,946
8,7;-41,69;1,950701;-54,946
8,8;-41,69;1,950701;-54,946
8,9;-41,69;1,950701;-54,946
9;-41,69;1,950701;-54,946
9,1;-41,69;1,950701;-54,946
9,2;-41,69;1,950701;-54,946
9,3;-41,69;1,950701;-54,946
9,4;-41,69;1,950701;-54,946
9,5;-41,69;1,950701;-54,946
9,6;-41,69;1,950701;-54,946
9,7;-41,69;1,950701;-54,946
9,8;-41,69;1,950701;-54,946
9,9;-41,69;1,950701;-54,946
10;-41,69;1,950701;-54,946
10,1;-41,69;1,950701;-54,946
10,2;-41,69;1,950701;-54,946
10,3;-41,69;1,950701;-54,946
10,4;-41,69;1,950701;-54,946
10,5;-41,69;1,950701;-54,946
10,6;-41,69;1,950701;-54,946
10,7;-41,69;1,950701;-54,946
10,8;-41,69;1,950701;-54,946
10,9;-41,69;1,950701;-54,946
11;-41,69;1,950701;-54,946
11,1;-41,69;1,950701;-54,946
11,2;-41,69;1,950701;-54,946
11,3;-41,69;1,950701;-54,946
11,4;-41,69;1,950701;-54,946
11,5;-41,69;1,950701;-54,946
11,6;-41,69;1,950701;-54,946
11,7;-41,69;1,950701;-54,946
11,8;-41,69;1,950701;-54,946
11,9;-41,69;1,950701;-54,946
12;-41,69;1,950701;-54,946
12,1;-41,69;1,950701;-54,946
12,2;-41,69;1,950701;-54,946
12,3;-41,69;1,950701;-54,946
12,4;-41,69;1,950701;-54,946
12,5;-41,69;1,950701;-54,946
12,6;-41,69;1,950701;-54,946
12,7;-41,69;1,950701;-54,946
12,8;-41,69;1,950701;-54,946
12,9;-41,69;1,950701;-54,946
13;-41,69;1,950701;-54,946
13,1;-41,69;1,950701;-54,946
13,2;-41,69;1,950701;-54,946
13,3;-41,69;1,950701;-54,946
13,4;-41,69;1,950701;-54,946
13,5;-41,69;1,950701;-54,946
13,6;-41,69;1,950701;-54,946
13,7;-41,69;1,950701;-54,946
13,8;-41,69;1,950701;-54,946
13,9;-41,69;1,950701;-54,946
14;-41,69;1,950701;-54,946
14,1;-41,69;1,950701;-54,946
14,2;-41,69;1,950701;-54,946
14,3;-41,69;1,950701;-54,946
14,4;-41,69;1,950701;-54,946
14,5;-41,69;1,950701;-54,946
14,6;-41,69;1,950701;-54,946
14,7;-41,69;1,950701;-54,946
14,8;-41,69;1,950701;-54,946
14,9;-41,69;1,950701;-54,946
15;-41,69;1,950701;-54,946
15,1;-41,69;1,950701;-54,946
15,2;-41,69;1,950701;-54,946
15,3;-41,69;1,950701;-54,946
15,4;-41,69;1,950701;-54,946
15,5;-41,69;1,950701;-54,946
15,6;-41,69;1,950701;-54,946
15,7;-41,69;1,950701;-54,946
15,8;-41,69;1,950701;-54,946
15,9;-41,69;1,950701;-54,946
16;-41,69;1,950701;-54,946
16,1;-41,69;1,950701;-54,946
16,2;-41,69;1,950701;-54,946
16,3;-41,69;1,950701;-54,946
16,4;-41,69;1,950701;-54,946
16,5;-41,69;1,950701;-54,946
16,6;-41,69;1,950701;-54,946
16,7;-41,69;1,950701;-54,946
16,8;-41,69;1,950701;-54,946
16,9;-41,69;1,950701;-54,946
17;-41,69;1,950701;-54,946
17,1;-41,69;1,950701;-54,946
17,2;-41,69;1,950701;-54,946
17,3;-41,69;1,950701;-54,946
17,4;-41,69;1,950701;-54,946
17,5;-41,69;1,950701;-54,946
17,6;-41,69;1,950701;-54,946
17,7;-41,69;1,950701;-54,946
17,8;-41,69;1,950701;-54,946
17,9;-41,69;1,950701;-54,946
18;-41,69;1,950701;-54,946
18,1;-41,69;1,950701;-54,946
18,2;-41,69;1,950701;-54,946
18,3;-41,69;1,950701;-54,946
18,4;-41,69;1,950701;-54,946
18,5;-41,69;1,950701;-54,946
18,6;-41,69;1,950701;-54,946
18,7;-41,69;1,950701;-54,946
18,8;-41,69;1,950701;-54,946
18,9;-41,69;1,950701;-54,946
19;-41,69;1,950701;-54,946
19,1;-41,69;1,950701;-54,946
19,2;-41,69;1,950701;-54,946
19,3;-41,69;1,950701;-54,946
19,4;-41,69;1,950701;-54,946
19,5;-41,69;1,950701;-54,946
19,6;-41,69;1,950701;-54,946
19,7;-41,69;1,950701;-54,946
19,8;-41,69;1,950701;-54,946
19,9;-41,69;1,950701;-54,946
20;-41,69;1,950701;-54,946
20,1;-41,69;1,950701;-54,946
20,2;-41,69;1,950701;-54,946
20,3;-41,69;1,950701;-54,946
20,4;-41,69;1,950701;-54,946
20,5;-41,69;1,950701;-54,946
20,6;-41,69;1,950701;-54,946
20,7;-41,69;1,950701;-54,946
20,8;-41,69;1,950701;-54,946
20,9;-41,69;1,950701;-54,946
21;-41,69;1,950701;-54,946
21,1;-41,69;1,950701;-54,946
21,2;-41,69;1,950701;-54,946
21,3;-41,69;1,950701;-54,946
21,4;-41,69;1,950701;-54,946
21,5;-41,69;1,950701;-54,946
21,6;-41,69;1,950701;-54,946
21,7;-41,69;1,950701;-54,946
21,8;-41,69;1,950701;-54,946
21,9;-41,69;1,950701;-54,946
22;-41,69;1,950701;-54,946
22,1;-41,69;1,950701;-54,946
22,2;-41,69;1,950701;-54,946
22,3;-41,69;1,950701;-54,946
22,4;-41,69;1,950701;-54,946
22,5;-41,69;1,950701;-54,946
22,6;-41,69;1,950701;-54,946
22,7;-41,69;1,950701;-54,946
22,8;-41,69;1,950701;-54,946
22,9;-41,69;1,950701;-54,946
23;-41,69;1,950701;-54,946
23,1;-41,69;1,950701;-54,946
23,2;-41,69;1,950701;-54,946
23,3;-41,69;1,950701;-54,946
23,4;-41,69;1,950701;-54,946
23,5;-41,69;1,950701;-54,946
23,6;-41,69;1,950701;-54,946
23,7;-41,69;1,950701;-54,946
23,8;-41,69;1,950701;-54,946
23,9;-41,69;1,950701;-54,946
24;-41,69;1,950701;-54,946
24,1;-41,69;1,950701;-54,946
24,2;-41,69;1,950701;-54,946
24,3;-41,69;1,950701;-54,946
24,4;-41,69;1,950701;-54,946
24,5;-41,69;1,950701;-54,946
24,6;-41,69;1,950701;-54,946
24,7;-41,69;1,950701;-54,946
24,8;-41,69;1,950701;-54,946
24,9;-41,69;1,950701;-54,946
25;-41,69;1,950701;-54,946
25,1;-41,69;1,950701;-54,946
25,2;-41,69;1,950701;-54,946
25,3;-41,69;1,950701;-54,946
25,4;-41,69;1,950701;-54,946
25,5;-41,69;1,950701;-54,946
25,6;-41,69;1,950701;-54,946
25,7;-41,69;1,950701;-54,946
25,8;-41,69;1,950701;-54,946
25,9;-41,69;1,950701;-54,946
26;-41,69;1,950701;-54,946
26,1;-41,69;1,950701;-54,946
26,2;-41,69;1,950701;-54,946
26,3;-41,69;1,950701;-54,946
26,4;-41,69;1,950701;-54,946
26,5;-41,69;1,950701;-54,946
26,6;-41,69;1,950701;-54,946
26,7;-41,69;1,950701;-54,946
26,8;-41,69;1,950701;-54,946
26,9;-41,69;1,950701;-54,946
27;-41,69;1,950701;-54,946
27,1;-41,69;1,950701;-54,946
27,2;-41,69;1,950701;-54,946
27,3;-41,69;1,950701;-54,946
27,4;-41,69;1,950701;-54,946
27,5;-41,69;1,950701;-54,946
27,6;-41,69;1,950701;-54,946
27,7;-41,69;1,950701;-54,946
27,8;-41,69;1,950701;-54,946
27,9;-41,68965;1,950701;-54,93861
28;-41,68887;1,950701;-54,90442
28,1;-41,68792;1,950701;-54,84727
28,2;-41,68682;1,950701;-54,77135
28,3;-41,68587;1,950701;-54,68011
28,4;-41,68889;1,950701;-54,5765
28,5;-41,70055;1,950701;-54,46354
28,6;-41,72243;1,950701;-54,34383
28,7;-41,75325;1,950701;-54,21897
28,8;-41,79082;1,950701;-54,08976
28,9;-41,8325;1,950701;-53,95648
29;-41,87823;1,950701;-53,82001
29,1;-41,92633;1,950701;-53,68055
29,2;-41,97516;1,950701;-53,53822
29,3;-42,02113;1,950701;-53,39254
29,4;-42,06176;1,950701;-53,24358
29,5;-42,0891;1,950701;-55,12539
29,6;-42,10093;1,950693;-55,05617
29,7;-42,1143;1,950692;-54,97044
29,8;-42,12954;1,950691;-54,87132
29,9;-42,14633;1,950695;-54,76125
30;-42,16191;1,950702;-54,64193
30,1;-42,1717;1,950702;-54,51481
30,2;-42,17562;1,950696;-54,38151
30,3;-42,17695;1,950693;-54,24327
30,4;-42,17744;1,950754;-54,10138
30,5;-42,17767;1,951019;-53,9566
30,6;-42,17296;1,950713;-53,80916
30,7;-42,16417;1,950778;-53,66025
30,8;-42,15207;1,950708;-53,50967
30,9;-42,13927;1,950692;-53,35764
31;-42,12592;1,950692;-53,20434
31,1;-42,11615;1,950874;-55,1095
31,2;-42,11024;1,950691;-55,04627
31,3;-42,10298;1,950691;-54,96558
31,4;-42,09444;1,950691;-54,87045
31,5;-42,0849;1,950691;-54,7635
31,6;-42,07519;1,950684;-54,64685
31,7;-42,06905;1,950686;-54,52215
31,8;-42,06628;1,950689;-54,39093
31,9;-42,06485;1,950691;-54,25443
32;-42,06395;1,950691;-54,11359
32,1;-42,0646;1,950814;-53,96988
32,2;-42,06751;1,950772;-53,82333
32,3;-42,07644;1,950881;-53,67495
32,4;-42,08879;1,950727;-53,52462
32,5;-42,10509;1,950689;-53,3731
32,6;-42,12307;1,95069;-53,22032
32,7;-42,13682;1,951139;-55,10413
32,8;-42,14455;1,950692;-55,04236
32,9;-42,15448;1,950691;-54,9632
33;-42,16619;1,950691;-54,86939
33,1;-42,17941;1,950691;-54,7636
33,2;-42,19385;1,950692;-54,64801
33,3;-42,20865;1,950696;-54,52435
33,4;-42,22138;1,950699;-54,39387
33,5;-42,22962;1,9507;-54,25776
33,6;-42,23335;1,950763;-54,11753
33,7;-42,2354;1,951027;-53,97406
33,8;-42,23604;1,950718;-53,82752
33,9;-42,23622;1,950699;-53,6789
34;-42,23571;1,950926;-53,52891
34,1;-42,23486;1,950722;-53,37686
34,2;-42,22984;1,950703;-53,22374
34,3;-42,22166;1,951234;-55,08924
34,4;-42,21951;1,950724;-55,03576
34,5;-42,21649;1,950689;-54,96315
34,6;-42,21537;1,950691;-54,87458
34,7;-42,21472;1,950691;-54,77291
34,8;-42,21419;1,950691;-54,66055
34,9;-42,21368;1,950691;-54,53944
35;-42,21318;1,950692;-54,4112
35,1;-42,21266;1,950692;-54,27712
35,2;-42,21215;1,950691;-54,13829
35,3;-42,2127;1,950802;-53,99618
35,4;-42,21229;1,950713;-53,851
35,5;-42,21255;1,9507;-53,70339
35,6;-42,21196;1,950932;-53,55424
35,7;-42,21122;1,950728;-53,40287
35,8;-42,21075;1,950691;-53,25009
35,9;-42,21022;1,950691;-53,09605
36;-42,21231;1,950727;-55,03547
36,1;-42,21225;1,950692;-54,96179
36,2;-42,21193;1,950691;-54,87232
36,3;-42,21151;1,950691;-54,76992
36,4;-42,21106;1,950691;-54,65696
36,5;-42,21058;1,950691;-54,53537
36,6;-42,21008;1,950691;-54,40673
36,7;-42,20957;1,950691;-54,27234
36,8;-42,20906;1,950691;-54,13323
36,9;-42,20877;1,950843;-53,99099
37;-42,20802;1,950714;-53,84563
37,1;-42,20793;1,950701;-53,69791
37,2;-42,20717;1,950891;-53,54856
37,3;-42,20636;1,950723;-53,39711
37,4;-42,20583;1,950691;-53,24424
37,5;-42,20526;1,950691;-53,09011
37,6;-42,20639;1,95072;-55,01899
37,7;-42,20625;1,950692;-54,93643
37,8;-42,20589;1,950691;-54,8397
37,9;-42,20545;1,950691;-54,73137
38;-42,20498;1,950691;-54,61356
38,1;-42,20449;1,950692;-54,48801
38,2;-42,20399;1,950692;-54,35614
38,3;-42,20348;1,950692;-54,2191
38,4;-42,20369;1,95077;-54,07827
38,5;-42,20352;1,950862;-53,93404
38,6;-42,20363;1,950754;-53,78753
38,7;-42,20329;1,950835;-53,63882
38,8;-42,20258;1,950714;-53,48793
38,9;-42,202;1,950693;-53,33573
39;-42,20144;1,950691;-53,18219
39,1;-42,20103;1,951018;-55,05391
39,2;-42,20055;1,950691;-54,96754
39,3;-42,20012;1,950691;-54,86802
39,4;-42,19965;1,950691;-54,75742
39,5;-42,19917;1,950692;-54,63776
39,6;-42,19868;1,950691;-54,51069
39,7;-42,19817;1,950691;-54,37758
39,8;-42,19766;1,950691;-54,23952
39,9;-42,19739;1,950769;-54,0978
40;-42,19681;1,951002;-53,95306
40,1;-42,19641;1,950724;-53,80558
40,2;-42,19576;1,950866;-53,65667
40,3;-42,19489;1,950722;-53,50539
40,4;-42,19424;1,950694;-53,35301
40,5;-42,19367;1,950691;-53,1993
40,6;-42,19445;1,951127;-55,05964
40,7;-42,19701;1,950698;-54,99454
40,8;-42,19753;1,950692;-54,91227
40,9;-42,19734;1,950691;-54,81576
41;-42,19696;1,950691;-54,70761
41,1;-42,19652;1,950691;-54,58995
41,2;-42,19604;1,950691;-54,46452
41,3;-42,19554;1,950691;-54,33275
41,4;-42,19503;1,950691;-54,19579
41,5;-42,19545;1,95084;-54,05524
41,6;-42,195;1,95075;-53,91094
41,7;-42,19489;1,950705;-53,76443
41,8;-42,19443;1,950837;-53,61594
41,9;-42,19363;1,950707;-53,46522
42;-42,19311;1,950692;-53,31297
42,1;-42,19256;1,950691;-53,1594
42,2;-42,19323;1,951176;-55,03799
42,3;-42,19454;1,950694;-54,96554
42,4;-42,19458;1,950692;-54,87754
42,5;-42,19427;1,950692;-54,77635
42,6;-42,19385;1,950691;-54,66438
42,7;-42,19338;1,950691;-54,54359
42,8;-42,19289;1,950692;-54,41561
42,9;-42,19239;1,950692;-54,28175
43;-42,19188;1,950692;-54,14309
43,1;-42,19173;1,950752;-54,00095
43,2;-42,19098;1,950712;-53,85579
43,3;-42,19107;1,950702;-53,70817
43,4;-42,19048;1,950858;-53,55875
43,5;-42,18976;1,950719;-53,40731
43,6;-42,18924;1,950691;-53,25442
43,7;-42,18869;1,950691;-53,10028
43,8;-42,18729;1,950698;-54,99664
43,9;-42,18661;1,950691;-54,90084
44;-42,18608;1,950692;-54,79327
44,1;-42,18559;1,950691;-54,67609
44,2;-42,18509;1,950691;-54,55106
44,3;-42,18459;1,950692;-54,4196
44,4;-42,18407;1,950692;-54,28289
44,5;-42,18356;1,950692;-54,14191
44,6;-42,1834;1,950753;-53,99788
44,7;-42,18264;1,950712;-53,85118
44,8;-42,1827;1,950704;-53,70231
44,9;-42,18201;1,950792;-53,55191
45;-42,18136;1,950707;-53,39982
45,1;-42,18087;1,950691;-53,24635
45,2;-42,18034;1,950692;-53,09171
45,3;-42,18057;1,950711;-55,00041
45,4;-42,18088;1,950692;-54,91758
45,5;-42,18066;1,950692;-54,82063
45,6;-42,18027;1,950691;-54,71211
45,7;-42,17982;1,950691;-54,59416
45,8;-42,17934;1,950691;-54,46849
45,9;-42,17884;1,950691;-54,33651
46;-42,17833;1,950691;-54,19938
46,1;-42,17818;1,950841;-54,05862
46,2;-42,17743;1,950795;-53,91411
46,3;-42,17747;1,950791;-53,76746
46,4;-42,17731;1,950824;-53,61866
46,5;-42,17646;1,950721;-53,4679
46,6;-42,17596;1,950691;-53,31561
46,7;-42,17543;1,950691;-53,16197
46,8;-42,17706;1,950795;-55,0253
46,9;-42,18058;1,950698;-54,97029
47;-42,18116;1,950693;-54,89567
47,1;-42,18097;1,950692;-54,80542
47,2;-42,18059;1,950692;-54,70237
47,3;-42,18015;1,950691;-54,58889
47,4;-42,17968;1,950692;-54,46687
47,5;-42,17918;1,950691;-54,33788
47,6;-42,17867;1,950691;-54,20319
47,7;-42,17852;1,950842;-54,06443
47,8;-42,1777;1,950839;-53,92164
47,9;-42,17783;1,950791;-53,77631
48;-42,17781;1,950875;-53,62864
48,1;-42,17703;1,950713;-53,47855
48,2;-42,17664;1,950692;-53,32692
48,3;-42,17613;1,950691;-53,17381
48,4;-42,17351;1,950753;-55,02718
48,5;-42,16862;1,950686;-54,93662
48,6;-42,16642;1,95069;-54,83297
48,7;-42,16536;1,950691;-54,71898
48,8;-42,16466;1,950691;-54,59655
48,9;-42,16407;1,950691;-54,46723
49;-42,16353;1,950692;-54,33227
49,1;-42,163;1,950692;-54,19271
49,2;-42,16283;1,95084;-54,04995
49,3;-42,16214;1,950774;-53,90376
49,4;-42,16225;1,95072;-53,75564
49,5;-42,16176;1,950942;-53,60597
49,6;-42,16093;1,95073;-53,4542
49,7;-42,16044;1,950691;-53,30109
49,8;-42,1599;1,950691;-53,14679
49,9;-42,1601;1,951564;-55,01188
50;-42,1609;1,950696;-54,95346
50,1;-42,16115;1,950692;-54,8772
50,2;-42,16089;1,950691;-54,78559
50,3;-42,1605;1,950691;-54,68144
50,4;-42,16005;1,950691;-54,56705
50,5;-42,15956;1,950692;-54,4443
50,6;-42,15907;1,950691;-54,31471
50,7;-42,15856;1,950691;-54,17953
50,8;-42,15898;1,950839;-54,04045
50,9;-42,15853;1,950749;-53,89734
51;-42,15874;1,95072;-53,75177
51,1;-42,15825;1,950935;-53,60412
51,2;-42,15744;1,950729;-53,454
51,3;-42,15696;1,950691;-53,30224
51,4;-42,15643;1,950691;-53,14904
51,5;-42,15453;1,950768;-55,00456
51,6;-42,1513;1,950687;-54,92298
51,7;-42,14982;1,95069;-54,82676
51,8;-42,14904;1,950691;-54,71884
51,9;-42,14845;1,950691;-54,60137
52;-42,14791;1,950691;-54,47609
52,1;-42,1474;1,950691;-54,34444
52,2;-42,14688;1,950691;-54,20758
52,3;-42,1466;1,950768;-54,06683
52,4;-42,14613;1,950945;-53,92273
52,5;-42,14605;1,950806;-53,77589
52,6;-42,14598;1,950986;-53,62715
52,7;-42,1452;1,950731;-53,47605
52,8;-42,14478;1,950691;-53,32354
52,9;-42,14428;1,950691;-53,16975
53;-42,14375;1,950693;-53,0148
53,1;-42,13986;1,95069;-54,93985
53,2;-42,13867;1,950691;-54,85483
53,3;-42,13802;1,950691;-54,75607
53,4;-42,13748;1,950692;-54,64607
53,5;-42,13698;1,950692;-54,52691
53,6;-42,13649;1,950692;-54,40025
53,7;-42,13597;1,950692;-54,26747
53,8;-42,13546;1,950691;-54,12969
53,9;-42,13528;1,95078;-53,98836
54;-42,1344;1,95071;-53,84375
54,1;-42,13547;1,950815;-53,69693
54,2;-42,13481;1,950711;-53,54743
54,3;-42,13437;1,950692;-53,39632
54,4;-42,13387;1,950691;-53,24365
54,5;-42,13333;1,950692;-53,08963
54,6;-42,13178;1,95119;-54,9714
54,7;-42,13058;1,950691;-54,90382
54,8;-42,13014;1,950692;-54,81977
54,9;-42,12969;1,950692;-54,72181
55;-42,12923;1,950691;-54,61247
55,1;-42,12875;1,950692;-54,49384
55,2;-42,12826;1,950691;-54,36762
55,3;-42,12775;1,950691;-54,2352
55,4;-42,12724;1,950691;-54,09771
55,5;-42,127;1,950868;-53,95681
55,6;-42,12634;1,95077;-53,81245
55,7;-42,12731;1,950858;-53,66571
55,8;-42,12652;1,95072;-53,51653
55,9;-42,12604;1,950692;-53,36555
56;-42,12551;1,950691;-53,21299
56,1;-42,12497;1,950695;-53,05906
56,2;-42,12357;1,95069;-54,94227
56,3;-42,12278;1,950691;-54,84857
56,4;-42,12224;1,950691;-54,74271
56,5;-42,12174;1,950691;-54,62693
56,6;-42,12125;1,950692;-54,50304
56,7;-42,12075;1,950691;-54,37251
56,8;-42,12023;1,950692;-54,23658
56,9;-42,11972;1,950691;-54,09621
57;-42,11947;1,950874;-53,95297
57,1;-42,1188;1,950773;-53,8067
57,2;-42,11985;1,950951;-53,65847
57,3;-42,11906;1,950727;-53,50782
57,4;-42,11855;1,950691;-53,3557
57,5;-42,118;1,950691;-53,20222
57,6;-42,11745;1,950698;-53,04755
57,7;-42,11639;1,950915;-54,94053
57,8;-42,11684;1,950692;-54,86055
57,9;-42,11672;1,950692;-54,76613
58;-42,11637;1,950692;-54,65969
58,1;-42,11592;1,950691;-54,54343
58,2;-42,11545;1,950691;-54,41915
58,3;-42,11496;1,950691;-54,28831
58,4;-42,11444;1,950691;-54,15212
58,5;-42,11429;1,950843;-54,01219
58,6;-42,1134;1,950724;-53,86836
58,7;-42,1143;1,950793;-53,72242
58,8;-42,11384;1,950714;-53,5737
58,9;-42,11325;1,950693;-53,42319
59;-42,11271;1,950691;-53,27102
59,1;-42,11216;1,950695;-53,1174
59,2;-42,11155;1,950805;-52,9628
59,3;-42,11148;1,950703;-54,90907
59,4;-42,11202;1,950692;-54,84011
59,5;-42,11183;1,950692;-54,75449
59,6;-42,11145;1,950691;-54,65523
59,7;-42,11101;1,950691;-54,54483
59,8;-42,11053;1,950691;-54,42534
59,9;-42,11004;1,950691;-54,29842
60;-42,10954;1,950691;-54,16542
60,1;-42,10938;1,950839;-54,02802
60,2;-42,10871;1,950783;-53,88622
60,3;-42,1098;1,950759;-53,74166
60,4;-42,10955;1,950731;-53,59433
60,5;-42,10892;1,950696;-53,44482
60,6;-42,1084;1,950691;-53,29345
60,7;-42,10786;1,950695;-53,14049
60,8;-42,10725;1,950803;-52,98642
60,9;-42,1063;1,95074;-54,89821
61;-42,10691;1,950692;-54,81799
61,1;-42,10681;1,950692;-54,72318
61,2;-42,10645;1,950691;-54,61642
61,3;-42,10601;1,950691;-54,4999
61,4;-42,10554;1,950691;-54,3754
61,5;-42,10504;1,950692;-54,24438
61,6;-42,10453;1,950692;-54,10804
61,7;-42,10438;1,950751;-53,96779
61,8;-42,10386;1,95077;-53,82423
61,9;-42,1048;1,950938;-53,67809
62;-42,10385;1,950725;-53,52914
62,1;-42,10328;1,950691;-53,37841
62,2;-42,10271;1,950693;-53,22606
62,3;-42,10214;1,950704;-53,07233
62,4;-42,10141;1,951785;-54,93085
62,5;-42,10097;1,950694;-54,85308
62,6;-42,10112;1,950692;-54,76127
62,7;-42,10085;1,950691;-54,65697
62,8;-42,10044;1,950691;-54,54246
62,9;-42,09998;1,950691;-54,4196
63;-42,09949;1,950691;-54,28992
63,1;-42,09898;1,950691;-54,15467
63,2;-42,0994;1,950837;-54,01552
63,3;-42,09896;1,950739;-53,87233
63,4;-42,10042;1,950772;-53,7268
63,5;-42,0996;1,95071;-53,57845
63,6;-42,09901;1,950692;-53,42813
63,7;-42,09846;1,950691;-53,27611
63,8;-42,09791;1,9507;-53,12263
63,9;-42,09711;1,950727;-52,96803
64;-42,09615;1,950729;-54,87926
64,1;-42,09661;1,950692;-54,79848
64,2;-42,09646;1,950692;-54,70322
64,3;-42,09609;1,950691;-54,59608
64,4;-42,09565;1,950691;-54,47926
64,5;-42,09517;1,950691;-54,35451
64,6;-42,09467;1,950691;-54,22329
64,7;-42,09416;1,950691;-54,08678
64,8;-42,0939;1,950852;-53,94666
64,9;-42,0937;1,950751;-53,80302
65;-42,09457;1,950904;-53,65669
65,1;-42,09364;1,950726;-53,50769
65,2;-42,09304;1,950691;-53,35683
65,3;-42,09246;1,950696;-53,20437
65,4;-42,0918;1,950821;-53,05073
65,5;-42,09093;1,951542;-54,90972
65,6;-42,09048;1,950694;-54,83748
65,7;-42,09056;1,950692;-54,74989
65,8;-42,09027;1,950692;-54,64902
65,9;-42,08986;1,950692;-54,53731
66;-42,0894;1,950691;-54,41674
66,1;-42,08891;1,950691;-54,28894
66,2;-42,08841;1,950691;-54,15522
66,3;-42,08824;1,950837;-54,01723
66,4;-42,0876;1,950768;-53,87492
66,5;-42,08895;1,950767;-53,73005
66,6;-42,08803;1,950709;-53,58229
66,7;-42,08738;1,950692;-53,43243
66,8;-42,0868;1,950693;-53,28079
66,9;-42,0862;1,950725;-53,12768
67;-42,08534;1,950701;-52,97328
67,1;-42,08334;1,95085;-54,87354
67,2;-42,0835;1,950692;-54,80415
67,3;-42,08332;1,950691;-54,71832
67,4;-42,08295;1,950691;-54,6189
67,5;-42,0825;1,950691;-54,50837
67,6;-42,08204;1,950691;-54,38877
67,7;-42,08154;1,950691;-54,26175
67,8;-42,08104;1,950691;-54,12868
67,9;-42,08089;1,950831;-53,99126
68;-42,08028;1,950785;-53,84962
68,1;-42,0819;1,950834;-53,70506
68,2;-42,08086;1,950721;-53,5575
68,3;-42,08017;1,950691;-53,40778
68,4;-42,07956;1,950696;-53,25627
68,5;-42,07885;1,950836;-53,10341
68,6;-42,07802;1,950699;-52,94897
68,7;-42,07629;1,950919;-54,85504
68,8;-42,0778;1,950694;-54,79074
68,9;-42,07797;1,950692;-54,70912
69;-42,07769;1,950691;-54,61314
69,1;-42,07728;1,950691;-54,50542
69,2;-42,07682;1,950691;-54,38811
69,3;-42,07634;1,950692;-54,26298
69,4;-42,07584;1,950692;-54,13144
69,5;-42,0757;1,950838;-53,9953
69,6;-42,07501;1,950792;-53,85472
69,7;-42,07659;1,950802;-53,71098
69,8;-42,07547;1,95072;-53,56418
69,9;-42,07474;1,950691;-53,41504
70;-42,0741;1,950698;-53,264
70,1;-42,07334;1,950842;-53,11155
70,2;-42,0725;1,950698;-52,95742
70,3;-42,07058;1,951732;-54,83785
70,4;-42,07169;1,950695;-54,76236
70,5;-42,07217;1,950692;-54,67241
70,6;-42,072;1,950691;-54,56963
70,7;-42,07162;1,950691;-54,45635
70,8;-42,07117;1,950691;-54,3345
70,9;-42,07069;1,950691;-54,20565
71;-42,07019;1,950691;-54,07109
71,1;-42,06997;1,950895;-53,93259
71,2;-42,07062;1,950792;-53,79007
71,3;-42,07091;1,950759;-53,64455
71,4;-42,06968;1,950699;-53,49642
71,5;-42,06889;1,950694;-53,34618
71,6;-42,06816;1,950781;-53,19434
71,7;-42,06726;1,9507;-53,04081
71,8;-42,06649;1,950713;-52,88628
71,9;-42,06542;1,950703;-54,7815
72;-42,06566;1,950692;-54,68317
72,1;-42,06545;1,950691;-54,57355
72,2;-42,06506;1,950691;-54,45469
72,3;-42,0646;1,950691;-54,32828
72,4;-42,06411;1,950691;-54,1957
72,5;-42,06385;1,950756;-54,05844
72,6;-42,06415;1,951006;-53,91742
72,7;-42,06513;1,950798;-53,77283
72,8;-42,06502;1,950719;-53,6257
72,9;-42,064;1,950694;-53,47629
73;-42,06327;1,950697;-53,32502
73,1;-42,06249;1,950841;-53,17237
73,2;-42,06164;1,950698;-53,0181
73,3;-42,0609;1,950852;-52,86311
73,4;-42,0604;1,950694;-54,72063
73,5;-42,06033;1,950691;-54,58302
73,6;-42,05999;1,950691;-54,44129
73,7;-42,05955;1,950691;-54,2962
73,8;-42,05905;1,950691;-54,14835
73,9;-42,05887;1,950834;-53,9988
74;-42,05883;1,950813;-53,84718
74,1;-42,06019;1,95087;-53,69439
74,2;-42,05884;1,950727;-53,54013
74,3;-42,05789;1,950695;-53,38491
74,4;-42,05706;1,950812;-53,22909
74,5;-42,05611;1,950699;-53,07226
74,6;-42,05533;1,950756;-52,91511
74,7;-42,05469;1,950729;-54,76217
74,8;-42,0548;1,950692;-54,62494
74,9;-42,0546;1,950691;-54,48354
75;-42,0542;1,950691;-54,33871
75,1;-42,05373;1,950691;-54,19108
75,2;-42,05347;1,950769;-54,04154
75,3;-42,05306;1,950809;-53,89018
75,4;-42,05423;1,950785;-53,73746
75,5;-42,05306;1,95072;-53,58354
75,6;-42,05194;1,950694;-53,42846
75,7;-42,05104;1,950795;-53,27274
75,8;-42,05006;1,9507;-53,11601
75,9;-42,04923;1,950709;-52,95889
