timestamp;x;y;z
0;-41,69;1,962155;-54,946
0,1;-41,69;1,950702;-54,946
0,2;-41,69;1,950701;-54,946
0,3;-41,69;1,950701;-54,946
0,4;-41,69;1,950701;-54,946
0,5;-41,69;1,950701;-54,946
0,6;-41,69;1,950701;-54,946
0,7;-41,69;1,950701;-54,946
0,8;-41,69;1,950701;-54,946
0,9;-41,69;1,950701;-54,946
1;-41,69;1,950701;-54,946
1,1;-41,69;1,950701;-54,946
1,2;-41,69;1,950701;-54,946
1,3;-41,69;1,950701;-54,946
1,4;-41,69;1,950701;-54,946
1,5;-41,69;1,950701;-54,946
1,6;-41,69;1,950701;-54,946
1,7;-41,69;1,950701;-54,946
1,8;-41,69;1,950701;-54,946
1,9;-41,69;1,950701;-54,946
2;-41,69;1,950701;-54,946
2,1;-41,69;1,950701;-54,946
2,2;-41,69;1,950701;-54,946
2,3;-41,69;1,950701;-54,946
2,4;-41,69;1,950701;-54,946
2,5;-41,69;1,950701;-54,946
2,6;-41,69;1,950701;-54,946
2,7;-41,69;1,950701;-54,946
2,8;-41,69;1,950701;-54,946
2,9;-41,69;1,950701;-54,946
3;-41,69;1,950701;-54,946
3,1;-41,69;1,950701;-54,946
3,2;-41,69;1,950701;-54,946
3,3;-41,69;1,950701;-54,946
3,4;-41,69;1,950701;-54,946
3,5;-41,69;1,950701;-54,946
3,6;-41,69;1,950701;-54,946
3,7;-41,69;1,950701;-54,946
3,8;-41,69;1,950701;-54,946
3,9;-41,69;1,950701;-54,946
4;-41,69;1,950701;-54,946
4,1;-41,69;1,950701;-54,946
4,2;-41,69;1,950701;-54,946
4,3;-41,69;1,950701;-54,946
4,4;-41,69;1,950701;-54,946
4,5;-41,69;1,950701;-54,946
4,6;-41,69;1,950701;-54,946
4,7;-41,69;1,950701;-54,946
4,8;-41,69;1,950701;-54,946
4,9;-41,69;1,950701;-54,946
5;-41,69;1,950701;-54,946
5,1;-41,69;1,950701;-54,946
5,2;-41,69;1,950701;-54,946
5,3;-41,69;1,950701;-54,946
5,4;-41,69;1,950701;-54,946
5,5;-41,69;1,950701;-54,946
5,6;-41,69;1,950701;-54,946
5,7;-41,69;1,950701;-54,946
5,8;-41,69;1,950701;-54,946
5,9;-41,69;1,950701;-54,946
6;-41,69;1,950701;-54,946
6,1;-41,69;1,950701;-54,946
6,2;-41,69;1,950701;-54,946
6,3;-41,69;1,950701;-54,946
6,4;-41,69;1,950701;-54,946
6,5;-41,69;1,950701;-54,946
6,6;-41,69;1,950701;-54,946
6,7;-41,69;1,950701;-54,946
6,8;-41,69;1,950701;-54,946
6,9;-41,69;1,950701;-54,946
7;-41,69;1,950701;-54,946
7,1;-41,69;1,950701;-54,946
7,2;-41,69;1,950701;-54,946
7,3;-41,69;1,950701;-54,946
7,4;-41,69;1,950701;-54,946
7,5;-41,69;1,950701;-54,946
7,6;-41,69;1,950701;-54,946
7,7;-41,69;1,950701;-54,946
7,8;-41,69;1,950701;-54,946
7,9;-41,69;1,950701;-54,946
8;-41,69;1,950701;-54,946
8,1;-41,69;1,950701;-54,946
8,2;-41,69;1,950701;-54,946
8,3;-41,69;1,950701;-54,946
8,4;-41,69;1,950701;-54,946
8,5;-41,69;1,950701;-54,946
8,6;-41,69;1,950701;-54,946
8,7;-41,69;1,950701;-54,946
8,8;-41,69;1,950701;-54,946
8,9;-41,69;1,950701;-54,946
9;-41,69;1,950701;-54,946
9,1;-41,69;1,950701;-54,946
9,2;-41,69;1,950701;-54,946
9,3;-41,69;1,950701;-54,946
9,4;-41,69;1,950701;-54,946
9,5;-41,69;1,950701;-54,946
9,6;-41,69;1,950701;-54,946
9,7;-41,69;1,950701;-54,946
9,8;-41,69;1,950701;-54,946
9,9;-41,69;1,950701;-54,946
10;-41,69;1,950701;-54,946
10,1;-41,69;1,950701;-54,946
10,2;-41,69;1,950701;-54,946
10,3;-41,69;1,950701;-54,946
10,4;-41,69;1,950701;-54,946
10,5;-41,69;1,950701;-54,946
10,6;-41,69;1,950701;-54,946
10,7;-41,69;1,950701;-54,946
10,8;-41,69;1,950701;-54,946
10,9;-41,69;1,950701;-54,946
11;-41,69;1,950701;-54,946
11,1;-41,69;1,950701;-54,946
11,2;-41,69;1,950701;-54,946
11,3;-41,69;1,950701;-54,946
11,4;-41,69;1,950701;-54,946
11,5;-41,69;1,950701;-54,946
11,6;-41,69;1,950701;-54,946
11,7;-41,69;1,950701;-54,946
11,8;-41,69;1,950701;-54,946
11,9;-41,69;1,950701;-54,946
12;-41,69;1,950701;-54,946
12,1;-41,69;1,950701;-54,946
12,2;-41,69;1,950701;-54,946
12,3;-41,69;1,950701;-54,946
12,4;-41,69;1,950701;-54,946
12,5;-41,69;1,950701;-54,946
12,6;-41,69;1,950701;-54,946
12,7;-41,69;1,950701;-54,946
12,8;-41,69;1,950701;-54,946
12,9;-41,69;1,950701;-54,946
13;-41,69;1,950701;-54,946
13,1;-41,69;1,950701;-54,946
13,2;-41,69;1,950701;-54,946
13,3;-41,69;1,950701;-54,946
13,4;-41,69;1,950701;-54,946
13,5;-41,69;1,950701;-54,946
13,6;-41,69;1,950701;-54,946
13,7;-41,69;1,950701;-54,946
13,8;-41,69;1,950701;-54,946
13,9;-41,69;1,950701;-54,946
14;-41,69;1,950701;-54,946
14,1;-41,69;1,950701;-54,946
14,2;-41,69;1,950701;-54,946
14,3;-41,69;1,950701;-54,946
14,4;-41,69;1,950701;-54,946
14,5;-41,69;1,950701;-54,946
14,6;-41,69;1,950701;-54,946
14,7;-41,69;1,950701;-54,946
14,8;-41,69;1,950701;-54,946
14,9;-41,69;1,950701;-54,946
15;-41,69;1,950701;-54,946
15,1;-41,69;1,950701;-54,946
15,2;-41,69;1,950701;-54,946
15,3;-41,69;1,950701;-54,946
15,4;-41,69;1,950701;-54,946
15,5;-41,69;1,950701;-54,946
15,6;-41,69;1,950701;-54,946
15,7;-41,69;1,950701;-54,946
15,8;-41,69;1,950701;-54,946
15,9;-41,69;1,950701;-54,946
16;-41,69;1,950701;-54,946
16,1;-41,69;1,950701;-54,946
16,2;-41,69;1,950701;-54,946
16,3;-41,69;1,950701;-54,946
16,4;-41,69;1,950701;-54,946
16,5;-41,69;1,950701;-54,946
16,6;-41,69;1,950701;-54,946
16,7;-41,69;1,950701;-54,946
16,8;-41,69;1,950701;-54,946
16,9;-41,69;1,950701;-54,946
17;-41,69;1,950701;-54,946
17,1;-41,69;1,950701;-54,946
17,2;-41,69;1,950701;-54,946
17,3;-41,69;1,950701;-54,946
17,4;-41,69;1,950701;-54,946
17,5;-41,69;1,950701;-54,946
17,6;-41,69;1,950701;-54,946
17,7;-41,69;1,950701;-54,946
17,8;-41,69;1,950701;-54,946
17,9;-41,69;1,950701;-54,946
18;-41,69;1,950701;-54,946
18,1;-41,69;1,950701;-54,946
18,2;-41,69;1,950701;-54,946
18,3;-41,69;1,950701;-54,946
18,4;-41,69;1,950701;-54,946
18,5;-41,69;1,950701;-54,946
18,6;-41,69;1,950701;-54,946
18,7;-41,69;1,950701;-54,946
18,8;-41,69;1,950701;-54,946
18,9;-41,69;1,950701;-54,946
19;-41,69;1,950701;-54,946
19,1;-41,69;1,950701;-54,946
19,2;-41,69;1,950701;-54,946
19,3;-41,69;1,950701;-54,946
19,4;-41,69;1,950701;-54,946
19,5;-41,69;1,950701;-54,946
19,6;-41,69;1,950701;-54,946
19,7;-41,69;1,950701;-54,946
19,8;-41,69;1,950701;-54,946
19,9;-41,69;1,950701;-54,946
20;-41,69;1,950701;-54,946
20,1;-41,69;1,950701;-54,946
20,2;-41,69;1,950701;-54,946
20,3;-41,69;1,950701;-54,946
20,4;-41,69;1,950701;-54,946
20,5;-41,69;1,950701;-54,946
20,6;-41,69;1,950701;-54,946
20,7;-41,69;1,950701;-54,946
20,8;-41,69;1,950701;-54,946
20,9;-41,69;1,950701;-54,946
21;-41,69;1,950701;-54,946
21,1;-41,69;1,950701;-54,946
21,2;-41,69;1,950701;-54,946
21,3;-41,69;1,950701;-54,946
21,4;-41,69;1,950701;-54,946
21,5;-41,69;1,950701;-54,946
21,6;-41,69;1,950701;-54,946
21,7;-41,69;1,950701;-54,946
21,8;-41,69;1,950701;-54,946
21,9;-41,69;1,950701;-54,946
22;-41,69;1,950701;-54,946
22,1;-41,69;1,950701;-54,946
22,2;-41,69;1,950701;-54,946
22,3;-41,69;1,950701;-54,946
22,4;-41,69;1,950701;-54,946
22,5;-41,69;1,950701;-54,946
22,6;-41,69;1,950701;-54,946
22,7;-41,69;1,950701;-54,946
22,8;-41,69;1,950701;-54,946
22,9;-41,69;1,950701;-54,946
23;-41,69;1,950701;-54,946
23,1;-41,69;1,950701;-54,946
23,2;-41,69;1,950701;-54,946
23,3;-41,69;1,950701;-54,946
23,4;-41,69;1,950701;-54,946
23,5;-41,69;1,950701;-54,946
23,6;-41,69;1,950701;-54,946
23,7;-41,69;1,950701;-54,946
23,8;-41,69;1,950701;-54,946
23,9;-41,69;1,950701;-54,946
24;-41,69;1,950701;-54,946
24,1;-41,69;1,950701;-54,946
24,2;-41,69;1,950701;-54,946
24,3;-41,69;1,950701;-54,946
24,4;-41,69;1,950701;-54,946
24,5;-41,69;1,950701;-54,946
24,6;-41,69;1,950701;-54,946
24,7;-41,69;1,950701;-54,946
24,8;-41,69;1,950701;-54,946
24,9;-41,69;1,950701;-54,946
25;-41,69;1,950701;-54,946
25,1;-41,69;1,950701;-54,946
25,2;-41,69;1,950701;-54,946
25,3;-41,69;1,950701;-54,946
25,4;-41,69;1,950701;-54,946
25,5;-41,69;1,950701;-54,946
25,6;-41,69;1,950701;-54,946
25,7;-41,69;1,950701;-54,946
25,8;-41,69;1,950701;-54,946
25,9;-41,69;1,950701;-54,946
26;-41,69;1,950701;-54,946
26,1;-41,69;1,950701;-54,946
26,2;-41,69;1,950701;-54,946
26,3;-41,69;1,950701;-54,946
26,4;-41,69;1,950701;-54,946
26,5;-41,69;1,950701;-54,946
26,6;-41,69;1,950701;-54,946
26,7;-41,69;1,950701;-54,946
26,8;-41,69;1,950701;-54,946
26,9;-41,69;1,950701;-54,946
27;-41,69;1,950701;-54,946
27,1;-41,69;1,950701;-54,946
27,2;-41,69;1,950701;-54,946
27,3;-41,69;1,950701;-54,946
27,4;-41,69;1,950701;-54,946
27,5;-41,69;1,950701;-54,946
27,6;-41,69;1,950701;-54,946
27,7;-41,69;1,950701;-54,946
27,8;-41,69;1,950701;-54,946
27,9;-41,69;1,950701;-54,946
28;-41,69;1,950701;-54,946
28,1;-41,69;1,950701;-54,946
28,2;-41,69;1,950701;-54,946
28,3;-41,69;1,950701;-54,946
28,4;-41,69;1,950701;-54,946
28,5;-41,69;1,950701;-54,946
28,6;-41,69;1,950701;-54,946
28,7;-41,69;1,950701;-54,946
28,8;-41,69;1,950701;-54,946
28,9;-41,69;1,950701;-54,946
29;-41,69;1,950701;-54,946
29,1;-41,69;1,950701;-54,946
29,2;-41,69;1,950701;-54,946
29,3;-41,69;1,950701;-54,946
29,4;-41,69;1,950701;-54,946
29,5;-41,69;1,950701;-54,946
29,6;-41,69;1,950701;-54,946
29,7;-41,69;1,950701;-54,946
29,8;-41,69;1,950701;-54,946
29,9;-41,69;1,950701;-54,946
30;-41,69;1,950701;-54,946
30,1;-41,69;1,950701;-54,946
30,2;-41,69;1,950701;-54,946
30,3;-41,69;1,950701;-54,946
30,4;-41,69;1,950701;-54,946
30,5;-41,69;1,950701;-54,946
30,6;-41,69;1,950701;-54,946
30,7;-41,69;1,950701;-54,946
30,8;-41,69;1,950701;-54,946
30,9;-41,69;1,950701;-54,946
31;-41,69;1,950701;-54,946
31,1;-41,69;1,950701;-54,946
31,2;-41,69;1,950701;-54,946
31,3;-41,69;1,950701;-54,946
31,4;-41,69;1,950701;-54,946
31,5;-41,69;1,950701;-54,946
31,6;-41,69;1,950701;-54,946
31,7;-41,69;1,950701;-54,946
31,8;-41,69;1,950701;-54,946
31,9;-41,69;1,950701;-54,946
32;-41,69;1,950701;-54,946
32,1;-41,69;1,950701;-54,946
32,2;-41,69;1,950701;-54,946
32,3;-41,69;1,950701;-54,946
32,4;-41,69;1,950701;-54,946
32,5;-41,69;1,950701;-54,946
32,6;-41,69;1,950701;-54,946
32,7;-41,69;1,950701;-54,946
32,8;-41,69;1,950701;-54,946
32,9;-41,69;1,950701;-54,946
33;-41,69;1,950701;-54,946
33,1;-41,69;1,950701;-54,946
33,2;-41,69;1,950701;-54,946
33,3;-41,69;1,950701;-54,946
33,4;-41,69;1,950701;-54,946
33,5;-41,69;1,950701;-54,946
33,6;-41,69;1,950701;-54,946
33,7;-41,69;1,950701;-54,946
33,8;-41,69;1,950701;-54,946
33,9;-41,69;1,950701;-54,946
34;-41,69;1,950701;-54,946
34,1;-41,69;1,950701;-54,946
34,2;-41,69;1,950701;-54,946
34,3;-41,69;1,950701;-54,946
34,4;-41,69;1,950701;-54,946
34,5;-41,69;1,950701;-54,946
34,6;-41,69;1,950701;-54,946
34,7;-41,69;1,950701;-54,946
34,8;-41,69;1,950701;-54,946
34,9;-41,69;1,950701;-54,946
35;-41,69;1,950701;-54,946
35,1;-41,69;1,950701;-54,946
35,2;-41,69;1,950701;-54,946
35,3;-41,69;1,950701;-54,946
35,4;-41,69;1,950701;-54,946
35,5;-41,69;1,950701;-54,946
35,6;-41,69;1,950701;-54,946
35,7;-41,69;1,950701;-54,946
35,8;-41,69;1,950701;-54,946
35,9;-41,69;1,950701;-54,946
36;-41,69;1,950701;-54,946
36,1;-41,69;1,950701;-54,946
36,2;-41,69;1,950701;-54,946
36,3;-41,69;1,950701;-54,946
36,4;-41,69;1,950701;-54,946
36,5;-41,69;1,950701;-54,946
36,6;-41,69;1,950701;-54,946
36,7;-41,69;1,950701;-54,946
36,8;-41,69;1,950701;-54,946
36,9;-41,69;1,950701;-54,946
37;-41,69;1,950701;-54,946
37,1;-41,69;1,950701;-54,946
37,2;-41,69;1,950701;-54,946
37,3;-41,69;1,950701;-54,946
37,4;-41,69;1,950701;-54,946
37,5;-41,69;1,950701;-54,946
37,6;-41,69;1,950701;-54,946
37,7;-41,69;1,950701;-54,946
37,8;-41,69;1,950701;-54,946
37,9;-41,69;1,950701;-54,946
38;-41,69;1,950701;-54,946
38,1;-41,69;1,950701;-54,946
38,2;-41,69;1,950701;-54,946
38,3;-41,69;1,950701;-54,946
38,4;-41,69;1,950701;-54,946
38,5;-41,69;1,950701;-54,946
38,6;-41,69;1,950701;-54,946
38,7;-41,69;1,950701;-54,946
38,8;-41,69;1,950701;-54,946
38,9;-41,69;1,950701;-54,946
39;-41,69;1,950701;-54,946
39,1;-41,69;1,950701;-54,946
39,2;-41,69;1,950701;-54,946
39,3;-41,69;1,950701;-54,946
39,4;-41,69;1,950701;-54,946
39,5;-41,69;1,950701;-54,946
39,6;-41,69;1,950701;-54,946
39,7;-41,69;1,950701;-54,946
39,8;-41,69;1,950701;-54,946
39,9;-41,69;1,950701;-54,946
40;-41,69;1,950701;-54,946
40,1;-41,69;1,950701;-54,946
40,2;-41,69;1,950701;-54,946
40,3;-41,69;1,950701;-54,946
40,4;-41,69;1,950701;-54,946
40,5;-41,69;1,950701;-54,946
40,6;-41,69;1,950701;-54,946
40,7;-41,69;1,950701;-54,946
40,8;-41,69;1,950701;-54,946
40,9;-41,69;1,950701;-54,946
41;-41,69;1,950701;-54,946
41,1;-41,69;1,950701;-54,946
41,2;-41,69;1,950701;-54,946
41,3;-41,69;1,950701;-54,946
41,4;-41,69;1,950701;-54,946
41,5;-41,69;1,950701;-54,946
41,6;-41,69;1,950701;-54,946
41,7;-41,69;1,950701;-54,946
41,8;-41,69;1,950701;-54,946
41,9;-41,69;1,950701;-54,946
42;-41,69;1,950701;-54,946
42,1;-41,69;1,950701;-54,946
42,2;-41,69;1,950701;-54,946
42,3;-41,69;1,950701;-54,946
42,4;-41,69;1,950701;-54,946
42,5;-41,69;1,950701;-54,946
42,6;-41,69;1,950701;-54,946
42,7;-41,69;1,950701;-54,946
42,8;-41,69;1,950701;-54,946
42,9;-41,69;1,950701;-54,946
43;-41,69;1,950701;-54,946
43,1;-41,69;1,950701;-54,946
43,2;-41,69;1,950701;-54,946
43,3;-41,69;1,950701;-54,946
43,4;-41,69;1,950701;-54,946
43,5;-41,69;1,950701;-54,946
43,6;-41,69;1,950701;-54,946
43,7;-41,69;1,950701;-54,946
43,8;-41,69;1,950701;-54,946
43,9;-41,69;1,950701;-54,946
44;-41,69;1,950701;-54,946
44,1;-41,69;1,950701;-54,946
44,2;-41,69;1,950701;-54,946
44,3;-41,69;1,950701;-54,946
44,4;-41,69;1,950701;-54,946
44,5;-41,69;1,950701;-54,946
44,6;-41,69;1,950701;-54,946
44,7;-41,69;1,950701;-54,946
44,8;-41,69;1,950701;-54,946
44,9;-41,69;1,950701;-54,946
45;-41,69;1,950701;-54,946
45,1;-41,69;1,950701;-54,946
45,2;-41,69;1,950701;-54,946
45,3;-41,69;1,950701;-54,946
45,4;-41,69;1,950701;-54,946
45,5;-41,69;1,950701;-54,946
45,6;-41,69;1,950701;-54,946
45,7;-41,69;1,950701;-54,946
45,8;-41,69;1,950701;-54,946
45,9;-41,69;1,950701;-54,946
46;-41,69;1,950701;-54,946
46,1;-41,69;1,950701;-54,946
46,2;-41,69;1,950701;-54,946
46,3;-41,69;1,950701;-54,946
46,4;-41,69;1,950701;-54,946
46,5;-41,69;1,950701;-54,946
46,6;-41,69;1,950701;-54,946
46,7;-41,69;1,950701;-54,946
46,8;-41,69;1,950701;-54,946
46,9;-41,69;1,950701;-54,946
47;-41,69;1,950701;-54,946
47,1;-41,69;1,950701;-54,946
47,2;-41,69;1,950701;-54,946
47,3;-41,69;1,950701;-54,946
47,4;-41,69;1,950701;-54,946
47,5;-41,69;1,950701;-54,946
47,6;-41,69;1,950701;-54,946
47,7;-41,69;1,950701;-54,946
47,8;-41,69;1,950701;-54,946
47,9;-41,69;1,950701;-54,946
48;-41,69;1,950701;-54,946
48,1;-41,69;1,950701;-54,946
48,2;-41,69;1,950701;-54,946
48,3;-41,69;1,950701;-54,946
48,4;-41,69;1,950701;-54,946
48,5;-41,69;1,950701;-54,946
48,6;-41,69;1,950701;-54,946
48,7;-41,69;1,950701;-54,946
48,8;-41,69;1,950701;-54,946
48,9;-41,69;1,950701;-54,946
49;-41,69;1,950701;-54,946
49,1;-41,69;1,950701;-54,946
49,2;-41,69;1,950701;-54,946
49,3;-41,69;1,950701;-54,946
49,4;-41,69;1,950701;-54,946
49,5;-41,69;1,950701;-54,946
49,6;-41,69;1,950701;-54,946
49,7;-41,69;1,950701;-54,946
49,8;-41,69;1,950701;-54,946
49,9;-41,69;1,950701;-54,946
50;-41,69;1,950701;-54,946
50,1;-41,69;1,950701;-54,946
50,2;-41,69;1,950701;-54,946
50,3;-41,69;1,950701;-54,946
50,4;-41,69;1,950701;-54,946
50,5;-41,69;1,950701;-54,946
50,6;-41,69;1,950701;-54,946
50,7;-41,69;1,950701;-54,946
50,8;-41,69;1,950701;-54,946
50,9;-41,69;1,950701;-54,946
51;-41,69;1,950701;-54,946
51,1;-41,69;1,950701;-54,946
51,2;-41,69;1,950701;-54,946
51,3;-41,69;1,950701;-54,946
51,4;-41,69;1,950701;-54,946
51,5;-41,69;1,950701;-54,946
51,6;-41,69;1,950701;-54,946
51,7;-41,69;1,950701;-54,946
51,8;-41,69;1,950701;-54,946
51,9;-41,69;1,950701;-54,946
52;-41,69;1,950701;-54,946
52,1;-41,69;1,950701;-54,946
52,2;-41,69;1,950701;-54,946
52,3;-41,69;1,950701;-54,946
52,4;-41,69;1,950701;-54,946
52,5;-41,69;1,950701;-54,946
52,6;-41,69;1,950701;-54,946
52,7;-41,69;1,950701;-54,946
52,8;-41,69;1,950701;-54,946
52,9;-41,69;1,950701;-54,946
53;-41,69;1,950701;-54,946
53,1;-41,69;1,950701;-54,946
53,2;-41,69;1,950701;-54,946
53,3;-41,69;1,950701;-54,946
53,4;-41,69;1,950701;-54,946
53,5;-41,69;1,950701;-54,946
53,6;-41,69;1,950701;-54,946
53,7;-41,69;1,950701;-54,946
53,8;-41,69;1,950701;-54,946
53,9;-41,69;1,950701;-54,946
54;-41,69;1,950701;-54,946
54,1;-41,69;1,950701;-54,946
54,2;-41,69;1,950701;-54,946
54,3;-41,69;1,950701;-54,946
54,4;-41,69;1,950701;-54,946
54,5;-41,69;1,950701;-54,946
54,6;-41,69;1,950701;-54,946
54,7;-41,69;1,950701;-54,946
54,8;-41,69;1,950701;-54,946
54,9;-41,69;1,950701;-54,946
55;-41,69;1,950701;-54,946
55,1;-41,69;1,950701;-54,946
55,2;-41,69;1,950701;-54,946
55,3;-41,69;1,950701;-54,946
55,4;-41,69;1,950701;-54,946
55,5;-41,69;1,950701;-54,946
55,6;-41,69;1,950701;-54,946
55,7;-41,69;1,950701;-54,946
55,8;-41,69;1,950701;-54,946
55,9;-41,69;1,950701;-54,946
56;-41,69;1,950701;-54,946
56,1;-41,69;1,950701;-54,946
56,2;-41,69;1,950701;-54,946
56,3;-41,69;1,950701;-54,946
56,4;-41,69;1,950701;-54,946
56,5;-41,69;1,950701;-54,946
56,6;-41,69;1,950701;-54,946
56,7;-41,69;1,950701;-54,946
56,8;-41,69;1,950701;-54,946
56,9;-41,69;1,950701;-54,946
57;-41,69;1,950701;-54,946
57,1;-41,69;1,950701;-54,946
57,2;-41,69;1,950701;-54,946
57,3;-41,69;1,950701;-54,946
57,4;-41,69;1,950701;-54,946
57,5;-41,69;1,950701;-54,946
57,6;-41,69;1,950701;-54,946
57,7;-41,69;1,950701;-54,946
57,8;-41,69;1,950701;-54,946
57,9;-41,69;1,950701;-54,946
58;-41,69;1,950701;-54,946
58,1;-41,69;1,950701;-54,946
58,2;-41,69;1,950701;-54,946
58,3;-41,69;1,950701;-54,946
58,4;-41,69;1,950701;-54,946
58,5;-41,69;1,950701;-54,946
58,6;-41,69;1,950701;-54,946
58,7;-41,69;1,950701;-54,946
58,8;-41,69;1,950701;-54,946
58,9;-41,69;1,950701;-54,946
59;-41,69;1,950701;-54,946
59,1;-41,69;1,950701;-54,946
59,2;-41,69;1,950701;-54,946
59,3;-41,69;1,950701;-54,946
59,4;-41,69;1,950701;-54,946
59,5;-41,69;1,950701;-54,946
59,6;-41,69;1,950701;-54,946
59,7;-41,69;1,950701;-54,946
59,8;-41,69;1,950701;-54,946
59,9;-41,69;1,950701;-54,946
60;-41,69;1,950701;-54,946
60,1;-41,69;1,950701;-54,946
60,2;-41,69;1,950701;-54,946
60,3;-41,69;1,950701;-54,946
60,4;-41,69;1,950701;-54,946
60,5;-41,69;1,950701;-54,946
60,6;-41,69;1,950701;-54,946
60,7;-41,69;1,950701;-54,946
60,8;-41,69;1,950701;-54,946
60,9;-41,69;1,950701;-54,946
61;-41,69;1,950701;-54,946
61,1;-41,69;1,950701;-54,946
61,2;-41,69;1,950701;-54,946
61,3;-41,69;1,950701;-54,946
61,4;-41,69;1,950701;-54,946
61,5;-41,69;1,950701;-54,946
61,6;-41,69;1,950701;-54,946
61,7;-41,69;1,950701;-54,946
61,8;-41,69;1,950701;-54,946
61,9;-41,69;1,950701;-54,946
62;-41,69;1,950701;-54,946
62,1;-41,69;1,950701;-54,946
62,2;-41,69;1,950701;-54,946
62,3;-41,69;1,950701;-54,946
62,4;-41,69;1,950701;-54,946
62,5;-41,69;1,950701;-54,946
62,6;-41,69;1,950701;-54,946
62,7;-41,69;1,950701;-54,946
62,8;-41,69;1,950701;-54,946
62,9;-41,69;1,950701;-54,946
63;-41,69;1,950701;-54,946
63,1;-41,69;1,950701;-54,946
63,2;-41,69;1,950701;-54,946
63,3;-41,69;1,950701;-54,946
63,4;-41,69;1,950701;-54,946
63,5;-41,69;1,950701;-54,946
63,6;-41,69;1,950701;-54,946
63,7;-41,69;1,950701;-54,946
63,8;-41,69;1,950701;-54,946
63,9;-41,69;1,950701;-54,946
