timestamp;x;y;z
0;-41,69;1,962155;-54,946
0,1;-41,69;1,950702;-54,946
0,2;-41,69;1,950701;-54,946
0,3;-41,69;1,950701;-54,946
0,4;-41,69;1,950701;-54,946
0,5;-41,69;1,950701;-54,946
0,6;-41,69;1,950701;-54,946
0,7;-41,69;1,950701;-54,946
0,8;-41,69;1,950701;-54,946
0,9;-41,69;1,950701;-54,946
1;-41,69;1,950701;-54,946
1,1;-41,69;1,950701;-54,946
1,2;-41,69;1,950701;-54,946
1,3;-41,69;1,950701;-54,946
1,4;-41,69;1,950701;-54,946
1,5;-41,69;1,950701;-54,946
1,6;-41,69;1,950701;-54,946
1,7;-41,69;1,950701;-54,946
1,8;-41,69;1,950701;-54,946
1,9;-41,69;1,950701;-54,946
2;-41,69;1,950701;-54,946
2,1;-41,69;1,950701;-54,946
2,2;-41,69;1,950701;-54,946
2,3;-41,69;1,950701;-54,946
2,4;-41,69;1,950701;-54,946
2,5;-41,69;1,950701;-54,946
2,6;-41,69;1,950701;-54,946
2,7;-41,69;1,950701;-54,946
2,8;-41,69;1,950701;-54,946
2,9;-41,69;1,950701;-54,946
3;-41,69;1,950701;-54,946
3,1;-41,69;1,950701;-54,946
3,2;-41,69;1,950701;-54,946
3,3;-41,69;1,950701;-54,946
3,4;-41,69;1,950701;-54,946
3,5;-41,69;1,950701;-54,946
3,6;-41,69;1,950701;-54,946
3,7;-41,69;1,950701;-54,946
3,8;-41,69;1,950701;-54,946
3,9;-41,69;1,950701;-54,946
4;-41,69;1,950701;-54,946
4,1;-41,69;1,950701;-54,946
4,2;-41,69;1,950701;-54,946
4,3;-41,69;1,950701;-54,946
4,4;-41,69;1,950701;-54,946
4,5;-41,69;1,950701;-54,946
4,6;-41,69;1,950701;-54,946
4,7;-41,69;1,950701;-54,946
4,8;-41,69;1,950701;-54,946
4,9;-41,69;1,950701;-54,946
5;-41,69;1,950701;-54,946
5,1;-41,69;1,950701;-54,946
5,2;-41,69;1,950701;-54,946
5,3;-41,69;1,950701;-54,946
5,4;-41,69;1,950701;-54,946
5,5;-41,69;1,950701;-54,946
5,6;-41,69;1,950701;-54,946
5,7;-41,69;1,950701;-54,946
5,8;-41,69;1,950701;-54,946
5,9;-41,69;1,950701;-54,946
6;-41,69;1,950701;-54,946
6,1;-41,69;1,950701;-54,946
6,2;-41,69;1,950701;-54,946
6,3;-41,69;1,950701;-54,946
6,4;-41,69;1,950701;-54,946
6,5;-41,69;1,950701;-54,946
6,6;-41,69;1,950701;-54,946
6,7;-41,69;1,950701;-54,946
6,8;-41,69;1,950701;-54,946
6,9;-41,69;1,950701;-54,946
7;-41,69;1,950701;-54,946
7,1;-41,69011;1,950701;-54,94228
7,2;-41,69471;1,950701;-54,91374
7,3;-41,7052;1,950701;-54,86192
7,4;-41,72066;1,950701;-54,79103
7,5;-41,73936;1,950701;-54,70436
7,6;-41,75967;1,950701;-54,60454
7,7;-41,78069;1,950701;-54,49388
7,8;-41,80209;1,950701;-54,37434
7,9;-41,82285;1,950701;-54,24741
8;-41,84325;1,950701;-54,11451
8,1;-41,86058;1,950701;-53,97643
8,2;-41,87432;1,950701;-53,83418
8,3;-41,88781;1,950701;-53,68879
8,4;-41,90636;1,950701;-53,54142
8,5;-41,92664;1,950701;-53,39211
8,6;-41,94713;1,950701;-53,24102
8,7;-41,96785;1,950701;-53,08849
8,8;-41,98983;1,950701;-52,93495
8,9;-42,01848;1,950701;-52,78177
9;-42,05627;1,950701;-52,62996
9,1;-42,10175;1,950701;-52,47941
9,2;-42,15371;1,950701;-52,32987
9,3;-42,21066;1,950701;-52,18102
9,4;-42,27201;1,950701;-52,0328
9,5;-42,33616;1,950701;-51,88467
9,6;-42,40182;1,950701;-51,7362
9,7;-42,46789;1,950701;-51,58705
9,8;-42,53271;1,950701;-51,43666
9,9;-42,59743;1,950701;-51,28571
10;-42,66066;1,950701;-51,13374
10,1;-42,72337;1,951826;-50,9831
10,2;-42,78428;1,953347;-50,83269
10,3;-42,84072;1,955122;-50,68203
10,4;-42,89233;1,956643;-50,53111
10,5;-42,93748;1,958161;-50,37986
10,6;-42,97614;1,959661;-50,22836
10,7;-43,01009;1,961154;-50,07709
10,8;-43,04031;1,962643;-49,9262
10,9;-43,06652;1,96411;-49,77557
11;-43,08666;1,965574;-49,625
11,1;-43,10035;1,967056;-49,47462
11,2;-43,10902;1,968531;-49,32458
11,3;-43,11513;1,969998;-49,17499
11,4;-43,12009;1,97146;-49,02581
11,5;-43,12454;1,972918;-48,877
11,6;-43,12891;1,974366;-48,72849
11,7;-43,13466;1,975827;-48,58033
11,8;-43,14306;1,97728;-48,43254
11,9;-43,15318;1,978729;-48,28503
12;-43,16426;1,980177;-48,1377
12,1;-43,17749;1,981624;-47,99061
12,2;-43,1912;1,983067;-47,84362
12,3;-43,2037;1,984508;-47,69654
12,4;-43,21646;1,985949;-47,54951
12,5;-43,22993;1,98739;-47,40257
12,6;-43,24253;1,98883;-47,25557
12,7;-43,25466;1,99027;-47,10855
12,8;-43,26647;1,991703;-46,96151
12,9;-43,27813;1,993134;-46,81447
13;-43,28969;1,994564;-46,66743
13,1;-43,30114;1,995994;-46,5204
13,2;-43,31256;1,997425;-46,37336
13,3;-43,32401;1,998849;-46,22632
13,4;-43,33705;2,000272;-46,07945
13,5;-43,35537;2,001725;-45,93334
13,6;-43,38033;2,003165;-45,78832
13,7;-43,4107;2,0046;-45,64424
13,8;-43,44538;2,006033;-45,50091
13,9;-43,48388;2,007463;-45,35825
14;-43,5252;2,008889;-45,21599
14,1;-43,56794;2,010316;-45,07373
14,2;-43,6113;2,011746;-44,93129
14,3;-43,65497;2,013179;-44,78862
14,4;-43,69876;2,014613;-44,6457
14,5;-43,74249;2,016048;-44,50254
14,6;-43,78521;2,017481;-44,3589
14,7;-43,82546;2,01892;-44,21447
14,8;-43,86321;2,020367;-44,06939
14,9;-43,89968;2,021816;-43,92402
15;-43,93564;2,023263;-43,77858
15,1;-43,97116;2,024711;-43,6331
15,2;-44,00653;2,026111;-43,48757
15,3;-44,04313;2,027579;-43,34215
15,4;-44,0798;2,029028;-43,19668
15,5;-44,11515;2,030465;-43,05101
15,6;-44,14755;2,031916;-42,90487
15,7;-44,17566;2,033368;-42,75805
15,8;-44,20042;2,034818;-42,61084
15,9;-44,22328;2,036267;-42,46353
16;-44,24516;2,037713;-42,31625
16,1;-44,26653;2,039158;-42,16906
16,2;-44,2876;2,040601;-42,02195
16,3;-44,30848;2,042039;-41,87492
16,4;-44,32934;2,043478;-41,728
16,5;-44,35037;2,044913;-41,58117
16,6;-44,37182;2,046348;-41,43446
16,7;-44,39377;2,047784;-41,28788
16,8;-44,41622;2,049218;-41,14141
16,9;-44,43928;2,050652;-40,99504
17;-44,46332;2,052087;-40,84885
17,1;-44,4891;2,053533;-40,70298
17,2;-44,5178;2,054065;-40,55655
17,3;-44,55118;2,054063;-40,41024
17,4;-44,58976;2,053831;-40,26379
17,5;-44,63106;2,053689;-40,11619
17,6;-44,67373;2,05369;-39,96716
17,7;-44,7177;2,053691;-39,81696
17,8;-44,76247;2,053746;-39,66594
17,9;-44,80954;2,053757;-39,51439
18;-44,85587;2,053887;-39,36181
18,1;-44,901;2,053734;-39,20767
18,2;-44,94583;2,053769;-39,05302
18,3;-44,99053;2,053768;-38,89779
18,4;-45,03542;2,053778;-38,74233
18,5;-45,08051;2,053776;-38,5865
18,6;-45,1242;2,053877;-38,43016
18,7;-45,16566;2,053722;-38,27267
18,8;-45,20648;2,053709;-38,1151
18,9;-45,24732;2,053796;-37,95739
19;-45,28782;2,053693;-37,79942
19,1;-45,32778;2,053694;-37,64131
19,2;-45,3663;2,053694;-37,48295
19,3;-45,4033;2,053693;-37,32435
19,4;-45,43901;2,053694;-37,16558
19,5;-45,47343;2,053695;-37,00666
19,6;-45,50565;2,053696;-36,84743
19,7;-45,53481;2,053696;-36,6878
19,8;-45,56118;2,053694;-36,52787
19,9;-45,58583;2,053693;-36,36785
20;-45,60963;2,053693;-36,20786
20,1;-45,633;2,053692;-36,04795
20,2;-45,65617;2,053692;-35,88813
20,3;-45,67922;2,053692;-35,72839
20,4;-45,70217;2,053692;-35,56871
20,5;-45,72506;2,053693;-35,40911
20,6;-45,74788;2,053696;-35,24957
20,7;-45,77159;2,053707;-35,09025
20,8;-45,79396;2,053699;-34,93079
20,9;-45,81383;2,053712;-34,77115
21;-45,83035;2,053817;-34,61132
21,1;-45,84627;2,053738;-34,45139
21,2;-45,86208;2,053696;-34,2916
21,3;-45,87782;2,053774;-34,13178
21,4;-45,89497;2,053763;-33,97211
21,5;-45,91323;2,053832;-33,81225
21,6;-45,93052;2,053737;-33,65211
21,7;-45,94696;2,053689;-33,4918
21,8;-45,96467;2,053687;-33,33181
21,9;-45,9851;2,053685;-33,17223
22;-46,009;2,054248;-33,01359
22,1;-46,0369;2,055716;-32,85734
22,2;-46,06664;2,057105;-32,70176
22,3;-46,09823;2,059591;-32,54839
22,4;-46,13194;2,062087;-32,39597
22,5;-46,16693;2,064587;-32,24424
22,6;-46,20305;2,066976;-32,09274
22,7;-46,23993;2,069365;-31,94157
22,8;-46,27686;2,071682;-31,79043
22,9;-46,31284;2,073943;-31,63909
23;-46,34842;2,076243;-31,48781
23,1;-46,38426;2,078542;-31,33665
23,2;-46,42019;2,080839;-31,18556
23,3;-46,4562;2,083135;-31,03452
23,4;-46,49245;2,085426;-30,88356
23,5;-46,53109;2,087698;-30,73324
23,6;-46,57551;2,089937;-30,58456
23,7;-46,62563;2,092144;-30,43748
23,8;-46,67894;2,094329;-30,2911
23,9;-46,73379;2,096509;-30,14481
24;-46,78938;2,09867;-29,99842
24,1;-46,84522;2,100879;-29,85196
24,2;-46,90058;2,10309;-29,70507
24,3;-46,95545;2,105273;-29,55772
24,4;-47,00769;2,107471;-29,40924
24,5;-47,05652;2,109729;-29,2597
24,6;-47,10228;2,112003;-29,1094
24,7;-47,1451;2,114252;-28,95839
24,8;-47,18644;2,116537;-28,80721
24,9;-47,22666;2,118846;-28,65623
25;-47,26695;2,120754;-28,50437
25,1;-47,30488;2,121742;-28,35089
25,2;-47,33947;2,12297;-28,19677
25,3;-47,37228;2,124246;-28,04225
25,4;-47,40266;2,125533;-29,88729
25,5;-47,43438;2,102374;-29,70708
25,6;-47,45566;2,104095;-29,55855
25,7;-47,47266;2,106401;-29,40946
25,8;-47,48662;2,108727;-29,25954
25,9;-47,49917;2,111066;-29,10906
26;-47,51112;2,113415;-28,95818
26,1;-47,52251;2,115773;-28,80698
26,2;-47,53139;2,118598;-28,65661
26,3;-47,53592;2,119444;-28,50338
26,4;-47,53809;2,120497;-28,35025
26,5;-47,539;2,121856;-28,19723
26,6;-47,54134;2,123163;-28,04385
26,7;-47,54897;2,124557;-27,89042
26,8;-47,56179;2,125942;-27,73708
26,9;-47,57816;2,127304;-27,58369
27;-47,59637;2,128655;-27,43012
27,1;-47,61547;2,130226;-27,27629
27,2;-47,63599;2,131349;-27,12206
27,3;-47,65497;2,13276;-26,96718
27,4;-47,67121;2,13408;-26,81176
27,5;-47,68742;2,135458;-26,65635
27,6;-47,70482;2,136827;-26,50106
27,7;-47,72471;2,13818;-26,34606
27,8;-47,7466;2,13952;-26,19125
27,9;-47,76944;2,140852;-26,0365
28;-47,79275;2,14222;-25,88173
28,1;-47,81763;2,143416;-25,7269
28,2;-47,84289;2,144537;-25,57167
28,3;-47,86668;2,145438;-25,41585
28,4;-47,8906;2,145808;-25,2591
28,5;-47,91474;2,146205;-25,10182
28,6;-47,93716;2,146307;-24,944
28,7;-47,95902;2,146553;-24,78586
28,8;-47,9812;2,146798;-24,62767
28,9;-48,00353;2,147041;-24,46941
29;-48,02595;2,147283;-24,31109
29,1;-48,0484;2,147525;-24,15273
29,2;-48,07086;2,147766;-23,99431
29,3;-48,09325;2,148012;-23,83585
29,4;-48,11495;2,148278;-23,67731
29,5;-48,13569;2,148509;-23,51865
29,6;-48,15279;2,148948;-23,35992
29,7;-48,16726;2,14922;-23,20082
29,8;-48,18169;2,149396;-23,04177
29,9;-48,19675;2,1497;-22,88289
30;-48,2121;2,150015;-22,72392
30,1;-48,22612;2,149998;-22,56434
30,2;-48,23984;2,150192;-22,40489
30,3;-48,25665;2,150394;-22,24582
30,4;-48,27542;2,150591;-22,08695
30,5;-48,29639;2,150775;-21,9283
30,6;-48,31963;2,15087;-21,76987
30,7;-48,34375;2,15102;-21,61154
30,8;-48,36988;2,151188;-21,45354
30,9;-48,39806;2,151348;-21,29579
31;-48,42855;2,151499;-21,13836
31,1;-48,46199;2,151639;-20,98141
31,2;-48,4987;2,151768;-20,82501
31,3;-48,53873;2,151888;-20,66921
31,4;-48,58105;2,151999;-20,51374
31,5;-48,62455;2,152104;-20,35829
31,6;-48,66865;2,152208;-20,20275
31,7;-48,713;2,152312;-20,04704
31,8;-48,75749;2,152414;-19,89118
31,9;-48,80207;2,152517;-19,73518
32;-48,84673;2,152619;-19,57907
32,1;-48,89151;2,152721;-19,42287
32,2;-48,93646;2,152893;-19,26679
32,3;-48,98335;2,152977;-19,11097
32,4;-49,02913;2,153169;-18,95494
32,5;-49,07394;2,153246;-18,79824
32,6;-49,11654;2,153318;-18,64087
32,7;-49,16011;2,153397;-18,4838
32,8;-49,20369;2,15352;-18,32673
32,9;-49,24681;2,153591;-18,16946
33;-49,28907;2,153679;-18,01205
33,1;-49,33037;2,153808;-17,85455
33,2;-49,37072;2,153935;-17,69699
33,3;-49,40965;2,154034;-17,53917
33,4;-49,44792;2,154274;-17,38191
33,5;-49,48549;2,154476;-17,22457
33,6;-49,51787;2,15469;-17,06639
33,7;-49,54356;2,154741;-16,90704
33,8;-49,5672;2,154889;-16,74764
33,9;-49,59368;2,155064;-16,5889
34;-49,62467;2,155214;-16,43103
34,1;-49,65764;2,15536;-16,2736
34,2;-49,69225;2,155562;-16,11663
34,3;-49,72923;2,155694;-15,95991
34,4;-49,7673;2,155822;-15,80325
34,5;-49,80355;2,153087;-17,65449
34,6;-49,83864;2,153368;-17,50895
34,7;-49,87473;2,153678;-17,36149
34,8;-49,9091;2,15449;-17,21307
34,9;-49,94187;2,154165;-17,06179
35;-49,97264;2,154255;-16,90931
35,1;-50,00037;2,154401;-16,75549
35,2;-50,02668;2,154611;-16,60114
35,3;-50,0492;2,154795;-16,44573
35,4;-50,06872;2,155141;-16,28986
35,5;-50,08405;2,155507;-16,13368
35,6;-50,09603;2,156104;-15,9772
35,7;-50,10437;2,155777;-15,8194
35,8;-50,10907;2,155682;-15,66148
35,9;-50,11123;2,156132;-15,50377
36;-50,11187;2,155729;-15,34472
36,1;-50,11684;2,15576;-15,1861
36,2;-50,12516;2,155741;-15,02769
36,3;-50,13552;2,155689;-14,86927
36,4;-50,14692;2,155691;-14,7107
36,5;-50,15864;2,155691;-14,55192
36,6;-50,17032;2,155691;-14,39294
36,7;-50,1818;2,155692;-14,23377
36,8;-50,19295;2,155692;-14,07444
36,9;-50,20364;2,155692;-13,91497
37;-50,21384;2,155692;-13,75538
37,1;-50,22379;2,155692;-13,59571
37,2;-50,23576;2,155651;-13,4363
37,3;-50,24952;2,156029;-13,27696
37,4;-50,26488;2,156504;-13,11808
37,5;-50,28199;2,156762;-12,95905
37,6;-50,29972;2,156819;-12,79985
37,7;-50,31722;2,156909;-12,64049
37,8;-50,33693;2,1573;-12,48161
37,9;-50,3562;2,157518;-12,32253
38;-50,37512;2,157998;-12,16382
38,1;-50,39268;2,158518;-12,00534
38,2;-50,41075;2,159041;-11,84727
38,3;-50,42926;2,159563;-11,68926
38,4;-50,44798;2,160085;-11,53128
38,5;-50,46693;2,160605;-11,37332
38,6;-50,48775;2,161119;-11,21563
38,7;-50,5139;2,161633;-11,05883
38,8;-50,54657;2,162145;-10,9033
38,9;-50,58574;2,162649;-10,74917
39;-50,63032;2,163588;-10,59743
39,1;-50,6814;2,163851;-10,44623
39,2;-50,73623;2,163955;-10,29583
39,3;-50,79067;2,164481;-10,14525
39,4;-50,83946;2,164995;-9,99217
39,5;-50,88129;2,165517;-9,83725
39,6;-50,91516;2,166034;-9,68058
39,7;-50,94133;2,166537;-9,522695
39,8;-50,96326;2,167037;-9,364313
39,9;-50,98467;2,167533;-9,205978
40;-51,01134;2,168036;-9,048704
40,1;-51,04565;2,168555;-8,893126
40,2;-51,08477;2,169062;-8,738828
40,3;-51,12593;2,168772;-8,584153
40,4;-51,16845;2,167659;-8,42839
40,5;-51,20864;2,166851;-8,271855
40,6;-51,24795;2,166189;-8,114385
40,7;-51,28843;2,165166;-7,956146
40,8;-51,32467;2,165981;-7,798665
40,9;-51,36174;2,165361;-7,639954
41;-51,39694;2,166135;-7,48309
41,1;-51,43069;2,166929;-7,326429
41,2;-51,46331;2,167699;-7,16978
41,3;-51,49433;2,168485;-7,013261
41,4;-51,52383;2,169199;-6,85671
41,5;-51,55256;2,169939;-6,700394
41,6;-51,58081;2,170712;-6,544385
41,7;-51,60863;2,17139;-6,388352
41,8;-51,63659;2,172112;-6,232504
41,9;-51,66496;2,17284;-6,076583
42;-51,69353;2,17357;-5,920574
42,1;-51,72221;2,174302;-5,764476
42,2;-51,7496;2,17602;-5,61
42,3;-51,77609;2,178589;-5,457136
42,4;-51,80296;2,181692;-5,305881
42,5;-51,83017;2,184855;-5,154989
42,6;-51,85843;2,188034;-5,004307
42,7;-51,88879;2,191628;-4,854457
42,8;-51,92123;2,194007;-4,703483
42,9;-51,95015;2,196831;-4,553075
43;-51,97793;2,199584;-4,402641
43,1;-52,00626;2,202384;-4,252693
43,2;-52,03495;2,205183;-4,102804
43,3;-52,06379;2,207983;-3,952935
43,4;-52,06239;2,208437;-3,938164
43,5;-52,06194;2,208462;-3,938152
43,6;-52,06145;2,208418;-3,938099
43,7;-52,06101;2,208374;-3,938052
43,8;-52,06064;2,208336;-3,938016
43,9;-52,06027;2,208264;-3,938354
44;-52,05949;2,208157;-3,939768
44,1;-52,05821;2,208064;-3,942111
44,2;-52,05699;2,20816;-3,943144
44,3;-52,05618;2,208166;-3,942959
44,4;-52,05536;2,20817;-3,942768
44,5;-52,05455;2,208174;-3,942578
44,6;-52,05373;2,208177;-3,942388
44,7;-52,05292;2,208179;-3,942198
44,8;-52,0521;2,208181;-3,942011
44,9;-52,05129;2,208183;-3,941822
45;-52,0505;2,208184;-3,941637
45,1;-52,04969;2,208185;-3,941452
45,2;-52,04889;2,208186;-3,941267
45,3;-52,04809;2,208187;-3,941083
45,4;-52,04729;2,208188;-3,940898
45,5;-52,04649;2,208189;-3,940714
45,6;-52,04522;2,208261;-3,94116
45,7;-52,04356;2,208208;-3,93446
45,8;-52,02848;2,208915;-3,910067
45,9;-51,99768;2,208637;-3,879463
