timestamp;x;y;z
0;-41,69;1,962155;-54,946
0,1;-41,69;1,950702;-54,946
0,2;-41,69;1,950701;-54,946
0,3;-41,69;1,950701;-54,946
0,4;-41,69;1,950701;-54,946
0,5;-41,69;1,950701;-54,946
0,6;-41,69;1,950701;-54,946
0,7;-41,69;1,950701;-54,946
0,8;-41,69;1,950701;-54,946
0,9;-41,69;1,950701;-54,946
1;-41,69;1,950701;-54,946
1,1;-41,69;1,950701;-54,946
1,2;-41,69;1,950701;-54,946
1,3;-41,69;1,950701;-54,946
1,4;-41,69;1,950701;-54,946
1,5;-41,69;1,950701;-54,946
1,6;-41,69;1,950701;-54,946
1,7;-41,69;1,950701;-54,946
1,8;-41,69;1,950701;-54,946
1,9;-41,69;1,950701;-54,946
2;-41,69;1,950701;-54,946
2,1;-41,69;1,950701;-54,946
2,2;-41,69;1,950701;-54,946
2,3;-41,69;1,950701;-54,946
2,4;-41,69;1,950701;-54,946
2,5;-41,69;1,950701;-54,946
2,6;-41,69;1,950701;-54,946
2,7;-41,69;1,950701;-54,946
2,8;-41,69;1,950701;-54,946
2,9;-41,69;1,950701;-54,946
3;-41,69;1,950701;-54,946
3,1;-41,69;1,950701;-54,946
3,2;-41,69;1,950701;-54,946
3,3;-41,69;1,950701;-54,946
3,4;-41,69;1,950701;-54,946
3,5;-41,69;1,950701;-54,946
3,6;-41,69;1,950701;-54,946
3,7;-41,69;1,950701;-54,946
3,8;-41,69;1,950701;-54,946
3,9;-41,69;1,950701;-54,946
4;-41,69;1,950701;-54,946
4,1;-41,69;1,950701;-54,946
4,2;-41,69;1,950701;-54,946
4,3;-41,69;1,950701;-54,946
4,4;-41,69;1,950701;-54,946
4,5;-41,69;1,950701;-54,946
4,6;-41,69;1,950701;-54,946
4,7;-41,69;1,950701;-54,946
4,8;-41,69;1,950701;-54,946
4,9;-41,69;1,950701;-54,946
5;-41,69;1,950701;-54,946
5,1;-41,69;1,950701;-54,946
5,2;-41,69;1,950701;-54,946
5,3;-41,69;1,950701;-54,946
5,4;-41,69;1,950701;-54,946
5,5;-41,69;1,950701;-54,946
5,6;-41,69;1,950701;-54,946
5,7;-41,69;1,950701;-54,946
5,8;-41,69;1,950701;-54,946
5,9;-41,69;1,950701;-54,946
6;-41,69;1,950701;-54,946
6,1;-41,69;1,950701;-54,946
6,2;-41,69;1,950701;-54,946
6,3;-41,69;1,950701;-54,946
6,4;-41,69;1,950701;-54,946
6,5;-41,69;1,950701;-54,946
6,6;-41,69;1,950701;-54,946
6,7;-41,69;1,950701;-54,946
6,8;-41,69;1,950701;-54,946
6,9;-41,69;1,950701;-54,946
7;-41,69;1,950701;-54,946
7,1;-41,69;1,950701;-54,946
7,2;-41,69;1,950701;-54,946
7,3;-41,69;1,950701;-54,946
7,4;-41,69;1,950701;-54,946
7,5;-41,69;1,950701;-54,946
7,6;-41,69;1,950701;-54,946
7,7;-41,69;1,950701;-54,946
7,8;-41,69;1,950701;-54,946
7,9;-41,69;1,950701;-54,946
8;-41,69;1,950701;-54,946
8,1;-41,69;1,950701;-54,946
8,2;-41,69;1,950701;-54,946
8,3;-41,69;1,950701;-54,946
8,4;-41,69;1,950701;-54,946
8,5;-41,69;1,950701;-54,946
8,6;-41,69;1,950701;-54,946
8,7;-41,69;1,950701;-54,946
8,8;-41,69;1,950701;-54,946
8,9;-41,69;1,950701;-54,946
9;-41,69;1,950701;-54,946
9,1;-41,69;1,950701;-54,946
9,2;-41,69;1,950701;-54,946
9,3;-41,69;1,950701;-54,946
9,4;-41,69;1,950701;-54,946
9,5;-41,69;1,950701;-54,946
9,6;-41,69;1,950701;-54,946
9,7;-41,69;1,950701;-54,946
9,8;-41,69;1,950701;-54,946
9,9;-41,69;1,950701;-54,946
10;-41,69;1,950701;-54,946
10,1;-41,69;1,950701;-54,946
10,2;-41,69;1,950701;-54,946
10,3;-41,69;1,950701;-54,946
10,4;-41,69;1,950701;-54,946
10,5;-41,69;1,950701;-54,946
10,6;-41,69;1,950701;-54,946
10,7;-41,69;1,950701;-54,946
10,8;-41,69;1,950701;-54,946
10,9;-41,69;1,950701;-54,946
11;-41,69;1,950701;-54,946
11,1;-41,69;1,950701;-54,946
11,2;-41,69;1,950701;-54,946
11,3;-41,69;1,950701;-54,946
11,4;-41,6899;1,950701;-54,94473
11,5;-41,6892;1,950701;-54,92112
11,6;-41,68832;1,950701;-54,8726
11,7;-41,68727;1,950701;-54,80374
11,8;-41,6861;1,950701;-54,71825
11,9;-41,6848;1,950701;-54,61919
12;-41,68336;1,950701;-54,50902
12,1;-41,68182;1,950701;-54,38979
12,2;-41,68019;1,950701;-54,26314
12,3;-41,67851;1,950701;-54,13044
12,4;-41,67677;1,950701;-53,9928
12,5;-41,67563;1,950701;-53,85111
12,6;-41,67565;1,950701;-53,70617
12,7;-41,68658;1,950701;-53,55959
12,8;-41,71616;1,950701;-53,41444
12,9;-41,76494;1,950701;-53,27335
13;-41,82764;1,950701;-53,13551
13,1;-41,89687;1,950701;-52,99784
13,2;-41,96857;1,950701;-52,85855
13,3;-42,03916;1,950701;-52,71632
13,4;-42,10706;1,950701;-52,57102
13,5;-42,1731;1,950701;-52,42358
13,6;-42,23549;1,950701;-52,27374
13,7;-42,29474;1,950701;-52,12208
13,8;-42,35204;1,950701;-51,96928
13,9;-42,40594;1,950701;-51,81502
14;-42,45522;1,950701;-51,65916
14,1;-42,50037;1,950701;-51,50212
14,2;-42,54301;1,950701;-51,34451
14,3;-42,58559;1,950701;-51,18702
14,4;-42,62736;1,951346;-51,03039
14,5;-42,67027;1,952887;-50,87594
14,6;-42,71312;1,954677;-50,72261
14,7;-42,75504;1,9562;-50,57034
14,8;-42,79634;1,957699;-50,41938
14,9;-42,83724;1,959189;-50,2695
15;-42,8779;1,960669;-50,12055
15,1;-42,91827;1,962142;-49,97233
15,2;-42,9584;1,96361;-49,82471
15,3;-42,99839;1,965073;-49,6776
15,4;-43,03823;1,966531;-49,5309
15,5;-43,0778;1,967982;-49,38449
15,6;-43,11453;1,969419;-49,2377
15,7;-43,14317;1,970855;-49,08976
15,8;-43,16297;1,972305;-48,94109
15,9;-43,17594;1,973775;-48,79226
16;-43,18448;1,975235;-48,64351
16,1;-43,19094;1,976692;-48,49498
16,2;-43,19648;1,978146;-48,34669
16,3;-43,2016;1,979597;-48,1986
16,4;-43,2078;1,981048;-48,05074
16,5;-43,2153;1,982496;-47,90308
16,6;-43,22206;1,983944;-47,7555
16,7;-43,22765;1,985388;-47,60796
16,8;-43,23297;1,986833;-47,46049
16,9;-43,23845;1,988278;-47,31308
17;-43,24364;1,989724;-47,16571
17,1;-43,24862;1,991149;-47,01834
17,2;-43,25374;1,992567;-46,87102
17,3;-43,2603;1,993983;-46,72379
17,4;-43,26919;1,995403;-46,57673
17,5;-43,28157;1,996845;-46,43005
17,6;-43,30417;1,998301;-46,28515
17,7;-43,33936;1,999726;-46,14318
17,8;-43,38504;2,001131;-46,00403
17,9;-43,43764;2,002526;-45,86657
18;-43,49493;2,003918;-45,73
18,1;-43,55644;2,005308;-45,5942
18,2;-43,62288;2,006694;-45,45962
18,3;-43,69251;2,00806;-45,32544
18,4;-43,7638;2,009418;-45,19099
18,5;-43,83493;2,010782;-45,05548
18,6;-43,9054;2,01216;-44,91885
18,7;-43,97566;2,013546;-44,78151
18,8;-44,04617;2,01494;-44,64384
18,9;-44,11484;2,016354;-44,50502
19;-44,17649;2,017806;-44,3633
19,1;-44,22555;2,019278;-44,21777
19,2;-44,26279;2,020761;-44,06991
19,3;-44,29088;2,022266;-43,92099
19,4;-44,31131;2,023772;-43,77166
19,5;-44,32572;2,025261;-43,62228
19,6;-44,3364;2,026737;-43,47312
19,7;-44,34578;2,028191;-43,32426
19,8;-44,35415;2,02963;-43,17567
19,9;-44,36209;2,031066;-43,02733
20;-44,36983;2,032502;-42,8792
20,1;-44,37746;2,033937;-42,73124
20,2;-44,38505;2,035369;-42,58343
20,3;-44,3926;2,036801;-42,43573
20,4;-44,40015;2,038231;-42,28814
20,5;-44,40769;2,039661;-42,14062
20,6;-44,41522;2,04109;-41,99317
20,7;-44,42275;2,042518;-41,84577
20,8;-44,43026;2,043947;-41,69841
20,9;-44,43865;2,045375;-41,55113
