%YAML 1.1
%TAG !u! tag:unity3d.com,2011:
--- !u!1045 &1
EditorBuildSettings:
  m_ObjectHideFlags: 0
  serializedVersion: 2
  m_Scenes: []
  m_configObjects:
    Unity.XR.OpenVR.Settings: {fileID: 11400000, guid: f0bfb8248c2674847a918b10e705ac96, type: 2}
    com.unity.xr.management.loader_settings: {fileID: 11400000, guid: df10a5b0818921d46bf8a0712441fa72, type: 2}
